(kicad_sch (version 20230121) (generator eeschema)

  (uuid ffcfa3ff-e6a8-4865-934e-8ce49f298d00)

  (paper "A5")

  (title_block
    (title "Kicad SMD CI test project")
  )

  (lib_symbols
    (symbol "Device:Battery_Cell" (pin_numbers hide) (pin_names (offset 0) hide) (in_bom yes) (on_board yes)
      (property "Reference" "BT" (at 2.54 2.54 0)
        (effects (font (size 1.27 1.27)) (justify left))
      )
      (property "Value" "Battery_Cell" (at 2.54 0 0)
        (effects (font (size 1.27 1.27)) (justify left))
      )
      (property "Footprint" "" (at 0 1.524 90)
        (effects (font (size 1.27 1.27)) hide)
      )
      (property "Datasheet" "~" (at 0 1.524 90)
        (effects (font (size 1.27 1.27)) hide)
      )
      (property "ki_keywords" "battery cell" (at 0 0 0)
        (effects (font (size 1.27 1.27)) hide)
      )
      (property "ki_description" "Single-cell battery" (at 0 0 0)
        (effects (font (size 1.27 1.27)) hide)
      )
      (symbol "Battery_Cell_0_1"
        (rectangle (start -2.286 1.778) (end 2.286 1.524)
          (stroke (width 0) (type default))
          (fill (type outline))
        )
        (rectangle (start -1.524 1.016) (end 1.524 0.508)
          (stroke (width 0) (type default))
          (fill (type outline))
        )
        (polyline
          (pts
            (xy 0 0.762)
            (xy 0 0)
          )
          (stroke (width 0) (type default))
          (fill (type none))
        )
        (polyline
          (pts
            (xy 0 1.778)
            (xy 0 2.54)
          )
          (stroke (width 0) (type default))
          (fill (type none))
        )
        (polyline
          (pts
            (xy 0.762 3.048)
            (xy 1.778 3.048)
          )
          (stroke (width 0.254) (type default))
          (fill (type none))
        )
        (polyline
          (pts
            (xy 1.27 3.556)
            (xy 1.27 2.54)
          )
          (stroke (width 0.254) (type default))
          (fill (type none))
        )
      )
      (symbol "Battery_Cell_1_1"
        (pin passive line (at 0 5.08 270) (length 2.54)
          (name "+" (effects (font (size 1.27 1.27))))
          (number "1" (effects (font (size 1.27 1.27))))
        )
        (pin passive line (at 0 -2.54 90) (length 2.54)
          (name "-" (effects (font (size 1.27 1.27))))
          (number "2" (effects (font (size 1.27 1.27))))
        )
      )
    )
    (symbol "Device:C_Polarized" (pin_numbers hide) (pin_names (offset 0.254)) (in_bom yes) (on_board yes)
      (property "Reference" "C" (at 0.635 2.54 0)
        (effects (font (size 1.27 1.27)) (justify left))
      )
      (property "Value" "C_Polarized" (at 0.635 -2.54 0)
        (effects (font (size 1.27 1.27)) (justify left))
      )
      (property "Footprint" "" (at 0.9652 -3.81 0)
        (effects (font (size 1.27 1.27)) hide)
      )
      (property "Datasheet" "~" (at 0 0 0)
        (effects (font (size 1.27 1.27)) hide)
      )
      (property "ki_keywords" "cap capacitor" (at 0 0 0)
        (effects (font (size 1.27 1.27)) hide)
      )
      (property "ki_description" "Polarized capacitor" (at 0 0 0)
        (effects (font (size 1.27 1.27)) hide)
      )
      (property "ki_fp_filters" "CP_*" (at 0 0 0)
        (effects (font (size 1.27 1.27)) hide)
      )
      (symbol "C_Polarized_0_1"
        (rectangle (start -2.286 0.508) (end 2.286 1.016)
          (stroke (width 0) (type default))
          (fill (type none))
        )
        (polyline
          (pts
            (xy -1.778 2.286)
            (xy -0.762 2.286)
          )
          (stroke (width 0) (type default))
          (fill (type none))
        )
        (polyline
          (pts
            (xy -1.27 2.794)
            (xy -1.27 1.778)
          )
          (stroke (width 0) (type default))
          (fill (type none))
        )
        (rectangle (start 2.286 -0.508) (end -2.286 -1.016)
          (stroke (width 0) (type default))
          (fill (type outline))
        )
      )
      (symbol "C_Polarized_1_1"
        (pin passive line (at 0 3.81 270) (length 2.794)
          (name "~" (effects (font (size 1.27 1.27))))
          (number "1" (effects (font (size 1.27 1.27))))
        )
        (pin passive line (at 0 -3.81 90) (length 2.794)
          (name "~" (effects (font (size 1.27 1.27))))
          (number "2" (effects (font (size 1.27 1.27))))
        )
      )
    )
    (symbol "Device:LED" (pin_numbers hide) (pin_names (offset 1.016) hide) (in_bom yes) (on_board yes)
      (property "Reference" "D" (at 0 2.54 0)
        (effects (font (size 1.27 1.27)))
      )
      (property "Value" "LED" (at 0 -2.54 0)
        (effects (font (size 1.27 1.27)))
      )
      (property "Footprint" "" (at 0 0 0)
        (effects (font (size 1.27 1.27)) hide)
      )
      (property "Datasheet" "~" (at 0 0 0)
        (effects (font (size 1.27 1.27)) hide)
      )
      (property "ki_keywords" "LED diode" (at 0 0 0)
        (effects (font (size 1.27 1.27)) hide)
      )
      (property "ki_description" "Light emitting diode" (at 0 0 0)
        (effects (font (size 1.27 1.27)) hide)
      )
      (property "ki_fp_filters" "LED* LED_SMD:* LED_THT:*" (at 0 0 0)
        (effects (font (size 1.27 1.27)) hide)
      )
      (symbol "LED_0_1"
        (polyline
          (pts
            (xy -1.27 -1.27)
            (xy -1.27 1.27)
          )
          (stroke (width 0.254) (type default))
          (fill (type none))
        )
        (polyline
          (pts
            (xy -1.27 0)
            (xy 1.27 0)
          )
          (stroke (width 0) (type default))
          (fill (type none))
        )
        (polyline
          (pts
            (xy 1.27 -1.27)
            (xy 1.27 1.27)
            (xy -1.27 0)
            (xy 1.27 -1.27)
          )
          (stroke (width 0.254) (type default))
          (fill (type none))
        )
        (polyline
          (pts
            (xy -3.048 -0.762)
            (xy -4.572 -2.286)
            (xy -3.81 -2.286)
            (xy -4.572 -2.286)
            (xy -4.572 -1.524)
          )
          (stroke (width 0) (type default))
          (fill (type none))
        )
        (polyline
          (pts
            (xy -1.778 -0.762)
            (xy -3.302 -2.286)
            (xy -2.54 -2.286)
            (xy -3.302 -2.286)
            (xy -3.302 -1.524)
          )
          (stroke (width 0) (type default))
          (fill (type none))
        )
      )
      (symbol "LED_1_1"
        (pin passive line (at -3.81 0 0) (length 2.54)
          (name "K" (effects (font (size 1.27 1.27))))
          (number "1" (effects (font (size 1.27 1.27))))
        )
        (pin passive line (at 3.81 0 180) (length 2.54)
          (name "A" (effects (font (size 1.27 1.27))))
          (number "2" (effects (font (size 1.27 1.27))))
        )
      )
    )
    (symbol "Device:R" (pin_numbers hide) (pin_names (offset 0)) (in_bom yes) (on_board yes)
      (property "Reference" "R" (at 2.032 0 90)
        (effects (font (size 1.27 1.27)))
      )
      (property "Value" "R" (at 0 0 90)
        (effects (font (size 1.27 1.27)))
      )
      (property "Footprint" "" (at -1.778 0 90)
        (effects (font (size 1.27 1.27)) hide)
      )
      (property "Datasheet" "~" (at 0 0 0)
        (effects (font (size 1.27 1.27)) hide)
      )
      (property "ki_keywords" "R res resistor" (at 0 0 0)
        (effects (font (size 1.27 1.27)) hide)
      )
      (property "ki_description" "Resistor" (at 0 0 0)
        (effects (font (size 1.27 1.27)) hide)
      )
      (property "ki_fp_filters" "R_*" (at 0 0 0)
        (effects (font (size 1.27 1.27)) hide)
      )
      (symbol "R_0_1"
        (rectangle (start -1.016 -2.54) (end 1.016 2.54)
          (stroke (width 0.254) (type default))
          (fill (type none))
        )
      )
      (symbol "R_1_1"
        (pin passive line (at 0 3.81 270) (length 1.27)
          (name "~" (effects (font (size 1.27 1.27))))
          (number "1" (effects (font (size 1.27 1.27))))
        )
        (pin passive line (at 0 -3.81 90) (length 1.27)
          (name "~" (effects (font (size 1.27 1.27))))
          (number "2" (effects (font (size 1.27 1.27))))
        )
      )
    )
    (symbol "GND_7" (power) (pin_names (offset 0)) (in_bom yes) (on_board yes)
      (property "Reference" "#PWR" (at 0 -6.35 0)
        (effects (font (size 1.27 1.27)) hide)
      )
      (property "Value" "GND_7" (at 0 -3.81 0)
        (effects (font (size 1.27 1.27)))
      )
      (property "Footprint" "" (at 0 0 0)
        (effects (font (size 1.27 1.27)) hide)
      )
      (property "Datasheet" "" (at 0 0 0)
        (effects (font (size 1.27 1.27)) hide)
      )
      (property "ki_keywords" "global power" (at 0 0 0)
        (effects (font (size 1.27 1.27)) hide)
      )
      (property "ki_description" "Power symbol creates a global label with name \"GND\" , ground" (at 0 0 0)
        (effects (font (size 1.27 1.27)) hide)
      )
      (symbol "GND_7_0_1"
        (polyline
          (pts
            (xy 0 0)
            (xy 0 -1.27)
            (xy 1.27 -1.27)
            (xy 0 -2.54)
            (xy -1.27 -1.27)
            (xy 0 -1.27)
          )
          (stroke (width 0) (type default))
          (fill (type none))
        )
      )
      (symbol "GND_7_1_1"
        (pin power_in line (at 0 0 270) (length 0) hide
          (name "GND" (effects (font (size 1.27 1.27))))
          (number "1" (effects (font (size 1.27 1.27))))
        )
      )
    )
    (symbol "Graphic:Logo_Open_Hardware_Small" (in_bom no) (on_board no)
      (property "Reference" "#SYM" (at 0 6.985 0)
        (effects (font (size 1.27 1.27)) hide)
      )
      (property "Value" "Logo_Open_Hardware_Small" (at 0 -5.715 0)
        (effects (font (size 1.27 1.27)) hide)
      )
      (property "Footprint" "" (at 0 0 0)
        (effects (font (size 1.27 1.27)) hide)
      )
      (property "Datasheet" "~" (at 0 0 0)
        (effects (font (size 1.27 1.27)) hide)
      )
      (property "Sim.Enable" "0" (at 0 0 0)
        (effects (font (size 1.27 1.27)) hide)
      )
      (property "ki_keywords" "Logo" (at 0 0 0)
        (effects (font (size 1.27 1.27)) hide)
      )
      (property "ki_description" "Open Hardware logo, small" (at 0 0 0)
        (effects (font (size 1.27 1.27)) hide)
      )
      (symbol "Logo_Open_Hardware_Small_0_1"
        (polyline
          (pts
            (xy 3.3528 -4.3434)
            (xy 3.302 -4.318)
            (xy 3.175 -4.2418)
            (xy 2.9972 -4.1148)
            (xy 2.7686 -3.9624)
            (xy 2.54 -3.81)
            (xy 2.3622 -3.7084)
            (xy 2.2352 -3.6068)
            (xy 2.1844 -3.5814)
            (xy 2.159 -3.6068)
            (xy 2.0574 -3.6576)
            (xy 1.905 -3.7338)
            (xy 1.8034 -3.7846)
            (xy 1.6764 -3.8354)
            (xy 1.6002 -3.8354)
            (xy 1.6002 -3.8354)
            (xy 1.5494 -3.7338)
            (xy 1.4732 -3.5306)
            (xy 1.3462 -3.302)
            (xy 1.2446 -3.0226)
            (xy 1.1176 -2.7178)
            (xy 0.9652 -2.413)
            (xy 0.8636 -2.1082)
            (xy 0.7366 -1.8288)
            (xy 0.6604 -1.6256)
            (xy 0.6096 -1.4732)
            (xy 0.5842 -1.397)
            (xy 0.5842 -1.397)
            (xy 0.6604 -1.3208)
            (xy 0.7874 -1.2446)
            (xy 1.0414 -1.016)
            (xy 1.2954 -0.6858)
            (xy 1.4478 -0.3302)
            (xy 1.524 0.0762)
            (xy 1.4732 0.4572)
            (xy 1.3208 0.8128)
            (xy 1.0668 1.143)
            (xy 0.762 1.3716)
            (xy 0.4064 1.524)
            (xy 0 1.5748)
            (xy -0.381 1.5494)
            (xy -0.7366 1.397)
            (xy -1.0668 1.143)
            (xy -1.2192 0.9906)
            (xy -1.397 0.6604)
            (xy -1.524 0.3048)
            (xy -1.524 0.2286)
            (xy -1.4986 -0.1778)
            (xy -1.397 -0.5334)
            (xy -1.1938 -0.8636)
            (xy -0.9144 -1.143)
            (xy -0.8636 -1.1684)
            (xy -0.7366 -1.27)
            (xy -0.635 -1.3462)
            (xy -0.5842 -1.397)
            (xy -1.0668 -2.5908)
            (xy -1.143 -2.794)
            (xy -1.2954 -3.1242)
            (xy -1.397 -3.4036)
            (xy -1.4986 -3.6322)
            (xy -1.5748 -3.7846)
            (xy -1.6002 -3.8354)
            (xy -1.6002 -3.8354)
            (xy -1.651 -3.8354)
            (xy -1.7272 -3.81)
            (xy -1.905 -3.7338)
            (xy -2.0066 -3.683)
            (xy -2.1336 -3.6068)
            (xy -2.2098 -3.5814)
            (xy -2.2606 -3.6068)
            (xy -2.3622 -3.683)
            (xy -2.54 -3.81)
            (xy -2.7686 -3.9624)
            (xy -2.9718 -4.0894)
            (xy -3.1496 -4.2164)
            (xy -3.302 -4.318)
            (xy -3.3528 -4.3434)
            (xy -3.3782 -4.3434)
            (xy -3.429 -4.318)
            (xy -3.5306 -4.2164)
            (xy -3.7084 -4.064)
            (xy -3.937 -3.8354)
            (xy -3.9624 -3.81)
            (xy -4.1656 -3.6068)
            (xy -4.318 -3.4544)
            (xy -4.4196 -3.3274)
            (xy -4.445 -3.2766)
            (xy -4.445 -3.2766)
            (xy -4.4196 -3.2258)
            (xy -4.318 -3.0734)
            (xy -4.2164 -2.8956)
            (xy -4.064 -2.667)
            (xy -3.6576 -2.0828)
            (xy -3.8862 -1.5494)
            (xy -3.937 -1.3716)
            (xy -4.0386 -1.1684)
            (xy -4.0894 -1.0414)
            (xy -4.1148 -0.9652)
            (xy -4.191 -0.9398)
            (xy -4.318 -0.9144)
            (xy -4.5466 -0.8636)
            (xy -4.8006 -0.8128)
            (xy -5.0546 -0.7874)
            (xy -5.2578 -0.7366)
            (xy -5.4356 -0.7112)
            (xy -5.5118 -0.6858)
            (xy -5.5118 -0.6858)
            (xy -5.5372 -0.635)
            (xy -5.5372 -0.5588)
            (xy -5.5372 -0.4318)
            (xy -5.5626 -0.2286)
            (xy -5.5626 0.0762)
            (xy -5.5626 0.127)
            (xy -5.5372 0.4064)
            (xy -5.5372 0.635)
            (xy -5.5372 0.762)
            (xy -5.5372 0.8382)
            (xy -5.5372 0.8382)
            (xy -5.461 0.8382)
            (xy -5.3086 0.889)
            (xy -5.08 0.9144)
            (xy -4.826 0.9652)
            (xy -4.8006 0.9906)
            (xy -4.5466 1.0414)
            (xy -4.318 1.0668)
            (xy -4.1656 1.1176)
            (xy -4.0894 1.143)
            (xy -4.0894 1.143)
            (xy -4.0386 1.2446)
            (xy -3.9624 1.4224)
            (xy -3.8608 1.6256)
            (xy -3.7846 1.8288)
            (xy -3.7084 2.0066)
            (xy -3.6576 2.159)
            (xy -3.6322 2.2098)
            (xy -3.6322 2.2098)
            (xy -3.683 2.286)
            (xy -3.7592 2.413)
            (xy -3.8862 2.5908)
            (xy -4.064 2.8194)
            (xy -4.064 2.8448)
            (xy -4.2164 3.0734)
            (xy -4.3434 3.2512)
            (xy -4.4196 3.3782)
            (xy -4.445 3.4544)
            (xy -4.445 3.4544)
            (xy -4.3942 3.5052)
            (xy -4.2926 3.6322)
            (xy -4.1148 3.81)
            (xy -3.937 4.0132)
            (xy -3.8608 4.064)
            (xy -3.6576 4.2926)
            (xy -3.5052 4.4196)
            (xy -3.4036 4.4958)
            (xy -3.3528 4.5212)
            (xy -3.3528 4.5212)
            (xy -3.302 4.4704)
            (xy -3.1496 4.3688)
            (xy -2.9718 4.2418)
            (xy -2.7432 4.0894)
            (xy -2.7178 4.0894)
            (xy -2.4892 3.937)
            (xy -2.3114 3.81)
            (xy -2.1844 3.7084)
            (xy -2.1336 3.683)
            (xy -2.1082 3.683)
            (xy -2.032 3.7084)
            (xy -1.8542 3.7592)
            (xy -1.6764 3.8354)
            (xy -1.4732 3.937)
            (xy -1.27 4.0132)
            (xy -1.143 4.064)
            (xy -1.0668 4.1148)
            (xy -1.0668 4.1148)
            (xy -1.0414 4.191)
            (xy -1.016 4.3434)
            (xy -0.9652 4.572)
            (xy -0.9144 4.8514)
            (xy -0.889 4.9022)
            (xy -0.8382 5.1562)
            (xy -0.8128 5.3848)
            (xy -0.7874 5.5372)
            (xy -0.762 5.588)
            (xy -0.7112 5.6134)
            (xy -0.5842 5.6134)
            (xy -0.4064 5.6134)
            (xy -0.1524 5.6134)
            (xy 0.0762 5.6134)
            (xy 0.3302 5.6134)
            (xy 0.5334 5.6134)
            (xy 0.6858 5.588)
            (xy 0.7366 5.588)
            (xy 0.7366 5.588)
            (xy 0.762 5.5118)
            (xy 0.8128 5.334)
            (xy 0.8382 5.1054)
            (xy 0.9144 4.826)
            (xy 0.9144 4.7752)
            (xy 0.9652 4.5212)
            (xy 1.016 4.2926)
            (xy 1.0414 4.1402)
            (xy 1.0668 4.0894)
            (xy 1.0668 4.0894)
            (xy 1.1938 4.0386)
            (xy 1.3716 3.9624)
            (xy 1.5748 3.8608)
            (xy 2.0828 3.6576)
            (xy 2.7178 4.0894)
            (xy 2.7686 4.1402)
            (xy 2.9972 4.2926)
            (xy 3.175 4.4196)
            (xy 3.302 4.4958)
            (xy 3.3782 4.5212)
            (xy 3.3782 4.5212)
            (xy 3.429 4.4704)
            (xy 3.556 4.3434)
            (xy 3.7338 4.191)
            (xy 3.9116 3.9878)
            (xy 4.064 3.8354)
            (xy 4.2418 3.6576)
            (xy 4.3434 3.556)
            (xy 4.4196 3.4798)
            (xy 4.4196 3.429)
            (xy 4.4196 3.4036)
            (xy 4.3942 3.3274)
            (xy 4.2926 3.2004)
            (xy 4.1656 2.9972)
            (xy 4.0132 2.794)
            (xy 3.8862 2.5908)
            (xy 3.7592 2.3876)
            (xy 3.6576 2.2352)
            (xy 3.6322 2.159)
            (xy 3.6322 2.1336)
            (xy 3.683 2.0066)
            (xy 3.7592 1.8288)
            (xy 3.8608 1.6002)
            (xy 4.064 1.1176)
            (xy 4.3942 1.0414)
            (xy 4.5974 1.016)
            (xy 4.8768 0.9652)
            (xy 5.1308 0.9144)
            (xy 5.5372 0.8382)
            (xy 5.5626 -0.6604)
            (xy 5.4864 -0.6858)
            (xy 5.4356 -0.6858)
            (xy 5.2832 -0.7366)
            (xy 5.0546 -0.762)
            (xy 4.8006 -0.8128)
            (xy 4.5974 -0.8636)
            (xy 4.3688 -0.9144)
            (xy 4.2164 -0.9398)
            (xy 4.1402 -0.9398)
            (xy 4.1148 -0.9652)
            (xy 4.064 -1.0668)
            (xy 3.9878 -1.2446)
            (xy 3.9116 -1.4478)
            (xy 3.81 -1.651)
            (xy 3.7338 -1.8542)
            (xy 3.683 -2.0066)
            (xy 3.6576 -2.0828)
            (xy 3.683 -2.1336)
            (xy 3.7846 -2.2606)
            (xy 3.8862 -2.4638)
            (xy 4.0386 -2.667)
            (xy 4.191 -2.8956)
            (xy 4.318 -3.0734)
            (xy 4.3942 -3.2004)
            (xy 4.445 -3.2766)
            (xy 4.4196 -3.3274)
            (xy 4.3434 -3.429)
            (xy 4.1656 -3.5814)
            (xy 3.937 -3.8354)
            (xy 3.8862 -3.8608)
            (xy 3.683 -4.064)
            (xy 3.5306 -4.2164)
            (xy 3.4036 -4.318)
            (xy 3.3528 -4.3434)
          )
          (stroke (width 0) (type default))
          (fill (type outline))
        )
      )
    )
    (symbol "Timer:LM555xMM" (in_bom yes) (on_board yes)
      (property "Reference" "U" (at -10.16 8.89 0)
        (effects (font (size 1.27 1.27)) (justify left))
      )
      (property "Value" "LM555xMM" (at 2.54 8.89 0)
        (effects (font (size 1.27 1.27)) (justify left))
      )
      (property "Footprint" "Package_SO:VSSOP-8_3.0x3.0mm_P0.65mm" (at 16.51 -10.16 0)
        (effects (font (size 1.27 1.27)) hide)
      )
      (property "Datasheet" "http://www.ti.com/lit/ds/symlink/lm555.pdf" (at 21.59 -10.16 0)
        (effects (font (size 1.27 1.27)) hide)
      )
      (property "ki_keywords" "single timer 555" (at 0 0 0)
        (effects (font (size 1.27 1.27)) hide)
      )
      (property "ki_description" "Precision Timers, 555 compatible, VSSOP-8" (at 0 0 0)
        (effects (font (size 1.27 1.27)) hide)
      )
      (property "ki_fp_filters" "*VSSOP*3.0x3.0mm*P0.65mm*" (at 0 0 0)
        (effects (font (size 1.27 1.27)) hide)
      )
      (symbol "LM555xMM_0_0"
        (pin power_in line (at 0 -10.16 90) (length 2.54)
          (name "GND" (effects (font (size 1.27 1.27))))
          (number "1" (effects (font (size 1.27 1.27))))
        )
        (pin power_in line (at 0 10.16 270) (length 2.54)
          (name "VCC" (effects (font (size 1.27 1.27))))
          (number "8" (effects (font (size 1.27 1.27))))
        )
      )
      (symbol "LM555xMM_0_1"
        (rectangle (start -8.89 -7.62) (end 8.89 7.62)
          (stroke (width 0.254) (type default))
          (fill (type background))
        )
        (rectangle (start -8.89 -7.62) (end 8.89 7.62)
          (stroke (width 0.254) (type default))
          (fill (type background))
        )
      )
      (symbol "LM555xMM_1_1"
        (pin input line (at -12.7 5.08 0) (length 3.81)
          (name "TR" (effects (font (size 1.27 1.27))))
          (number "2" (effects (font (size 1.27 1.27))))
        )
        (pin output line (at 12.7 5.08 180) (length 3.81)
          (name "Q" (effects (font (size 1.27 1.27))))
          (number "3" (effects (font (size 1.27 1.27))))
        )
        (pin input inverted (at -12.7 -5.08 0) (length 3.81)
          (name "R" (effects (font (size 1.27 1.27))))
          (number "4" (effects (font (size 1.27 1.27))))
        )
        (pin input line (at -12.7 0 0) (length 3.81)
          (name "CV" (effects (font (size 1.27 1.27))))
          (number "5" (effects (font (size 1.27 1.27))))
        )
        (pin input line (at 12.7 -5.08 180) (length 3.81)
          (name "THR" (effects (font (size 1.27 1.27))))
          (number "6" (effects (font (size 1.27 1.27))))
        )
        (pin input line (at 12.7 0 180) (length 3.81)
          (name "DIS" (effects (font (size 1.27 1.27))))
          (number "7" (effects (font (size 1.27 1.27))))
        )
      )
    )
    (symbol "power:+3V0" (power) (pin_names (offset 0)) (in_bom yes) (on_board yes)
      (property "Reference" "#PWR" (at 0 -3.81 0)
        (effects (font (size 1.27 1.27)) hide)
      )
      (property "Value" "+3V0" (at 0 3.556 0)
        (effects (font (size 1.27 1.27)))
      )
      (property "Footprint" "" (at 0 0 0)
        (effects (font (size 1.27 1.27)) hide)
      )
      (property "Datasheet" "" (at 0 0 0)
        (effects (font (size 1.27 1.27)) hide)
      )
      (property "ki_keywords" "global power" (at 0 0 0)
        (effects (font (size 1.27 1.27)) hide)
      )
      (property "ki_description" "Power symbol creates a global label with name \"+3V0\"" (at 0 0 0)
        (effects (font (size 1.27 1.27)) hide)
      )
      (symbol "+3V0_0_1"
        (polyline
          (pts
            (xy -0.762 1.27)
            (xy 0 2.54)
          )
          (stroke (width 0) (type default))
          (fill (type none))
        )
        (polyline
          (pts
            (xy 0 0)
            (xy 0 2.54)
          )
          (stroke (width 0) (type default))
          (fill (type none))
        )
        (polyline
          (pts
            (xy 0 2.54)
            (xy 0.762 1.27)
          )
          (stroke (width 0) (type default))
          (fill (type none))
        )
      )
      (symbol "+3V0_1_1"
        (pin power_in line (at 0 0 90) (length 0) hide
          (name "+3V0" (effects (font (size 1.27 1.27))))
          (number "1" (effects (font (size 1.27 1.27))))
        )
      )
    )
    (symbol "power:GND" (power) (pin_names (offset 0)) (in_bom yes) (on_board yes)
      (property "Reference" "#PWR" (at 0 -6.35 0)
        (effects (font (size 1.27 1.27)) hide)
      )
      (property "Value" "GND" (at 0 -3.81 0)
        (effects (font (size 1.27 1.27)))
      )
      (property "Footprint" "" (at 0 0 0)
        (effects (font (size 1.27 1.27)) hide)
      )
      (property "Datasheet" "" (at 0 0 0)
        (effects (font (size 1.27 1.27)) hide)
      )
      (property "ki_keywords" "global power" (at 0 0 0)
        (effects (font (size 1.27 1.27)) hide)
      )
      (property "ki_description" "Power symbol creates a global label with name \"GND\" , ground" (at 0 0 0)
        (effects (font (size 1.27 1.27)) hide)
      )
      (symbol "GND_0_1"
        (polyline
          (pts
            (xy 0 0)
            (xy 0 -1.27)
            (xy 1.27 -1.27)
            (xy 0 -2.54)
            (xy -1.27 -1.27)
            (xy 0 -1.27)
          )
          (stroke (width 0) (type default))
          (fill (type none))
        )
      )
      (symbol "GND_1_1"
        (pin power_in line (at 0 0 270) (length 0) hide
          (name "GND" (effects (font (size 1.27 1.27))))
          (number "1" (effects (font (size 1.27 1.27))))
        )
      )
    )
    (symbol "power:PWR_FLAG" (power) (pin_numbers hide) (pin_names (offset 0) hide) (in_bom yes) (on_board yes)
      (property "Reference" "#FLG" (at 0 1.905 0)
        (effects (font (size 1.27 1.27)) hide)
      )
      (property "Value" "PWR_FLAG" (at 0 3.81 0)
        (effects (font (size 1.27 1.27)))
      )
      (property "Footprint" "" (at 0 0 0)
        (effects (font (size 1.27 1.27)) hide)
      )
      (property "Datasheet" "~" (at 0 0 0)
        (effects (font (size 1.27 1.27)) hide)
      )
      (property "ki_keywords" "flag power" (at 0 0 0)
        (effects (font (size 1.27 1.27)) hide)
      )
      (property "ki_description" "Special symbol for telling ERC where power comes from" (at 0 0 0)
        (effects (font (size 1.27 1.27)) hide)
      )
      (symbol "PWR_FLAG_0_0"
        (pin power_out line (at 0 0 90) (length 0)
          (name "pwr" (effects (font (size 1.27 1.27))))
          (number "1" (effects (font (size 1.27 1.27))))
        )
      )
      (symbol "PWR_FLAG_0_1"
        (polyline
          (pts
            (xy 0 0)
            (xy 0 1.27)
            (xy -1.016 1.905)
            (xy 0 2.54)
            (xy 1.016 1.905)
            (xy 0 1.27)
          )
          (stroke (width 0) (type default))
          (fill (type none))
        )
      )
    )
  )

  (junction (at 97.79 44.45) (diameter 0) (color 0 0 0 0)
    (uuid 0acb5fa8-e307-4fad-a221-acda6ac3f450)
  )
  (junction (at 97.79 43.18) (diameter 0) (color 0 0 0 0)
    (uuid 23c40757-a48e-429f-a5fc-665b15c72a7a)
  )
  (junction (at 97.79 68.58) (diameter 0) (color 0 0 0 0)
    (uuid 532bf9a5-5908-4ba4-b926-b60f7dd8799b)
  )
  (junction (at 120.65 55.88) (diameter 0) (color 0 0 0 0)
    (uuid 6e0510bd-f34a-45c6-b3c7-90cf2cb5f309)
  )
  (junction (at 111.76 60.96) (diameter 0) (color 0 0 0 0)
    (uuid 91d1284c-47cf-419c-8aae-8d24df1510e0)
  )
  (junction (at 81.28 50.8) (diameter 0) (color 0 0 0 0)
    (uuid a912a82d-5dfa-4c38-8122-da3a6a169e46)
  )
  (junction (at 97.79 69.85) (diameter 0) (color 0 0 0 0)
    (uuid dd62846b-0f57-463c-af8e-1f4c251c5a0a)
  )

  (no_connect (at 82.55 55.88) (uuid 5579cea5-309b-4250-b18d-0b4af0ef4275))

  (wire (pts (xy 81.28 50.8) (xy 85.09 50.8))
    (stroke (width 0) (type default))
    (uuid 063b5520-8416-4cc4-8ab7-d3967aade3da)
  )
  (wire (pts (xy 110.49 60.96) (xy 111.76 60.96))
    (stroke (width 0) (type default))
    (uuid 07897d9d-e2c4-4d73-a79f-6d5ce09471c9)
  )
  (wire (pts (xy 110.49 55.88) (xy 120.65 55.88))
    (stroke (width 0) (type default))
    (uuid 0e1f7859-b643-4632-bbde-42a3ae686a91)
  )
  (wire (pts (xy 97.79 43.18) (xy 111.76 43.18))
    (stroke (width 0) (type default))
    (uuid 0e62a02e-ede8-4bc6-982e-10ff75b4d542)
  )
  (wire (pts (xy 80.01 60.96) (xy 85.09 60.96))
    (stroke (width 0) (type default))
    (uuid 1cef9092-ad6b-4494-a832-e61004170d7c)
  )
  (wire (pts (xy 97.79 43.18) (xy 97.79 44.45))
    (stroke (width 0) (type default))
    (uuid 231a982b-f57c-4d6f-b03e-3dc667f0998f)
  )
  (wire (pts (xy 129.54 50.8) (xy 110.49 50.8))
    (stroke (width 0) (type default))
    (uuid 369c880f-d9ed-4274-ac0d-9f471da0dab5)
  )
  (wire (pts (xy 17.78 116.84) (xy 17.78 119.38))
    (stroke (width 0) (type default))
    (uuid 415f5cd0-2658-4190-a28f-6015a7dd33e0)
  )
  (wire (pts (xy 97.79 68.58) (xy 97.79 69.85))
    (stroke (width 0) (type default))
    (uuid 41f1832b-d58c-41dc-ad2a-6681bba75ab5)
  )
  (wire (pts (xy 97.79 44.45) (xy 97.79 45.72))
    (stroke (width 0) (type default))
    (uuid 441f0acf-9e5a-4835-866e-0cfb1bde9fd2)
  )
  (wire (pts (xy 97.79 40.64) (xy 97.79 43.18))
    (stroke (width 0) (type default))
    (uuid 469d6db2-8688-4d2f-bb9e-64aa7d5cc39c)
  )
  (wire (pts (xy 82.55 55.88) (xy 85.09 55.88))
    (stroke (width 0) (type default))
    (uuid 4a0dae1e-4794-4bcb-893c-8cee1eddb84b)
  )
  (wire (pts (xy 97.79 69.85) (xy 129.54 69.85))
    (stroke (width 0) (type default))
    (uuid 4f681e92-867b-4f55-afd2-e98800ea6897)
  )
  (wire (pts (xy 74.93 59.69) (xy 74.93 68.58))
    (stroke (width 0) (type default))
    (uuid 5baec69f-f35a-4497-a37c-e2d79051b564)
  )
  (wire (pts (xy 129.54 69.85) (xy 129.54 68.58))
    (stroke (width 0) (type default))
    (uuid 5eaff402-2090-4836-9a12-8a4637d34154)
  )
  (wire (pts (xy 120.65 43.18) (xy 120.65 55.88))
    (stroke (width 0) (type default))
    (uuid 64b5bf42-3ca4-437a-aad2-afdded5d5f98)
  )
  (wire (pts (xy 74.93 50.8) (xy 74.93 52.07))
    (stroke (width 0) (type default))
    (uuid 65d90d1c-1650-4274-84ab-d3c5b457db51)
  )
  (wire (pts (xy 120.65 43.18) (xy 119.38 43.18))
    (stroke (width 0) (type default))
    (uuid 68e16bee-f01b-4527-9783-c94004dadedf)
  )
  (wire (pts (xy 129.54 52.07) (xy 129.54 50.8))
    (stroke (width 0) (type default))
    (uuid 7aa41825-b306-4fc9-913c-3141e18ec940)
  )
  (wire (pts (xy 80.01 44.45) (xy 80.01 60.96))
    (stroke (width 0) (type default))
    (uuid 7cca5174-932d-4536-b389-dae21d8f0c73)
  )
  (wire (pts (xy 97.79 69.85) (xy 97.79 71.12))
    (stroke (width 0) (type default))
    (uuid a6150e43-4668-4120-9c52-bda1829d5bf3)
  )
  (wire (pts (xy 80.01 44.45) (xy 97.79 44.45))
    (stroke (width 0) (type default))
    (uuid a90b499c-5804-4371-ac5c-0b52044902f6)
  )
  (wire (pts (xy 81.28 77.47) (xy 111.76 77.47))
    (stroke (width 0) (type default))
    (uuid b131fcc0-80be-4d49-8465-930e562536ce)
  )
  (wire (pts (xy 120.65 60.96) (xy 119.38 60.96))
    (stroke (width 0) (type default))
    (uuid b1d22fe4-1861-4431-8db6-5288353f0c9a)
  )
  (wire (pts (xy 21.59 123.19) (xy 21.59 125.73))
    (stroke (width 0) (type default))
    (uuid b52d0735-5f00-40e5-893f-970b7bcffd21)
  )
  (wire (pts (xy 74.93 50.8) (xy 81.28 50.8))
    (stroke (width 0) (type default))
    (uuid b66db0e8-a9b8-401d-b557-3d7dd5fbca2f)
  )
  (wire (pts (xy 74.93 68.58) (xy 97.79 68.58))
    (stroke (width 0) (type default))
    (uuid bcd2feef-4d24-4b92-9fa9-d8035f881bd9)
  )
  (wire (pts (xy 111.76 60.96) (xy 111.76 77.47))
    (stroke (width 0) (type default))
    (uuid c22a330a-6ad0-41d4-9543-a2ba11abd1c2)
  )
  (wire (pts (xy 81.28 50.8) (xy 81.28 77.47))
    (stroke (width 0) (type default))
    (uuid cd1be612-d73c-4c9f-a99c-dbff9adf4b0e)
  )
  (wire (pts (xy 129.54 59.69) (xy 129.54 60.96))
    (stroke (width 0) (type default))
    (uuid cff32a0b-073d-4161-b40f-28d5f1340265)
  )
  (wire (pts (xy 82.55 115.57) (xy 82.55 118.11))
    (stroke (width 0) (type default))
    (uuid d2892eaf-d8a5-41ee-9d3a-25054d9468d5)
  )
  (wire (pts (xy 120.65 55.88) (xy 120.65 60.96))
    (stroke (width 0) (type default))
    (uuid da090b32-9ad4-47ff-9064-190f35020692)
  )
  (wire (pts (xy 97.79 66.04) (xy 97.79 68.58))
    (stroke (width 0) (type default))
    (uuid e1e97c32-1eb6-475c-9b50-4360c2609a4e)
  )
  (wire (pts (xy 82.55 125.73) (xy 82.55 128.27))
    (stroke (width 0) (type default))
    (uuid e9d5fd9f-8e86-47fe-938d-7133930ebfb8)
  )

  (text_box "Unconfuse ERC check with powerflag helpers"
    (at 15.24 99.06 0) (size 12.7 33.02)
    (stroke (width 0) (type default))
    (fill (type none))
    (effects (font (size 1.27 1.27)) (justify left top))
    (uuid 05ad7599-9cb5-41f1-bccc-3e56d0ef2fc1)
  )

  (symbol (lib_id "Device:LED") (at 129.54 64.77 270) (mirror x) (unit 1)
    (in_bom yes) (on_board yes) (dnp no)
    (uuid 080f55ac-a325-46cb-9351-2ec15e7acaf7)
    (property "Reference" "D1" (at 132.08 67.6275 90)
      (effects (font (size 1.27 1.27)) (justify left))
    )
    (property "Value" "LED" (at 132.08 65.0875 90)
      (effects (font (size 1.27 1.27)) (justify left))
    )
    (property "Footprint" "LED_SMD:LED_0805_2012Metric" (at 129.54 64.77 0)
      (effects (font (size 1.27 1.27)) hide)
    )
    (property "Datasheet" "~" (at 129.54 64.77 0)
      (effects (font (size 1.27 1.27)) hide)
    )
    (pin "2" (uuid cc69899d-19c5-463d-93b9-1fdf060c41a3))
    (pin "1" (uuid fe2e876e-1dea-4b33-b4c4-994d7b968376))
    (instances
      (project "world"
        (path "/ffcfa3ff-e6a8-4865-934e-8ce49f298d00"
          (reference "D1") (unit 1)
        )
      )
    )
  )

  (symbol (lib_id "power:+3V0") (at 82.55 115.57 0) (unit 1)
    (in_bom yes) (on_board yes) (dnp no) (fields_autoplaced)
    (uuid 0d98b6c2-9168-41ea-a541-24840c90a00e)
    (property "Reference" "#PWR05" (at 82.55 119.38 0)
      (effects (font (size 1.27 1.27)) hide)
    )
    (property "Value" "+3V0" (at 82.55 110.49 0)
      (effects (font (size 1.27 1.27)))
    )
    (property "Footprint" "" (at 82.55 115.57 0)
      (effects (font (size 1.27 1.27)) hide)
    )
    (property "Datasheet" "" (at 82.55 115.57 0)
      (effects (font (size 1.27 1.27)) hide)
    )
    (pin "1" (uuid 2c21f8be-7ef2-45ac-bb69-664165809751))
    (instances
      (project "world"
        (path "/ffcfa3ff-e6a8-4865-934e-8ce49f298d00"
          (reference "#PWR05") (unit 1)
        )
      )
    )
  )

  (symbol (lib_id "Device:R") (at 115.57 60.96 90) (unit 1)
    (in_bom yes) (on_board yes) (dnp no)
    (uuid 0f28ccae-0496-44b8-8941-5ec113560174)
    (property "Reference" "R2" (at 115.57 60.96 90)
      (effects (font (size 1.27 1.27)))
    )
    (property "Value" "100 Ω" (at 115.57 58.42 90)
      (effects (font (size 1.27 1.27)))
    )
    (property "Footprint" "Resistor_SMD:R_0805_2012Metric" (at 115.57 62.738 90)
      (effects (font (size 1.27 1.27)) hide)
    )
    (property "Datasheet" "~" (at 115.57 60.96 0)
      (effects (font (size 1.27 1.27)) hide)
    )
    (property "LCSC" "" (at 115.57 60.96 0)
      (effects (font (size 1.27 1.27)) hide)
    )
    (property "tolerance" "5%" (at 115.57 60.96 0)
      (effects (font (size 1.27 1.27)) hide)
    )
    (property "voltage" "" (at 115.57 60.96 0)
      (effects (font (size 1.27 1.27)) hide)
    )
    (property "power" "125 mW" (at 115.57 60.96 0)
      (effects (font (size 1.27 1.27)) hide)
    )
    (property "temp_coef" "" (at 115.57 60.96 0)
      (effects (font (size 1.27 1.27)) hide)
    )
    (property "package" "" (at 115.57 60.96 0)
      (effects (font (size 1.27 1.27)) hide)
    )
    (pin "2" (uuid 7b5b6756-5fa1-4cb4-99b4-cf33473e8740))
    (pin "1" (uuid da78184c-7fbc-4c5b-81c3-8390ca59ec83))
    (instances
      (project "world"
        (path "/ffcfa3ff-e6a8-4865-934e-8ce49f298d00"
          (reference "R2") (unit 1)
        )
      )
    )
  )

  (symbol (lib_name "GND_7") (lib_id "power:GND") (at 82.55 128.27 0) (mirror y) (unit 1)
    (in_bom yes) (on_board yes) (dnp no)
    (uuid 17a788be-1b72-4792-adef-764754847d02)
    (property "Reference" "#PWR06" (at 82.55 134.62 0)
      (effects (font (size 1.27 1.27)) hide)
    )
    (property "Value" "GND" (at 82.55 132.08 0)
      (effects (font (size 1.27 1.27)))
    )
    (property "Footprint" "" (at 82.55 128.27 0)
      (effects (font (size 1.27 1.27)) hide)
    )
    (property "Datasheet" "" (at 82.55 128.27 0)
      (effects (font (size 1.27 1.27)) hide)
    )
    (pin "1" (uuid dea2a850-8109-4e5c-965f-f134ae19fd0f))
    (instances
      (project "world"
        (path "/ffcfa3ff-e6a8-4865-934e-8ce49f298d00"
          (reference "#PWR06") (unit 1)
        )
      )
    )
  )

  (symbol (lib_id "power:GND") (at 97.79 71.12 0) (unit 1)
    (in_bom yes) (on_board yes) (dnp no)
    (uuid 528bb4c0-86cd-464b-8b21-65b765440c8f)
    (property "Reference" "#PWR04" (at 97.79 77.47 0)
      (effects (font (size 1.27 1.27)) hide)
    )
    (property "Value" "GND" (at 97.79 74.93 0)
      (effects (font (size 1.27 1.27)))
    )
    (property "Footprint" "" (at 97.79 71.12 0)
      (effects (font (size 1.27 1.27)) hide)
    )
    (property "Datasheet" "" (at 97.79 71.12 0)
      (effects (font (size 1.27 1.27)) hide)
    )
    (pin "1" (uuid c9725d65-919f-4523-9bf4-101dce557c70))
    (instances
      (project "world"
        (path "/ffcfa3ff-e6a8-4865-934e-8ce49f298d00"
          (reference "#PWR04") (unit 1)
        )
      )
    )
  )

  (symbol (lib_id "power:+3V0") (at 17.78 116.84 0) (unit 1)
    (in_bom yes) (on_board yes) (dnp no) (fields_autoplaced)
    (uuid 65a20c24-0ab0-4559-b670-5661a48decb3)
    (property "Reference" "#PWR07" (at 17.78 120.65 0)
      (effects (font (size 1.27 1.27)) hide)
    )
    (property "Value" "+3V0" (at 17.78 111.76 0)
      (effects (font (size 1.27 1.27)))
    )
    (property "Footprint" "" (at 17.78 116.84 0)
      (effects (font (size 1.27 1.27)) hide)
    )
    (property "Datasheet" "" (at 17.78 116.84 0)
      (effects (font (size 1.27 1.27)) hide)
    )
    (pin "1" (uuid 1db5dc59-96ff-498a-b69e-b6c74753372f))
    (instances
      (project "world"
        (path "/ffcfa3ff-e6a8-4865-934e-8ce49f298d00"
          (reference "#PWR07") (unit 1)
        )
      )
    )
  )

  (symbol (lib_id "power:PWR_FLAG") (at 17.78 119.38 180) (unit 1)
    (in_bom yes) (on_board yes) (dnp no) (fields_autoplaced)
    (uuid 719de819-f174-4e14-bbb4-8f3e82bf33b1)
    (property "Reference" "#FLG01" (at 17.78 121.285 0)
      (effects (font (size 1.27 1.27)) hide)
    )
    (property "Value" "PWR_FLAG" (at 17.78 124.46 0)
      (effects (font (size 1.27 1.27)) hide)
    )
    (property "Footprint" "" (at 17.78 119.38 0)
      (effects (font (size 1.27 1.27)) hide)
    )
    (property "Datasheet" "~" (at 17.78 119.38 0)
      (effects (font (size 1.27 1.27)) hide)
    )
    (pin "1" (uuid 89cda6bb-aea3-4a16-8c4a-fad79715328b))
    (instances
      (project "world"
        (path "/ffcfa3ff-e6a8-4865-934e-8ce49f298d00"
          (reference "#FLG01") (unit 1)
        )
      )
    )
  )

  (symbol (lib_id "Device:R") (at 115.57 43.18 270) (unit 1)
    (in_bom yes) (on_board yes) (dnp no)
    (uuid 76c152fa-7ddd-4b58-a458-e42d68e618b0)
    (property "Reference" "R1" (at 115.57 43.18 90)
      (effects (font (size 1.27 1.27)))
    )
    (property "Value" "1 kΩ" (at 115.57 40.64 90)
      (effects (font (size 1.27 1.27)))
    )
    (property "Footprint" "Resistor_SMD:R_0805_2012Metric" (at 115.57 41.402 90)
      (effects (font (size 1.27 1.27)) hide)
    )
    (property "Datasheet" "~" (at 115.57 43.18 0)
      (effects (font (size 1.27 1.27)) hide)
    )
    (property "LCSC" "" (at 115.57 43.18 0)
      (effects (font (size 1.27 1.27)) hide)
    )
    (property "tolerance" "5%" (at 115.57 43.18 0)
      (effects (font (size 1.27 1.27)) hide)
    )
    (property "voltage" "" (at 115.57 43.18 0)
      (effects (font (size 1.27 1.27)) hide)
    )
    (property "power" "125 mW" (at 115.57 43.18 0)
      (effects (font (size 1.27 1.27)) hide)
    )
    (property "temp_coef" "" (at 115.57 43.18 0)
      (effects (font (size 1.27 1.27)) hide)
    )
    (property "package" "" (at 115.57 43.18 0)
      (effects (font (size 1.27 1.27)) hide)
    )
    (pin "2" (uuid 57c07b23-386b-48cc-ac01-9accb1bc349a))
    (pin "1" (uuid 3467ab8d-0c20-4a11-8474-b1e0447731ca))
    (instances
      (project "world"
        (path "/ffcfa3ff-e6a8-4865-934e-8ce49f298d00"
          (reference "R1") (unit 1)
        )
      )
    )
  )

  (symbol (lib_id "Device:R") (at 129.54 55.88 0) (unit 1)
    (in_bom yes) (on_board yes) (dnp no)
    (uuid b0487169-0342-427e-a4a6-7f0e872a65a4)
    (property "Reference" "R3" (at 129.54 55.88 90)
      (effects (font (size 1.27 1.27)))
    )
    (property "Value" "1 kΩ" (at 127 55.88 90)
      (effects (font (size 1.27 1.27)))
    )
    (property "Footprint" "Resistor_SMD:R_0805_2012Metric" (at 127.762 55.88 90)
      (effects (font (size 1.27 1.27)) hide)
    )
    (property "Datasheet" "~" (at 129.54 55.88 0)
      (effects (font (size 1.27 1.27)) hide)
    )
    (property "LCSC" "" (at 129.54 55.88 0)
      (effects (font (size 1.27 1.27)) hide)
    )
    (property "tolerance" "5%" (at 129.54 55.88 0)
      (effects (font (size 1.27 1.27)) hide)
    )
    (property "voltage" "" (at 129.54 55.88 0)
      (effects (font (size 1.27 1.27)) hide)
    )
    (property "power" "125 mW" (at 129.54 55.88 0)
      (effects (font (size 1.27 1.27)) hide)
    )
    (property "temp_coef" "" (at 129.54 55.88 0)
      (effects (font (size 1.27 1.27)) hide)
    )
    (property "package" "" (at 129.54 55.88 0)
      (effects (font (size 1.27 1.27)) hide)
    )
    (pin "2" (uuid 5b1c971d-ca69-41b9-88da-b7029b73c519))
    (pin "1" (uuid 38efb330-87ae-45c8-8cff-03482f60832e))
    (instances
      (project "world"
        (path "/ffcfa3ff-e6a8-4865-934e-8ce49f298d00"
          (reference "R3") (unit 1)
        )
      )
    )
  )

  (symbol (lib_id "Device:Battery_Cell") (at 82.55 123.19 0) (unit 1)
    (in_bom yes) (on_board yes) (dnp no) (fields_autoplaced)
    (uuid bbb6e9dd-9672-4683-a2a2-41bcd5033edd)
    (property "Reference" "BT1" (at 86.36 120.0785 0)
      (effects (font (size 1.27 1.27)) (justify left))
    )
    (property "Value" "Battery_Cell" (at 86.36 122.6185 0)
      (effects (font (size 1.27 1.27)) (justify left) hide)
    )
    (property "Footprint" "Battery:BatteryHolder_Keystone_3002_1x2032" (at 82.55 121.666 90)
      (effects (font (size 1.27 1.27)) hide)
    )
    (property "Datasheet" "~" (at 82.55 121.666 90)
      (effects (font (size 1.27 1.27)) hide)
    )
    (property "LCSC" "" (at 82.55 123.19 0)
      (effects (font (size 1.27 1.27)) hide)
    )
    (pin "1" (uuid 2fc63ff9-055e-4b43-b9e5-fa1f4df8ee13))
    (pin "2" (uuid b89d79f2-1518-457c-9ae6-2b086e7011c5))
    (instances
      (project "world"
        (path "/ffcfa3ff-e6a8-4865-934e-8ce49f298d00"
          (reference "BT1") (unit 1)
        )
      )
    )
  )

  (symbol (lib_id "Timer:LM555xMM") (at 97.79 55.88 0) (unit 1)
    (in_bom yes) (on_board yes) (dnp no)
    (uuid bc59db96-c8b4-401b-b568-11e6a01c2ace)
    (property "Reference" "U1" (at 99.06 44.45 0)
      (effects (font (size 1.27 1.27)) (justify left))
    )
    (property "Value" "LM555xMM" (at 99.06 46.99 0)
      (effects (font (size 1.27 1.27)) (justify left))
    )
    (property "Footprint" "Package_SO:VSSOP-8_3.0x3.0mm_P0.65mm" (at 114.3 66.04 0)
      (effects (font (size 1.27 1.27)) hide)
    )
    (property "Datasheet" "http://www.ti.com/lit/ds/symlink/lm555.pdf" (at 119.38 66.04 0)
      (effects (font (size 1.27 1.27)) hide)
    )
    (pin "2" (uuid c4335463-4b90-4ef8-a619-a224e26158bf))
    (pin "6" (uuid 0b7977d0-6b9d-48be-b38e-3aef8e3620c6))
    (pin "8" (uuid f9822270-81b3-43ec-8c36-1529bc7f4c08))
    (pin "4" (uuid 62d44459-bffb-4863-902c-96959ce7ba59))
    (pin "5" (uuid cedc87cd-65f7-4ad6-844c-981f031697da))
    (pin "3" (uuid 4b94b373-0ea1-400b-a624-6728910a69fb))
    (pin "1" (uuid f9cdd6a2-fe90-42f7-a627-6360d1abe596))
    (pin "7" (uuid 41fb61a6-ec5e-4134-905d-9f5cf4167eaf))
    (instances
      (project "world"
        (path "/ffcfa3ff-e6a8-4865-934e-8ce49f298d00"
          (reference "U1") (unit 1)
        )
      )
    )
  )

  (symbol (lib_id "power:+3V0") (at 97.79 40.64 0) (unit 1)
    (in_bom yes) (on_board yes) (dnp no) (fields_autoplaced)
    (uuid c17f20bc-6608-4d9d-8595-99c693d5f290)
    (property "Reference" "#PWR01" (at 97.79 44.45 0)
      (effects (font (size 1.27 1.27)) hide)
    )
    (property "Value" "+3V0" (at 97.79 35.56 0)
      (effects (font (size 1.27 1.27)))
    )
    (property "Footprint" "" (at 97.79 40.64 0)
      (effects (font (size 1.27 1.27)) hide)
    )
    (property "Datasheet" "" (at 97.79 40.64 0)
      (effects (font (size 1.27 1.27)) hide)
    )
    (pin "1" (uuid 6bf1a26a-e4fd-4b91-8947-134a9f095d6b))
    (instances
      (project "world"
        (path "/ffcfa3ff-e6a8-4865-934e-8ce49f298d00"
          (reference "#PWR01") (unit 1)
        )
      )
    )
  )

  (symbol (lib_name "GND_7") (lib_id "power:GND") (at 21.59 125.73 0) (mirror y) (unit 1)
    (in_bom yes) (on_board yes) (dnp no)
    (uuid e0f4b0c0-03d8-4054-9da8-18ea1502d32b)
    (property "Reference" "#PWR02" (at 21.59 132.08 0)
      (effects (font (size 1.27 1.27)) hide)
    )
    (property "Value" "GND" (at 21.59 129.54 0)
      (effects (font (size 1.27 1.27)))
    )
    (property "Footprint" "" (at 21.59 125.73 0)
      (effects (font (size 1.27 1.27)) hide)
    )
    (property "Datasheet" "" (at 21.59 125.73 0)
      (effects (font (size 1.27 1.27)) hide)
    )
    (pin "1" (uuid 36d45f1a-db6d-4b0d-8dfb-1c64c3c0d129))
    (instances
      (project "world"
        (path "/ffcfa3ff-e6a8-4865-934e-8ce49f298d00"
          (reference "#PWR02") (unit 1)
        )
      )
    )
  )

  (symbol (lib_id "power:PWR_FLAG") (at 21.59 123.19 0) (unit 1)
    (in_bom yes) (on_board yes) (dnp no) (fields_autoplaced)
    (uuid f1c4c6c2-1146-44b8-ace3-a49a223e41f8)
    (property "Reference" "#FLG02" (at 21.59 121.285 0)
      (effects (font (size 1.27 1.27)) hide)
    )
    (property "Value" "PWR_FLAG" (at 21.59 118.11 0)
      (effects (font (size 1.27 1.27)) hide)
    )
    (property "Footprint" "" (at 21.59 123.19 0)
      (effects (font (size 1.27 1.27)) hide)
    )
    (property "Datasheet" "~" (at 21.59 123.19 0)
      (effects (font (size 1.27 1.27)) hide)
    )
    (pin "1" (uuid c2f3f5ac-0908-421f-bc07-391149f821a2))
    (instances
      (project "world"
        (path "/ffcfa3ff-e6a8-4865-934e-8ce49f298d00"
          (reference "#FLG02") (unit 1)
        )
      )
    )
  )

  (symbol (lib_id "Device:C_Polarized") (at 74.93 55.88 0) (mirror y) (unit 1)
    (in_bom yes) (on_board yes) (dnp no)
    (uuid f9d5625d-8709-4fe2-8251-f8bb933e716f)
    (property "Reference" "C1" (at 71.12 53.721 0)
      (effects (font (size 1.27 1.27)) (justify left))
    )
    (property "Value" "1 µF" (at 71.12 56.261 0)
      (effects (font (size 1.27 1.27)) (justify left))
    )
    (property "Footprint" "Capacitor_SMD:CP_Elec_5x3" (at 73.9648 59.69 0)
      (effects (font (size 1.27 1.27)) hide)
    )
    (property "Datasheet" "~" (at 74.93 55.88 0)
      (effects (font (size 1.27 1.27)) hide)
    )
    (property "LCSC" "" (at 74.93 55.88 0)
      (effects (font (size 1.27 1.27)) hide)
    )
    (property "tolerance" "20%" (at 74.93 55.88 0)
      (effects (font (size 1.27 1.27)) hide)
    )
    (property "voltage" "10 V" (at 74.93 55.88 0)
      (effects (font (size 1.27 1.27)) hide)
    )
    (property "power" "" (at 74.93 55.88 0)
      (effects (font (size 1.27 1.27)) hide)
    )
    (property "temp_coef" "" (at 74.93 55.88 0)
      (effects (font (size 1.27 1.27)) hide)
    )
    (property "package" "" (at 74.93 55.88 0)
      (effects (font (size 1.27 1.27)) hide)
    )
    (pin "1" (uuid 386826bd-d063-489a-a860-3b59d986dbda))
    (pin "2" (uuid d8f26b04-b77d-4096-b01f-24a7302292d4))
    (instances
      (project "world"
        (path "/ffcfa3ff-e6a8-4865-934e-8ce49f298d00"
          (reference "C1") (unit 1)
        )
      )
    )
  )

  (symbol (lib_id "Graphic:Logo_Open_Hardware_Small") (at 190.5 97.79 0) (unit 1)
    (in_bom no) (on_board no) (dnp no) (fields_autoplaced)
    (uuid ffa93fb1-f817-4929-9af5-bbdf487c888d)
    (property "Reference" "#SYM1" (at 190.5 90.805 0)
      (effects (font (size 1.27 1.27)) hide)
    )
    (property "Value" "Logo_Open_Hardware_Small" (at 190.5 103.505 0)
      (effects (font (size 1.27 1.27)) hide)
    )
    (property "Footprint" "Symbol:OSHW-Logo_5.7x6mm_SilkScreen" (at 190.5 97.79 0)
      (effects (font (size 1.27 1.27)) hide)
    )
    (property "Datasheet" "~" (at 190.5 97.79 0)
      (effects (font (size 1.27 1.27)) hide)
    )
    (property "Sim.Enable" "0" (at 190.5 97.79 0)
      (effects (font (size 1.27 1.27)) hide)
    )
    (instances
      (project "world"
        (path "/ffcfa3ff-e6a8-4865-934e-8ce49f298d00"
          (reference "#SYM1") (unit 1)
        )
      )
    )
  )

  (sheet_instances
    (path "/" (page "1"))
  )
)
