#VRML V2.0 utf8
#kicad StepUp wrl exported

# Copyright (C) 2017, kicad StepUp
#
# This program is free software: you can redistribute it and/or modify
# it under the terms of the GNU General Public License as published by
# the Free Software Foundation, either version 3 of the License, or
# any later version.
#
# This program is distributed in the hope that it will be useful,
# but WITHOUT ANY WARRANTY; without even the implied warranty of
# MERCHANTABILITY or FITNESS FOR A PARTICULAR PURPOSE.  See the
# GNU General Public License for more details.
#
# You should have received a copy of the GNU General Public License
# along with this program.  If not, see http://www.gnu.org/licenses/.
#
# As a special exception, if you create a design which uses this symbol,
# and embed this symbol or unaltered portions of this symbol into the design,
# this symbol does not by itself cause the resulting design to be covered by
# the GNU General Public License.
# This exception does not however invalidate any other reasons why the design
# itself might be covered by the GNU General Public License.
# If you modify this symbol, you may extend this exception to your version of the symbol,
# but you are not obligated to do so.
# If you do not wish to do so, delete this exception statement from your version
# Risk disclaimer
# *USE 3D CAD DATA AT YOUR OWN RISK*
# *DO NOT RELY UPON ANY INFORMATION FOUND HERE WITHOUT INDEPENDENT VERIFICATION.*
#
Shape {
	appearance Appearance {material DEF IC-BODY-EPOXY-04 Material {
		ambientIntensity 0.293
		diffuseColor 0.148 0.145 0.145
		specularColor 0.18 0.168 0.16
		emissiveColor 0.0 0.0 0.0
		transparency 0.0
		shininess 0.35
		}
	}
}
Shape {
	appearance Appearance {material DEF PLASTIC-BLUE-01 Material {
		ambientIntensity 0.565
		diffuseColor 0.137 0.402 0.727
		specularColor 0.359 0.379 0.27
		emissiveColor 0.0 0.0 0.0
		transparency 0.0
		shininess 0.25
		}
	}
}
Shape {
	appearance Appearance {material DEF IC-LABEL-01 Material {
		ambientIntensity 0.082
		diffuseColor 0.691 0.664 0.598
		specularColor 0.0 0.0 0.0
		emissiveColor 0.0 0.0 0.0
		transparency 0.0
		shininess 0.01
		}
	}
}
Shape {
	appearance Appearance {material DEF PIN-01 Material {
		ambientIntensity 0.271
		diffuseColor 0.824 0.82 0.781
		specularColor 0.328 0.258 0.172
		emissiveColor 0.0 0.0 0.0
		transparency 0.0
		shininess 0.7
		}
	}
}
Shape { geometry IndexedFaceSet
{ creaseAngle 0.50 coordIndex [0,1,2,-1,3,0,2,-1,4,5,2,-1,6,4,2,-1,7,6,2,-1,8,7,2,-1,9,8,2,-1,10,9,2,-1,11,10,2,-1,12,11,2,-1,13,12,2,-1,14,13,2,-1,15,14,2,-1,16,15,2,-1,17,16,2,-1,18,17,2,-1,19,18,2,-1,20,19,2,-1,21,20,2,-1,22,21,2,-1,23,22,2,-1,24,23,2,-1,25,24,2,-1,1,25,2,-1]
coord Coordinate { point [0.889 -0.024 -0.748,0.886 -0.000 -0.748,0.911 -0.065 -0.748,0.897 -0.046 -0.748,0.949 -0.092 -0.748,0.928 -0.081 -0.748,0.972 -0.098 -0.748,0.996 -0.098 -0.748,1.019 -0.092 -0.748,1.040 -0.081 -0.748,1.058 -0.065 -0.748,1.071 -0.046 -0.748,1.080 -0.024 -0.748,1.083 -0.000 -0.748,1.080 0.024 -0.748,1.071 0.046 -0.748,1.058 0.065 -0.748,1.040 0.081 -0.748,1.019 0.092 -0.748,0.996 0.098 -0.748,0.972 0.098 -0.748,0.949 0.092 -0.748,0.928 0.081 -0.748,0.911 0.065 -0.748,0.897 0.046 -0.748,0.889 0.024 -0.748]
}}
appearance Appearance{material USE PIN-01 }
}
Shape { geometry IndexedFaceSet
{ creaseAngle 0.50 coordIndex [0,1,2,-1,0,2,3,-1,4,0,3,-1,4,3,5,-1,6,7,8,-1,9,4,5,-1,6,10,7,-1,9,5,11,-1,12,8,13,-1,14,9,11,-1,12,6,8,-1,14,11,15,-1,16,13,17,-1,18,14,15,-1,18,15,19,-1,16,12,13,-1,20,17,21,-1,22,18,19,-1,22,19,23,-1,20,16,17,-1,24,21,25,-1,26,23,27,-1,24,20,21,-1,26,22,23,-1,28,27,29,-1,30,25,31,-1,28,26,27,-1,10,29,7,-1,30,24,25,-1,10,28,29,-1,32,31,33,-1,32,30,31,-1,34,33,35,-1,34,32,33,-1,36,35,37,-1,36,34,35,-1,38,37,39,-1,38,36,37,-1,40,39,41,-1,40,38,39,-1,42,40,41,-1,42,41,43,-1,44,42,43,-1,44,43,45,-1,46,44,45,-1,46,45,47,-1,48,46,47,-1,48,47,49,-1,50,48,49,-1,50,49,51,-1,1,50,51,-1,1,51,2,-1]
coord Coordinate { point [1.019 0.092 0.079,1.040 0.081 0.079,1.040 0.081 -0.748,1.019 0.092 -0.748,0.996 0.098 0.079,0.996 0.098 -0.748,0.889 -0.024 0.079,0.886 -0.000 -0.748,0.889 -0.024 -0.748,0.972 0.098 0.079,0.886 -0.000 0.079,0.972 0.098 -0.748,0.897 -0.046 0.079,0.897 -0.046 -0.748,0.949 0.092 0.079,0.949 0.092 -0.748,0.911 -0.065 0.079,0.911 -0.065 -0.748,0.928 0.081 0.079,0.928 0.081 -0.748,0.928 -0.081 0.079,0.928 -0.081 -0.748,0.911 0.065 0.079,0.911 0.065 -0.748,0.949 -0.092 0.079,0.949 -0.092 -0.748,0.897 0.046 0.079,0.897 0.046 -0.748,0.889 0.024 0.079,0.889 0.024 -0.748,0.972 -0.098 0.079,0.972 -0.098 -0.748,0.996 -0.098 0.079,0.996 -0.098 -0.748,1.019 -0.092 0.079,1.019 -0.092 -0.748,1.040 -0.081 0.079,1.040 -0.081 -0.748,1.058 -0.065 0.079,1.058 -0.065 -0.748,1.071 -0.046 0.079,1.071 -0.046 -0.748,1.080 -0.024 0.079,1.080 -0.024 -0.748,1.083 -0.000 0.079,1.083 -0.000 -0.748,1.080 0.024 0.079,1.080 0.024 -0.748,1.071 0.046 0.079,1.071 0.046 -0.748,1.058 0.065 0.079,1.058 0.065 -0.748]
}}
appearance Appearance{material USE PIN-01 }
}
Shape { geometry IndexedFaceSet
{ creaseAngle 0.50 coordIndex [0,1,2,-1,1,3,2,-1,4,5,6,-1,7,8,2,-1,9,10,11,-1,4,6,12,-1,13,14,15,-1,14,16,15,-1,17,18,19,-1,18,20,19,-1,2,3,21,-1,22,23,21,-1,3,22,21,-1,7,9,24,-1,12,6,25,-1,9,11,24,-1,17,19,26,-1,16,27,28,-1,15,16,28,-1,21,23,29,-1,23,30,29,-1,30,31,29,-1,31,32,29,-1,7,24,33,-1,27,34,35,-1,36,17,37,-1,17,26,37,-1,28,27,35,-1,29,32,38,-1,32,39,38,-1,39,40,38,-1,7,33,8,-1,34,18,17,-1,36,37,41,-1,42,36,41,-1,38,40,43,-1,42,41,43,-1,35,34,17,-1,44,45,46,-1,40,47,43,-1,47,42,43,-1,44,46,48,-1,46,45,49,-1,50,44,51,-1,44,48,51,-1,49,45,52,-1,45,53,52,-1,50,51,54,-1,55,56,57,-1,56,25,57,-1,25,6,57,-1,52,53,58,-1,55,57,59,-1,50,54,60,-1,61,50,60,-1,62,55,59,-1,58,53,63,-1,64,65,66,-1,53,5,63,-1,67,64,66,-1,65,68,66,-1,18,69,20,-1,70,61,71,-1,69,72,20,-1,67,66,73,-1,74,67,73,-1,61,60,71,-1,63,5,75,-1,69,62,72,-1,62,59,72,-1,70,71,76,-1,77,70,76,-1,68,78,79,-1,66,68,79,-1,9,74,10,-1,75,5,4,-1,74,73,10,-1,79,78,13,-1,78,14,13,-1,65,77,68,-1,77,76,68,-1,8,0,2,-1]
coord Coordinate { point [-0.074 0.065 0.079,-0.087 0.046 0.079,-0.353 0.197 0.079,-0.096 0.024 0.079,1.058 -0.065 0.079,1.344 -0.169 0.079,1.294 -0.332 0.079,-0.286 0.384 0.079,-0.056 0.081 0.079,-0.179 0.551 0.079,0.035 0.092 0.079,0.012 0.098 0.079,1.040 -0.081 0.079,0.096 0.024 0.079,0.889 0.024 0.079,0.098 -0.000 0.079,0.886 -0.000 0.079,0.074 -0.065 0.079,0.911 -0.065 0.079,0.521 -0.868 0.079,0.717 -0.839 0.079,-0.376 0.000 0.079,-0.098 0.000 0.079,-0.096 -0.024 0.079,-0.012 0.098 0.079,1.019 -0.092 0.079,0.323 -0.851 0.079,0.889 -0.024 0.079,0.096 -0.024 0.079,-0.353 -0.197 0.079,-0.087 -0.046 0.079,-0.074 -0.065 0.079,-0.056 -0.081 0.079,-0.035 0.092 0.079,0.897 -0.046 0.079,0.087 -0.046 0.079,0.056 -0.081 0.079,0.134 -0.791 0.079,-0.286 -0.384 0.079,-0.035 -0.092 0.079,-0.012 -0.098 0.079,-0.036 -0.689 0.079,0.035 -0.092 0.079,-0.179 -0.551 0.079,1.294 0.332 0.079,1.344 0.169 0.079,1.058 0.065 0.079,0.012 -0.098 0.079,1.040 0.081 0.079,1.071 0.046 0.079,1.198 0.506 0.079,1.019 0.092 0.079,1.080 0.024 0.079,1.360 -0.000 0.079,0.996 0.098 0.079,0.972 -0.098 0.079,0.996 -0.098 0.079,1.198 -0.506 0.079,1.083 -0.000 0.079,1.065 -0.653 0.079,0.972 0.098 0.079,1.065 0.653 0.079,0.949 -0.092 0.079,1.080 -0.024 0.079,0.323 0.851 0.079,0.521 0.868 0.079,0.074 0.065 0.079,0.134 0.791 0.079,0.911 0.065 0.079,0.928 -0.081 0.079,0.901 0.766 0.079,0.949 0.092 0.079,0.901 -0.766 0.079,0.056 0.081 0.079,-0.036 0.689 0.079,1.071 -0.046 0.079,0.928 0.081 0.079,0.717 0.839 0.079,0.897 0.046 0.079,0.087 0.046 0.079]
}}
appearance Appearance{material USE PLASTIC-BLUE-01 }
}
Shape { geometry IndexedFaceSet
{ creaseAngle 0.50 coordIndex [0,1,2,-1,3,0,2,-1,3,2,4,-1,5,3,4,-1,6,5,7,-1,8,9,10,-1,5,4,7,-1,11,8,10,-1,12,6,13,-1,6,7,13,-1,14,11,15,-1,11,10,15,-1,12,13,16,-1,17,14,18,-1,14,15,18,-1,19,17,20,-1,17,18,20,-1,21,19,22,-1,19,20,22,-1,23,21,24,-1,21,22,24,-1,25,23,26,-1,23,24,26,-1,27,25,28,-1,25,26,28,-1,29,27,30,-1,27,28,30,-1,31,29,32,-1,29,30,32,-1,33,31,34,-1,31,32,34,-1,35,33,36,-1,33,34,36,-1,37,35,36,-1,37,36,38,-1,39,37,38,-1,39,38,40,-1,41,39,40,-1,41,40,42,-1,43,41,42,-1,43,42,44,-1,45,43,44,-1,45,44,46,-1,47,45,46,-1,47,46,48,-1,49,47,48,-1,49,48,1,-1,0,49,1,-1]
coord Coordinate { point [0.717 0.839 0.079,0.521 0.868 0.000,0.717 0.839 0.000,0.901 0.766 0.079,0.901 0.766 0.000,1.065 0.653 0.079,1.198 0.506 0.079,1.065 0.653 0.000,1.294 -0.332 0.079,1.294 -0.332 0.000,1.198 -0.506 0.000,1.198 -0.506 0.079,1.294 0.332 0.079,1.198 0.506 0.000,1.065 -0.653 0.079,1.065 -0.653 0.000,1.294 0.332 0.000,0.901 -0.766 0.079,0.901 -0.766 0.000,0.717 -0.839 0.079,0.717 -0.839 0.000,0.521 -0.868 0.079,0.521 -0.868 0.000,0.323 -0.851 0.079,0.323 -0.851 0.000,0.134 -0.791 0.079,0.134 -0.791 0.000,-0.036 -0.689 0.079,-0.036 -0.689 0.000,-0.179 -0.551 0.079,-0.179 -0.551 0.000,-0.286 -0.384 0.079,-0.286 -0.384 0.000,-0.353 -0.197 0.079,-0.353 -0.197 0.000,-0.376 0.000 0.079,-0.376 0.000 0.000,-0.353 0.197 0.079,-0.353 0.197 0.000,-0.286 0.384 0.079,-0.286 0.384 0.000,-0.179 0.551 0.079,-0.179 0.551 0.000,-0.036 0.689 0.079,-0.036 0.689 0.000,0.134 0.791 0.079,0.134 0.791 0.000,0.323 0.851 0.079,0.323 0.851 0.000,0.521 0.868 0.079]
}}
appearance Appearance{material USE PLASTIC-BLUE-01 }
}
Shape { geometry IndexedFaceSet
{ creaseAngle 0.50 coordIndex [0,1,2,-1,3,0,4,-1,0,2,4,-1,3,4,5,-1,6,3,7,-1,3,5,7,-1,8,6,9,-1,6,7,9,-1]
coord Coordinate { point [1.344 0.169 0.079,1.294 0.332 0.079,1.294 0.332 0.000,1.360 -0.000 0.079,1.344 0.169 0.000,1.360 -0.000 0.000,1.344 -0.169 0.079,1.344 -0.169 0.000,1.294 -0.332 0.079,1.294 -0.332 0.000]
}}
appearance Appearance{material USE IC-LABEL-01 }
}
Shape { geometry IndexedFaceSet
{ creaseAngle 0.50 coordIndex [0,1,2,-1,0,2,3,-1,4,0,3,-1,4,3,5,-1,6,7,8,-1,9,4,5,-1,6,10,7,-1,9,5,11,-1,12,8,13,-1,14,9,11,-1,12,6,8,-1,14,11,15,-1,16,13,17,-1,18,14,15,-1,18,15,19,-1,16,12,13,-1,20,17,21,-1,22,18,19,-1,22,19,23,-1,20,16,17,-1,24,21,25,-1,26,23,27,-1,24,20,21,-1,26,22,23,-1,28,27,29,-1,30,25,31,-1,28,26,27,-1,10,29,7,-1,30,24,25,-1,10,28,29,-1,32,31,33,-1,32,30,31,-1,34,33,35,-1,34,32,33,-1,36,35,37,-1,36,34,35,-1,38,37,39,-1,38,36,37,-1,40,39,41,-1,40,38,39,-1,42,40,41,-1,42,41,43,-1,44,42,43,-1,44,43,45,-1,46,44,45,-1,46,45,47,-1,48,46,47,-1,48,47,49,-1,50,48,49,-1,50,49,51,-1,1,50,51,-1,1,51,2,-1]
coord Coordinate { point [0.035 0.092 0.079,0.056 0.081 0.079,0.056 0.081 -0.787,0.035 0.092 -0.787,0.012 0.098 0.079,0.012 0.098 -0.787,-0.096 -0.024 0.079,-0.098 0.000 -0.787,-0.096 -0.024 -0.787,-0.012 0.098 0.079,-0.098 0.000 0.079,-0.012 0.098 -0.787,-0.087 -0.046 0.079,-0.087 -0.046 -0.787,-0.035 0.092 0.079,-0.035 0.092 -0.787,-0.074 -0.065 0.079,-0.074 -0.065 -0.787,-0.056 0.081 0.079,-0.056 0.081 -0.787,-0.056 -0.081 0.079,-0.056 -0.081 -0.787,-0.074 0.065 0.079,-0.074 0.065 -0.787,-0.035 -0.092 0.079,-0.035 -0.092 -0.787,-0.087 0.046 0.079,-0.087 0.046 -0.787,-0.096 0.024 0.079,-0.096 0.024 -0.787,-0.012 -0.098 0.079,-0.012 -0.098 -0.787,0.012 -0.098 0.079,0.012 -0.098 -0.787,0.035 -0.092 0.079,0.035 -0.092 -0.787,0.056 -0.081 0.079,0.056 -0.081 -0.787,0.074 -0.065 0.079,0.074 -0.065 -0.787,0.087 -0.046 0.079,0.087 -0.046 -0.787,0.096 -0.024 0.079,0.096 -0.024 -0.787,0.098 -0.000 0.079,0.098 -0.000 -0.787,0.096 0.024 0.079,0.096 0.024 -0.787,0.087 0.046 0.079,0.087 0.046 -0.787,0.074 0.065 0.079,0.074 0.065 -0.787]
}}
appearance Appearance{material USE PIN-01 }
}
Shape { geometry IndexedFaceSet
{ creaseAngle 0.50 coordIndex [0,1,2,-1,3,4,5,-1,6,7,8,-1,4,9,5,-1,10,6,11,-1,6,8,11,-1,2,1,12,-1,13,10,14,-1,10,11,14,-1,15,13,16,-1,13,14,16,-1,9,17,18,-1,5,9,18,-1,19,2,20,-1,21,22,23,-1,2,12,20,-1,24,15,25,-1,15,16,25,-1,23,22,26,-1,26,22,27,-1,28,24,29,-1,24,25,29,-1,26,27,30,-1,17,31,32,-1,18,17,32,-1,33,19,34,-1,19,20,34,-1,30,27,35,-1,33,34,36,-1,37,28,38,-1,39,33,36,-1,28,29,38,-1,30,35,40,-1,32,31,41,-1,42,39,43,-1,37,38,44,-1,39,36,43,-1,40,35,45,-1,31,46,47,-1,41,31,47,-1,44,38,48,-1,46,42,49,-1,42,43,49,-1,40,45,50,-1,47,46,49,-1,44,48,51,-1,48,52,51,-1,50,45,53,-1,50,53,0,-1,51,52,3,-1,52,4,3,-1,0,53,1,-1]
coord Coordinate { point [0.521 -0.868 0.000,0.492 -1.161 -0.000,0.323 -0.851 0.000,-0.329 0.821 -0.000,-0.179 0.551 0.000,-0.474 0.645 -0.000,1.458 0.645 -0.000,1.565 0.444 -0.000,1.294 0.332 0.000,-0.286 0.384 0.000,1.313 0.821 -0.000,1.198 0.506 0.000,0.266 -1.139 -0.000,1.137 0.966 -0.000,1.065 0.653 0.000,0.937 1.073 -0.000,0.901 0.766 0.000,-0.353 0.197 0.000,-0.581 0.444 -0.000,0.134 -0.791 0.000,0.048 -1.073 -0.000,1.565 -0.444 -0.000,1.458 -0.645 -0.000,1.294 -0.332 0.000,0.719 1.139 -0.000,0.717 0.839 0.000,1.198 -0.506 0.000,1.313 -0.821 -0.000,0.492 1.161 -0.000,0.521 0.868 0.000,1.065 -0.653 0.000,-0.376 0.000 0.000,-0.647 0.227 -0.000,-0.036 -0.689 0.000,-0.153 -0.966 -0.000,1.137 -0.966 -0.000,-0.329 -0.821 -0.000,0.266 1.139 -0.000,0.323 0.851 0.000,-0.179 -0.551 0.000,0.901 -0.766 0.000,-0.669 0.000 -0.000,-0.286 -0.384 0.000,-0.474 -0.645 -0.000,0.048 1.073 -0.000,0.937 -1.073 -0.000,-0.353 -0.197 0.000,-0.647 -0.227 -0.000,0.134 0.791 0.000,-0.581 -0.444 -0.000,0.717 -0.839 0.000,-0.153 0.966 -0.000,-0.036 0.689 0.000,0.719 -1.139 -0.000]
}}
appearance Appearance{material USE PLASTIC-BLUE-01 }
}
Shape { geometry IndexedFaceSet
{ creaseAngle 0.50 coordIndex [0,1,2,-1,1,3,2,-1,3,4,5,-1,2,3,5,-1,4,6,7,-1,5,4,7,-1,7,6,8,-1,8,6,9,-1]
coord Coordinate { point [1.294 0.332 0.000,1.565 0.444 -0.000,1.344 0.169 0.000,1.631 0.227 -0.000,1.654 -0.000 -0.000,1.360 -0.000 0.000,1.631 -0.227 -0.000,1.344 -0.169 0.000,1.294 -0.332 0.000,1.565 -0.444 -0.000]
}}
appearance Appearance{material USE IC-LABEL-01 }
}
Shape { geometry IndexedFaceSet
{ creaseAngle 0.50 coordIndex [0,1,2,-1,3,0,2,-1,4,5,2,-1,6,4,2,-1,7,6,2,-1,8,7,2,-1,9,8,2,-1,10,9,2,-1,11,10,2,-1,12,11,2,-1,13,12,2,-1,14,13,2,-1,15,14,2,-1,16,15,2,-1,17,16,2,-1,18,17,2,-1,19,18,2,-1,20,19,2,-1,21,20,2,-1,22,21,2,-1,23,22,2,-1,24,23,2,-1,25,24,2,-1,1,25,2,-1]
coord Coordinate { point [-0.096 -0.024 -0.787,-0.098 0.000 -0.787,-0.074 -0.065 -0.787,-0.087 -0.046 -0.787,-0.035 -0.092 -0.787,-0.056 -0.081 -0.787,-0.012 -0.098 -0.787,0.012 -0.098 -0.787,0.035 -0.092 -0.787,0.056 -0.081 -0.787,0.074 -0.065 -0.787,0.087 -0.046 -0.787,0.096 -0.024 -0.787,0.098 -0.000 -0.787,0.096 0.024 -0.787,0.087 0.046 -0.787,0.074 0.065 -0.787,0.056 0.081 -0.787,0.035 0.092 -0.787,0.012 0.098 -0.787,-0.012 0.098 -0.787,-0.035 0.092 -0.787,-0.056 0.081 -0.787,-0.074 0.065 -0.787,-0.087 0.046 -0.787,-0.096 0.024 -0.787]
}}
appearance Appearance{material USE PIN-01 }
}
Shape { geometry IndexedFaceSet
{ creaseAngle 0.50 coordIndex [0,1,2,-1,3,0,2,-1,4,5,6,-1,5,3,6,-1,2,1,6,-1,3,2,6,-1,7,4,8,-1,9,7,8,-1,4,6,8,-1,6,10,8,-1,11,9,12,-1,6,1,12,-1,1,11,12,-1,10,6,12,-1,9,8,12,-1,8,10,12,-1,4,7,13,-1,7,9,13,-1,9,11,14,-1,13,9,14,-1,15,16,17,-1,18,4,19,-1,4,13,19,-1,14,11,19,-1,13,14,19,-1,20,18,21,-1,22,23,24,-1,25,20,21,-1,23,26,24,-1,18,19,21,-1,19,27,21,-1,28,25,29,-1,11,28,29,-1,19,11,29,-1,27,19,29,-1,25,21,29,-1,21,27,29,-1,18,20,30,-1,20,25,30,-1,25,28,31,-1,30,25,31,-1,32,18,33,-1,18,30,33,-1,31,28,33,-1,30,31,33,-1,28,34,35,-1,34,36,35,-1,33,28,35,-1,37,33,35,-1,37,35,38,-1,39,32,38,-1,36,39,38,-1,32,33,38,-1,33,37,38,-1,35,36,38,-1,32,39,40,-1,39,36,40,-1,40,36,41,-1,36,34,41,-1,40,41,42,-1,41,34,42,-1,43,32,42,-1,32,40,42,-1,44,42,45,-1,34,46,45,-1,46,47,45,-1,42,34,45,-1,43,42,48,-1,42,44,48,-1,45,47,48,-1,44,45,48,-1,47,49,48,-1,49,43,48,-1,47,46,50,-1,49,47,50,-1,51,43,52,-1,50,46,52,-1,49,50,52,-1,43,49,52,-1,46,53,54,-1,55,51,54,-1,52,46,54,-1,53,56,54,-1,51,52,54,-1,56,55,54,-1,56,53,57,-1,55,56,57,-1,58,51,59,-1,57,53,59,-1,51,55,59,-1,55,57,59,-1,53,60,61,-1,62,58,61,-1,59,53,61,-1,60,63,61,-1,58,59,61,-1,63,62,61,-1,63,60,64,-1,62,63,64,-1,65,58,66,-1,58,62,66,-1,64,60,66,-1,62,64,66,-1,65,66,67,-1,60,68,67,-1,66,60,67,-1,69,65,67,-1,68,70,67,-1,70,69,67,-1,70,68,71,-1,69,70,71,-1,72,65,73,-1,65,69,73,-1,71,68,73,-1,69,71,73,-1,72,73,74,-1,75,72,74,-1,73,68,74,-1,76,75,74,-1,68,77,74,-1,77,76,74,-1,75,76,78,-1,77,79,78,-1,76,77,78,-1,75,78,80,-1,81,72,80,-1,78,79,80,-1,72,75,80,-1,82,83,84,-1,85,82,84,-1,86,85,84,-1,80,79,84,-1,81,80,84,-1,79,86,84,-1,83,81,84,-1,87,88,89,-1,90,91,92,-1,92,91,93,-1,16,94,95,-1,94,96,95,-1,17,16,95,-1,95,96,97,-1,96,98,97,-1,98,22,97,-1,22,24,97,-1,99,97,100,-1,97,24,100,-1,24,99,100,-1,101,17,102,-1,17,95,102,-1,95,97,103,-1,97,99,103,-1,102,95,103,-1,103,99,104,-1,105,106,107,-1,108,109,110,-1,109,111,112,-1,111,113,114,-1,68,79,77,-1,86,82,85,-1,89,88,115,-1,88,81,115,-1,116,89,115,-1,117,116,115,-1,81,83,115,-1,83,82,118,-1,82,86,118,-1,91,90,118,-1,117,115,118,-1,119,117,118,-1,90,119,118,-1,115,83,118,-1,118,86,120,-1,91,118,120,-1,86,91,120,-1,99,105,121,-1,101,102,121,-1,102,103,121,-1,104,99,121,-1,103,104,121,-1,122,101,123,-1,101,121,123,-1,121,105,123,-1,124,122,123,-1,105,107,125,-1,126,124,125,-1,124,123,125,-1,123,105,125,-1,107,126,125,-1,107,106,127,-1,124,126,127,-1,122,124,127,-1,126,107,127,-1,128,122,129,-1,127,106,129,-1,122,127,129,-1,130,128,129,-1,129,106,131,-1,130,129,131,-1,106,132,131,-1,132,130,131,-1,128,130,133,-1,132,106,133,-1,130,132,133,-1,106,134,133,-1,135,128,136,-1,133,134,136,-1,137,135,136,-1,128,133,136,-1,137,136,138,-1,136,134,138,-1,134,139,138,-1,139,137,138,-1,134,140,141,-1,135,137,141,-1,139,134,141,-1,137,139,141,-1,142,135,143,-1,135,141,143,-1,141,140,143,-1,144,142,143,-1,140,145,146,-1,145,144,146,-1,143,140,146,-1,144,143,146,-1,145,140,147,-1,144,145,147,-1,140,148,147,-1,142,144,147,-1,149,142,150,-1,147,148,150,-1,151,149,150,-1,142,147,150,-1,151,150,152,-1,150,148,152,-1,153,151,152,-1,148,153,152,-1,149,151,154,-1,151,153,154,-1,148,155,156,-1,154,153,156,-1,157,154,156,-1,153,148,156,-1,158,149,159,-1,156,155,159,-1,154,157,159,-1,149,154,159,-1,157,156,159,-1,158,159,160,-1,161,158,160,-1,162,161,160,-1,155,162,163,-1,159,155,163,-1,162,160,163,-1,160,159,163,-1,158,161,164,-1,161,162,164,-1,162,155,165,-1,155,166,165,-1,164,162,165,-1,167,164,165,-1,168,158,169,-1,158,164,169,-1,164,167,169,-1,167,165,169,-1,165,166,169,-1,170,171,172,-1,168,169,172,-1,171,168,172,-1,166,170,173,-1,169,166,173,-1,170,172,173,-1,172,169,173,-1,171,170,174,-1,168,171,174,-1,175,174,176,-1,174,170,176,-1,166,177,176,-1,170,166,176,-1,174,175,178,-1,176,177,178,-1,179,168,178,-1,175,176,178,-1,168,174,178,-1,180,181,182,-1,179,178,182,-1,181,179,182,-1,180,182,183,-1,178,177,183,-1,182,178,183,-1,177,180,183,-1,181,180,184,-1,179,181,184,-1,185,184,186,-1,177,187,186,-1,184,180,186,-1,180,177,186,-1,185,186,188,-1,189,179,188,-1,179,184,188,-1,184,185,188,-1,186,187,188,-1,190,189,191,-1,189,188,191,-1,192,190,191,-1,187,192,193,-1,188,187,193,-1,192,191,193,-1,191,188,193,-1,189,190,194,-1,190,192,194,-1,192,187,195,-1,194,192,195,-1,196,194,195,-1,187,197,195,-1,198,189,199,-1,189,194,199,-1,194,196,199,-1,196,195,199,-1,195,197,199,-1,200,198,201,-1,202,200,201,-1,198,199,201,-1,197,202,203,-1,202,201,203,-1,199,197,203,-1,201,199,203,-1,200,202,204,-1,198,200,204,-1,202,197,205,-1,204,202,205,-1,197,108,205,-1,206,204,205,-1,207,198,208,-1,204,206,208,-1,206,205,208,-1,205,108,208,-1,198,204,208,-1,209,207,210,-1,110,209,210,-1,207,208,210,-1,208,211,210,-1,208,108,212,-1,108,110,212,-1,211,208,212,-1,110,210,212,-1,210,211,212,-1,207,209,213,-1,209,110,213,-1,110,109,214,-1,215,213,214,-1,213,110,214,-1,216,207,217,-1,207,213,217,-1,213,215,217,-1,214,109,217,-1,215,214,217,-1,218,216,219,-1,112,218,219,-1,216,217,219,-1,217,220,219,-1,109,112,221,-1,217,109,221,-1,220,217,221,-1,112,219,221,-1,219,220,221,-1,216,218,222,-1,218,112,222,-1,112,111,223,-1,224,222,223,-1,222,112,223,-1,224,223,225,-1,226,216,225,-1,216,222,225,-1,222,224,225,-1,223,111,225,-1,225,227,228,-1,229,226,228,-1,114,229,228,-1,226,225,228,-1,227,225,230,-1,225,111,230,-1,228,227,230,-1,114,228,230,-1,111,114,230,-1,226,229,231,-1,229,114,231,-1,231,114,232,-1,233,231,232,-1,114,113,232,-1,231,233,234,-1,235,226,234,-1,233,232,234,-1,232,113,234,-1,226,231,234,-1,234,236,237,-1,238,235,237,-1,239,238,237,-1,235,234,237,-1,234,113,240,-1,236,234,240,-1,237,236,240,-1,239,237,240,-1,241,239,240,-1,113,241,240,-1,235,238,242,-1,238,239,242,-1,242,239,243,-1,239,241,243,-1,5,235,244,-1,242,243,244,-1,235,242,244,-1,243,241,244,-1,5,244,245,-1,244,246,245,-1,247,5,245,-1,0,247,245,-1,244,241,248,-1,246,244,248,-1,245,246,248,-1,1,0,248,-1,0,245,248,-1,241,1,248,-1,5,247,3,-1,247,0,3,-1]
coord Coordinate { point [-0.525 0.679 0.030,-0.485 0.764 0.079,-0.503 0.720 0.037,-0.494 0.713 0.023,-0.329 0.821 -0.000,-0.474 0.645 -0.000,-0.442 0.754 0.011,-0.353 0.845 0.008,-0.398 0.820 0.017,-0.373 0.865 0.030,-0.419 0.807 0.023,-0.323 0.934 0.079,-0.428 0.814 0.037,-0.339 0.889 0.023,-0.346 0.897 0.037,1.565 -0.444 -0.000,1.581 -0.451 0.002,1.458 -0.645 -0.000,-0.153 0.966 -0.000,-0.279 0.920 0.011,-0.172 0.994 0.008,-0.223 0.977 0.017,1.631 -0.472 0.045,1.636 -0.474 0.061,1.528 -0.682 0.079,-0.187 1.017 0.030,1.638 -0.475 0.079,-0.248 0.966 0.023,-0.133 1.071 0.079,-0.254 0.975 0.037,-0.153 1.032 0.023,-0.159 1.041 0.037,0.048 1.073 -0.000,-0.087 1.052 0.011,0.080 1.170 0.079,-0.054 1.100 0.037,0.024 1.130 0.030,-0.049 1.090 0.023,-0.021 1.096 0.017,0.035 1.105 0.008,0.057 1.137 0.023,0.053 1.147 0.037,0.127 1.144 0.011,0.266 1.139 -0.000,0.170 1.174 0.023,0.168 1.184 0.037,0.308 1.226 0.079,0.254 1.199 0.030,0.200 1.175 0.017,0.259 1.173 0.008,0.281 1.210 0.037,0.492 1.161 -0.000,0.352 1.211 0.025,0.542 1.239 0.079,0.401 1.225 0.037,0.492 1.196 0.008,0.492 1.223 0.030,0.517 1.228 0.037,0.719 1.139 -0.000,0.588 1.215 0.025,0.775 1.207 0.079,0.637 1.219 0.037,0.725 1.173 0.008,0.731 1.199 0.030,0.752 1.200 0.037,0.937 1.073 -0.000,0.821 1.174 0.025,0.868 1.169 0.037,0.998 1.132 0.079,0.950 1.105 0.008,0.960 1.130 0.030,0.977 1.128 0.037,1.137 0.966 -0.000,1.041 1.088 0.025,1.086 1.075 0.037,1.156 0.994 0.008,1.172 1.017 0.030,1.180 1.030 0.061,1.185 1.014 0.037,1.202 1.017 0.079,1.241 0.962 0.025,1.313 0.821 -0.000,1.357 0.865 0.030,1.338 0.845 0.008,1.281 0.941 0.037,1.368 0.876 0.061,1.381 0.865 0.079,1.565 0.444 -0.000,1.458 0.645 -0.000,1.581 0.451 0.002,1.631 0.472 0.045,1.528 0.682 0.079,1.636 0.474 0.061,1.638 0.475 0.079,1.597 -0.458 0.008,1.486 -0.664 0.008,1.610 -0.463 0.017,1.509 -0.679 0.030,1.622 -0.468 0.030,1.381 -0.865 0.079,1.522 -0.688 0.061,1.313 -0.821 -0.000,1.338 -0.845 0.008,1.357 -0.865 0.030,1.368 -0.876 0.061,1.202 -1.017 0.079,0.998 -1.132 0.079,1.180 -1.030 0.061,-0.698 -0.348 0.079,-0.742 -0.117 0.079,-0.707 -0.239 0.030,-0.742 0.117 0.079,-0.731 0.000 0.030,-0.698 0.348 0.079,-0.707 0.239 0.030,1.486 0.664 0.008,1.597 0.458 0.008,1.610 0.463 0.017,1.509 0.679 0.030,1.622 0.468 0.030,1.522 0.688 0.061,1.281 -0.941 0.037,1.137 -0.966 -0.000,1.241 -0.962 0.025,1.156 -0.994 0.008,1.185 -1.014 0.037,1.172 -1.017 0.030,1.086 -1.075 0.037,0.937 -1.073 -0.000,1.041 -1.088 0.025,0.950 -1.105 0.008,0.977 -1.128 0.037,0.960 -1.130 0.030,0.868 -1.169 0.037,0.775 -1.207 0.079,0.719 -1.139 -0.000,0.821 -1.174 0.025,0.725 -1.173 0.008,0.752 -1.200 0.037,0.731 -1.199 0.030,0.542 -1.239 0.079,0.637 -1.219 0.037,0.492 -1.161 -0.000,0.588 -1.215 0.025,0.492 -1.196 0.008,0.492 -1.223 0.030,0.517 -1.228 0.037,0.401 -1.225 0.037,0.308 -1.226 0.079,0.266 -1.139 -0.000,0.352 -1.211 0.025,0.259 -1.173 0.008,0.281 -1.210 0.037,0.254 -1.199 0.030,0.200 -1.175 0.017,0.080 -1.170 0.079,0.168 -1.184 0.037,0.170 -1.174 0.023,0.048 -1.073 -0.000,0.127 -1.144 0.011,0.057 -1.137 0.023,0.035 -1.105 0.008,0.024 -1.130 0.030,0.053 -1.147 0.037,-0.021 -1.096 0.017,-0.054 -1.100 0.037,-0.133 -1.071 0.079,-0.049 -1.090 0.023,-0.153 -0.966 -0.000,-0.087 -1.052 0.011,-0.187 -1.017 0.030,-0.172 -0.994 0.008,-0.153 -1.032 0.023,-0.159 -1.041 0.037,-0.223 -0.977 0.017,-0.248 -0.966 0.023,-0.254 -0.975 0.037,-0.323 -0.934 0.079,-0.279 -0.920 0.011,-0.329 -0.821 -0.000,-0.373 -0.865 0.030,-0.353 -0.845 0.008,-0.339 -0.889 0.023,-0.346 -0.897 0.037,-0.398 -0.820 0.017,-0.419 -0.807 0.023,-0.428 -0.814 0.037,-0.485 -0.764 0.079,-0.442 -0.754 0.011,-0.474 -0.645 -0.000,-0.502 -0.664 0.008,-0.494 -0.713 0.023,-0.525 -0.679 0.030,-0.503 -0.720 0.037,-0.539 -0.633 0.017,-0.567 -0.622 0.037,-0.557 -0.617 0.023,-0.611 -0.566 0.079,-0.581 -0.444 -0.000,-0.570 -0.560 0.011,-0.612 -0.458 0.008,-0.612 -0.511 0.023,-0.638 -0.468 0.030,-0.622 -0.516 0.037,-0.642 -0.423 0.017,-0.666 -0.408 0.037,-0.656 -0.404 0.023,-0.647 -0.227 -0.000,-0.658 -0.345 0.011,-0.680 -0.233 0.008,-0.688 -0.271 0.017,-0.690 -0.290 0.023,-0.701 -0.292 0.037,-0.702 -0.196 0.017,-0.723 -0.178 0.037,-0.712 -0.177 0.023,-0.669 0.000 -0.000,-0.703 -0.116 0.011,-0.703 0.000 0.008,-0.718 -0.038 0.017,-0.724 -0.058 0.023,-0.735 -0.058 0.037,-0.718 0.038 0.017,-0.735 0.058 0.037,-0.724 0.058 0.023,-0.703 0.116 0.011,-0.647 0.227 -0.000,-0.712 0.177 0.023,-0.702 0.196 0.017,-0.680 0.233 0.008,-0.723 0.178 0.037,-0.688 0.271 0.017,-0.701 0.292 0.037,-0.690 0.290 0.023,-0.658 0.345 0.011,-0.581 0.444 -0.000,-0.656 0.404 0.023,-0.642 0.423 0.017,-0.612 0.458 0.008,-0.638 0.468 0.030,-0.666 0.408 0.037,-0.611 0.566 0.079,-0.612 0.511 0.023,-0.622 0.516 0.037,-0.570 0.560 0.011,-0.539 0.633 0.017,-0.557 0.617 0.023,-0.502 0.664 0.008,-0.567 0.622 0.037]
}}
appearance Appearance{material USE PLASTIC-BLUE-01 }
}
Shape { geometry IndexedFaceSet
{ creaseAngle 0.50 coordIndex [0,1,2,-1,3,0,2,-1,4,5,6,-1,5,7,6,-1,7,2,6,-1,2,8,6,-1,6,8,9,-1,1,10,9,-1,4,6,9,-1,2,1,9,-1,10,4,9,-1,8,2,9,-1,5,4,11,-1,4,10,11,-1,12,7,13,-1,5,11,13,-1,11,10,13,-1,7,5,13,-1,14,12,15,-1,16,14,15,-1,17,16,15,-1,18,17,15,-1,19,18,15,-1,20,19,15,-1,21,20,15,-1,10,21,15,-1,13,10,15,-1,12,13,15,-1,22,1,23,-1,24,25,26,-1,25,27,26,-1,27,28,26,-1,28,29,26,-1,29,30,26,-1,30,31,26,-1,31,32,26,-1,32,33,26,-1,34,24,35,-1,24,26,35,-1,36,34,35,-1,26,33,35,-1,35,33,37,-1,33,38,37,-1,38,36,37,-1,36,35,37,-1,34,36,39,-1,36,38,39,-1,33,22,40,-1,38,33,40,-1,39,38,40,-1,41,39,40,-1,42,34,43,-1,34,39,43,-1,40,22,43,-1,39,41,43,-1,41,40,43,-1,44,42,45,-1,23,44,45,-1,42,43,45,-1,22,23,46,-1,43,22,46,-1,23,45,46,-1,45,43,46,-1,42,44,3,-1,44,23,3,-1,23,1,0,-1,3,23,0,-1,7,42,2,-1,42,3,2,-1]
coord Coordinate { point [1.719 -0.048 0.037,1.728 -0.097 0.079,1.688 -0.110 0.011,1.708 -0.048 0.023,1.692 -0.239 0.030,1.665 -0.233 0.008,1.688 -0.189 0.017,1.631 -0.227 -0.000,1.698 -0.167 0.023,1.709 -0.168 0.037,1.698 -0.290 0.079,1.692 -0.263 0.037,1.565 -0.444 -0.000,1.665 -0.331 0.025,1.581 -0.451 0.002,1.660 -0.380 0.037,1.597 -0.458 0.008,1.610 -0.463 0.017,1.622 -0.468 0.030,1.631 -0.472 0.045,1.636 -0.474 0.061,1.638 -0.475 0.079,1.728 0.097 0.079,1.715 -0.000 0.030,1.565 0.444 -0.000,1.581 0.451 0.002,1.660 0.380 0.037,1.597 0.458 0.008,1.610 0.463 0.017,1.622 0.468 0.030,1.631 0.472 0.045,1.636 0.474 0.061,1.638 0.475 0.079,1.698 0.290 0.079,1.631 0.227 -0.000,1.665 0.331 0.025,1.665 0.233 0.008,1.692 0.263 0.037,1.692 0.239 0.030,1.688 0.189 0.017,1.709 0.168 0.037,1.698 0.167 0.023,1.654 -0.000 -0.000,1.688 0.110 0.011,1.688 -0.000 0.008,1.708 0.048 0.023,1.719 0.048 0.037]
}}
appearance Appearance{material USE IC-LABEL-01 }
}
Shape { geometry IndexedFaceSet
{ creaseAngle 0.50 coordIndex [0,1,2,-1,1,3,2,-1,4,0,5,-1,0,2,5,-1,6,4,7,-1,4,5,7,-1,8,9,10,-1,11,8,10,-1,12,6,13,-1,6,7,13,-1,14,11,15,-1,11,10,15,-1,16,12,17,-1,12,13,17,-1,18,14,19,-1,14,15,19,-1,20,16,21,-1,16,17,21,-1,22,18,23,-1,24,20,25,-1,18,19,23,-1,20,21,25,-1,26,24,27,-1,28,22,29,-1,24,25,27,-1,22,23,29,-1,30,26,31,-1,26,27,31,-1,32,28,33,-1,28,29,33,-1,30,31,34,-1,35,32,36,-1,32,33,36,-1,37,35,38,-1,35,36,38,-1,39,37,40,-1,37,38,40,-1,39,40,41,-1,42,39,41,-1,43,42,41,-1,43,41,44,-1,45,43,44,-1,45,44,46,-1,47,45,46,-1,48,47,49,-1,47,46,49,-1,50,48,51,-1,48,49,51,-1,52,50,53,-1,50,51,53,-1,54,52,55,-1,52,53,55,-1,56,54,57,-1,54,55,57,-1,58,56,59,-1,56,57,59,-1,1,58,3,-1,58,59,3,-1]
coord Coordinate { point [0.080 1.170 0.079,-0.133 1.071 0.079,-0.073 1.104 0.419,-0.276 0.973 0.419,0.308 1.226 0.079,0.152 1.193 0.419,0.542 1.239 0.079,0.390 1.236 0.419,1.638 -0.475 0.079,1.638 -0.475 0.419,1.537 -0.668 0.419,1.528 -0.682 0.079,0.775 1.207 0.079,0.631 1.232 0.419,1.381 -0.865 0.079,1.403 -0.841 0.419,0.998 1.132 0.079,0.868 1.182 0.419,1.202 -1.017 0.079,1.242 -0.988 0.419,1.202 1.017 0.079,1.090 1.087 0.419,0.998 -1.132 0.079,1.036 -1.114 0.419,1.381 0.865 0.079,1.289 0.950 0.419,1.528 0.682 0.079,1.458 0.778 0.419,0.775 -1.207 0.079,0.810 -1.199 0.419,1.638 0.475 0.079,1.559 0.632 0.419,0.542 -1.239 0.079,0.572 -1.238 0.419,1.638 0.475 0.419,0.308 -1.226 0.079,0.330 -1.230 0.419,0.080 -1.170 0.079,0.095 -1.175 0.419,-0.133 -1.071 0.079,-0.126 -1.075 0.419,-0.322 -0.935 0.419,-0.323 -0.934 0.079,-0.485 -0.764 0.079,-0.488 -0.759 0.419,-0.611 -0.566 0.079,-0.617 -0.555 0.419,-0.698 -0.348 0.079,-0.742 -0.117 0.079,-0.704 -0.329 0.419,-0.742 0.117 0.079,-0.745 -0.091 0.419,-0.698 0.348 0.079,-0.739 0.150 0.419,-0.611 0.566 0.079,-0.686 0.386 0.419,-0.485 0.764 0.079,-0.589 0.608 0.419,-0.323 0.934 0.079,-0.451 0.806 0.419]
}}
appearance Appearance{material USE PLASTIC-BLUE-01 }
}
Shape { geometry IndexedFaceSet
{ creaseAngle 0.50 coordIndex [0,1,2,-1,3,0,4,-1,0,2,4,-1,5,3,6,-1,3,4,6,-1,7,5,8,-1,5,6,8,-1,9,7,10,-1,7,8,10,-1,9,10,11,-1]
coord Coordinate { point [1.698 0.290 0.079,1.638 0.475 0.079,1.638 0.475 0.419,1.728 0.097 0.079,1.708 0.243 0.419,1.728 -0.097 0.079,1.732 0.003 0.419,1.698 -0.290 0.079,1.709 -0.238 0.419,1.638 -0.475 0.079,1.680 -0.358 0.419,1.638 -0.475 0.419]
}}
appearance Appearance{material USE IC-LABEL-01 }
}
Shape { geometry IndexedFaceSet
{ creaseAngle 0.50 coordIndex [0,1,2,-1,0,3,1,-1,4,5,6,-1,0,7,8,-1,0,8,3,-1,0,9,7,-1,10,11,3,-1,10,8,7,-1,10,3,8,-1,10,12,13,-1,10,13,11,-1,10,7,12,-1,14,15,4,-1,16,17,11,-1,16,13,12,-1,16,11,13,-1,16,12,18,-1,16,19,17,-1,16,18,19,-1,20,21,17,-1,20,18,22,-1,23,24,14,-1,20,17,19,-1,25,26,27,-1,20,19,18,-1,20,28,21,-1,20,22,28,-1,29,30,21,-1,29,22,31,-1,29,21,28,-1,29,28,22,-1,32,33,23,-1,29,34,30,-1,29,31,34,-1,35,36,37,-1,38,39,30,-1,38,31,40,-1,38,30,34,-1,38,34,31,-1,38,41,39,-1,38,40,41,-1,42,43,39,-1,42,40,44,-1,45,46,32,-1,42,39,41,-1,42,41,40,-1,42,47,43,-1,42,44,47,-1,48,49,43,-1,48,44,50,-1,48,51,49,-1,48,50,51,-1,52,53,45,-1,48,43,47,-1,48,47,44,-1,54,55,49,-1,54,50,56,-1,54,49,51,-1,54,51,50,-1,54,57,55,-1,54,56,57,-1,58,59,52,-1,60,61,58,-1,62,63,64,-1,65,27,66,-1,65,66,36,-1,65,67,25,-1,65,25,27,-1,65,36,35,-1,68,69,67,-1,68,35,70,-1,68,67,65,-1,68,65,35,-1,71,68,70,-1,71,72,69,-1,71,70,73,-1,71,69,68,-1,74,75,72,-1,74,72,71,-1,74,71,73,-1,74,73,76,-1,77,78,75,-1,77,76,79,-1,77,75,74,-1,77,74,76,-1,80,1,78,-1,80,79,81,-1,80,78,77,-1,80,77,79,-1,2,81,9,-1,2,1,80,-1,2,80,81,-1,57,82,55,-1,57,56,82,-1,83,84,82,-1,83,85,84,-1,83,82,85,-1,86,87,84,-1,86,88,87,-1,86,84,88,-1,89,5,87,-1,89,6,5,-1,89,87,6,-1,90,15,5,-1,90,4,15,-1,90,5,4,-1,91,24,15,-1,91,15,14,-1,91,14,24,-1,92,33,24,-1,92,24,23,-1,92,23,33,-1,85,82,56,-1,93,46,33,-1,93,33,32,-1,93,32,46,-1,94,53,46,-1,94,46,45,-1,94,45,53,-1,95,59,53,-1,95,53,52,-1,95,52,59,-1,88,84,85,-1,96,61,59,-1,96,59,58,-1,96,58,61,-1,97,98,61,-1,97,61,60,-1,99,97,60,-1,99,100,98,-1,6,87,88,-1,99,60,64,-1,99,101,100,-1,99,102,101,-1,99,63,102,-1,99,98,97,-1,99,64,63,-1,0,2,9,-1]
coord Coordinate { point [0.203 -1.197 0.463,0.330 -1.230 0.419,0.311 -1.214 0.473,0.095 -1.175 0.419,-0.004 1.102 0.500,-0.073 1.104 0.419,-0.211 0.983 0.500,0.083 -1.137 0.500,0.076 -1.154 0.473,0.314 -1.195 0.500,-0.025 -1.118 0.463,-0.126 -1.075 0.419,-0.133 -1.034 0.500,-0.142 -1.050 0.473,0.222 1.178 0.500,0.152 1.193 0.419,-0.234 -0.995 0.463,-0.322 -0.935 0.419,-0.324 -0.891 0.500,-0.336 -0.905 0.473,-0.414 -0.835 0.463,-0.488 -0.759 0.419,-0.483 -0.714 0.500,0.459 1.208 0.500,0.390 1.236 0.419,1.537 -0.668 0.419,1.638 -0.475 0.419,1.635 -0.473 0.448,-0.498 -0.725 0.473,-0.559 -0.642 0.463,-0.617 -0.555 0.419,-0.604 -0.508 0.500,0.697 1.191 0.500,0.631 1.232 0.419,-0.621 -0.516 0.473,1.509 -0.653 0.500,1.618 -0.466 0.487,1.609 -0.462 0.500,-0.665 -0.424 0.463,-0.704 -0.329 0.419,-0.683 -0.283 0.500,-0.701 -0.287 0.473,-0.725 -0.190 0.463,-0.745 -0.091 0.419,-0.715 -0.047 0.500,0.927 1.128 0.500,0.868 1.182 0.419,-0.734 -0.048 0.473,-0.739 0.051 0.463,-0.739 0.150 0.419,-0.701 0.191 0.500,-0.719 0.194 0.473,1.140 1.020 0.500,1.090 1.087 0.419,-0.705 0.290 0.463,-0.686 0.386 0.419,-0.640 0.422 0.500,-0.658 0.428 0.473,1.327 0.873 0.500,1.289 0.950 0.419,1.483 0.692 0.500,1.458 0.778 0.419,1.609 0.462 0.500,1.618 0.466 0.487,1.552 0.581 0.500,1.524 -0.663 0.473,1.626 -0.470 0.473,1.403 -0.841 0.419,1.390 -0.836 0.473,1.242 -0.988 0.419,1.376 -0.824 0.500,1.228 -0.982 0.473,1.036 -1.114 0.419,1.216 -0.967 0.500,1.020 -1.108 0.473,0.810 -1.199 0.419,1.012 -1.091 0.500,0.792 -1.190 0.473,0.572 -1.238 0.419,0.788 -1.172 0.500,0.553 -1.226 0.473,0.552 -1.207 0.500,-0.589 0.608 0.419,-0.551 0.646 0.473,-0.451 0.806 0.419,-0.535 0.636 0.500,-0.404 0.838 0.473,-0.276 0.973 0.419,-0.390 0.826 0.500,-0.222 0.998 0.473,-0.012 1.119 0.473,0.218 1.196 0.473,0.458 1.227 0.473,0.700 1.209 0.473,0.933 1.145 0.473,1.150 1.036 0.473,1.340 0.887 0.473,1.498 0.703 0.473,1.559 0.632 0.419,1.568 0.590 0.473,1.638 0.475 0.419,1.635 0.473 0.448,1.626 0.470 0.473]
}}
appearance Appearance{material USE PLASTIC-BLUE-01 }
}
Shape { geometry IndexedFaceSet
{ creaseAngle 0.50 coordIndex [0,1,2,-1,3,4,5,-1,6,7,8,-1,9,6,8,-1,10,9,8,-1,11,8,12,-1,11,10,8,-1,13,2,14,-1,13,14,4,-1,13,15,0,-1,13,0,2,-1,13,4,3,-1,16,17,15,-1,16,3,18,-1,16,15,13,-1,16,13,3,-1,19,8,17,-1,19,18,12,-1,19,17,16,-1,19,16,18,-1,19,12,8,-1]
coord Coordinate { point [1.708 0.243 0.419,1.638 0.475 0.419,1.635 0.473 0.448,1.678 0.234 0.500,1.618 0.466 0.487,1.609 0.462 0.500,1.635 -0.473 0.448,1.638 -0.475 0.419,1.680 -0.358 0.419,1.626 -0.470 0.473,1.618 -0.466 0.487,1.609 -0.462 0.500,1.677 -0.237 0.500,1.696 0.238 0.473,1.626 0.470 0.473,1.732 0.003 0.419,1.719 -0.003 0.473,1.709 -0.238 0.419,1.701 -0.003 0.500,1.695 -0.241 0.473]
}}
appearance Appearance{material USE IC-LABEL-01 }
}
Shape { geometry IndexedFaceSet
{ creaseAngle 0.50 coordIndex [0,1,2,-1,3,4,5,-1,1,6,2,-1,5,4,7,-1,8,9,7,-1,10,11,12,-1,13,10,12,-1,14,8,7,-1,6,13,12,-1,4,14,7,-1,2,6,12,-1,15,0,16,-1,17,18,19,-1,20,17,19,-1,0,2,16,-1,18,5,19,-1,5,7,21,-1,11,22,23,-1,7,9,21,-1,12,11,23,-1,9,24,21,-1,2,12,23,-1,24,25,21,-1,16,2,23,-1,19,5,21,-1,26,20,27,-1,28,29,30,-1,20,19,27,-1,15,16,31,-1,27,19,32,-1,23,22,33,-1,25,34,32,-1,16,23,33,-1,21,25,32,-1,31,16,33,-1,19,21,32,-1,35,26,36,-1,37,15,38,-1,26,27,36,-1,15,31,38,-1,36,27,39,-1,34,40,39,-1,22,41,42,-1,32,34,39,-1,27,32,39,-1,33,22,42,-1,43,35,44,-1,31,33,42,-1,45,46,47,-1,38,31,42,-1,48,49,50,-1,35,36,44,-1,44,36,51,-1,52,37,50,-1,49,52,50,-1,39,40,51,-1,40,53,51,-1,37,38,50,-1,36,39,51,-1,43,44,54,-1,55,48,56,-1,41,57,56,-1,57,55,56,-1,42,41,56,-1,38,42,56,-1,51,53,58,-1,48,50,56,-1,44,51,58,-1,50,38,56,-1,54,44,58,-1,59,43,60,-1,43,54,60,-1,54,58,61,-1,60,54,61,-1,58,53,61,-1,53,62,61,-1,63,59,64,-1,59,60,64,-1,61,62,65,-1,64,60,65,-1,62,66,65,-1,60,61,65,-1,63,64,67,-1,68,63,67,-1,69,68,67,-1,65,66,70,-1,67,64,70,-1,64,65,70,-1,66,71,70,-1,71,72,70,-1,69,67,73,-1,74,49,75,-1,76,69,73,-1,67,70,77,-1,75,49,78,-1,70,72,77,-1,73,67,77,-1,72,79,77,-1,78,49,48,-1,76,73,80,-1,81,76,80,-1,80,73,82,-1,73,77,82,-1,77,79,82,-1,48,55,83,-1,79,84,82,-1,85,81,86,-1,83,55,87,-1,81,80,86,-1,80,82,88,-1,87,55,89,-1,82,84,88,-1,86,80,88,-1,29,90,91,-1,84,92,88,-1,90,93,91,-1,94,30,91,-1,85,86,95,-1,30,29,91,-1,86,88,96,-1,93,97,98,-1,88,92,96,-1,97,45,98,-1,95,86,96,-1,47,99,98,-1,91,93,98,-1,100,85,101,-1,45,47,98,-1,102,94,103,-1,85,95,101,-1,94,91,103,-1,96,92,104,-1,91,98,105,-1,95,96,104,-1,103,91,105,-1,92,106,104,-1,99,107,105,-1,98,99,105,-1,101,95,104,-1,108,100,109,-1,110,102,111,-1,102,103,111,-1,100,101,109,-1,107,112,113,-1,103,105,113,-1,101,104,114,-1,105,107,113,-1,104,106,114,-1,109,101,114,-1,111,103,113,-1,106,115,114,-1,116,108,117,-1,118,116,117,-1,110,111,119,-1,111,113,120,-1,119,111,120,-1,108,109,117,-1,109,114,121,-1,113,112,120,-1,114,115,121,-1,110,119,4,-1,115,122,121,-1,3,110,4,-1,117,109,121,-1,122,123,121,-1,1,118,6,-1,119,120,14,-1,112,8,14,-1,118,117,6,-1,120,112,14,-1,123,10,13,-1,4,119,14,-1,117,121,13,-1,121,123,13,-1,18,3,5,-1,6,117,13,-1]
coord Coordinate { point [0.927 1.128 0.500,0.697 1.191 0.500,0.689 1.146 0.583,0.788 -1.172 0.500,0.777 -1.128 0.583,0.550 -1.162 0.583,0.460 1.163 0.583,0.550 -1.162 0.677,0.788 -1.172 0.760,0.552 -1.207 0.760,0.697 1.191 0.760,0.927 1.128 0.760,0.689 1.146 0.677,0.460 1.163 0.677,0.777 -1.128 0.677,1.140 1.020 0.500,0.910 1.085 0.583,0.314 -1.195 0.500,0.552 -1.207 0.500,0.320 -1.151 0.583,0.083 -1.137 0.500,0.320 -1.151 0.677,1.140 1.020 0.760,0.910 1.085 0.677,0.314 -1.195 0.760,0.083 -1.137 0.760,-0.133 -1.034 0.500,0.098 -1.094 0.583,1.609 -0.462 0.500,1.583 -0.452 0.538,1.509 -0.653 0.500,1.115 0.982 0.583,0.098 -1.094 0.677,1.115 0.982 0.677,-0.133 -1.034 0.760,-0.324 -0.891 0.500,-0.109 -0.996 0.583,1.327 0.873 0.500,1.296 0.841 0.583,-0.109 -0.996 0.677,-0.324 -0.891 0.760,1.327 0.873 0.760,1.296 0.841 0.677,-0.483 -0.714 0.500,-0.293 -0.858 0.583,1.583 -0.452 0.721,1.609 -0.462 0.760,1.509 -0.653 0.760,1.561 0.443 0.630,1.552 0.581 0.500,1.446 0.666 0.583,-0.293 -0.858 0.677,1.483 0.692 0.500,-0.483 -0.714 0.760,-0.447 -0.687 0.583,1.552 0.581 0.760,1.446 0.666 0.677,1.483 0.692 0.760,-0.447 -0.687 0.677,-0.604 -0.508 0.500,-0.563 -0.489 0.583,-0.563 -0.489 0.677,-0.604 -0.508 0.760,-0.683 -0.283 0.500,-0.639 -0.273 0.583,-0.639 -0.273 0.677,-0.683 -0.283 0.760,-0.670 -0.045 0.583,-0.715 -0.047 0.500,-0.701 0.191 0.500,-0.670 -0.045 0.677,-0.715 -0.047 0.760,-0.701 0.191 0.760,-0.656 0.184 0.583,1.609 0.462 0.500,1.583 0.452 0.538,-0.640 0.422 0.500,-0.656 0.184 0.677,1.567 0.445 0.583,-0.640 0.422 0.760,-0.598 0.406 0.583,-0.535 0.636 0.500,-0.598 0.406 0.677,1.567 0.445 0.677,-0.535 0.636 0.760,-0.390 0.826 0.500,-0.497 0.612 0.583,1.583 0.452 0.721,-0.497 0.612 0.677,1.609 0.462 0.760,1.567 -0.445 0.583,1.471 -0.629 0.583,-0.390 0.826 0.760,1.561 -0.443 0.630,1.376 -0.824 0.500,-0.357 0.795 0.583,-0.357 0.795 0.677,1.567 -0.445 0.677,1.471 -0.629 0.677,1.376 -0.824 0.760,-0.211 0.983 0.500,-0.185 0.946 0.583,1.216 -0.967 0.500,1.343 -0.793 0.583,-0.185 0.946 0.677,1.343 -0.793 0.677,-0.211 0.983 0.760,1.216 -0.967 0.760,-0.004 1.102 0.500,0.014 1.061 0.583,1.012 -1.091 0.500,1.189 -0.931 0.583,1.012 -1.091 0.760,1.189 -0.931 0.677,0.014 1.061 0.677,-0.004 1.102 0.760,0.222 1.178 0.500,0.232 1.134 0.583,0.459 1.208 0.500,0.993 -1.050 0.583,0.993 -1.050 0.677,0.232 1.134 0.677,0.222 1.178 0.760,0.459 1.208 0.760]
}}
appearance Appearance{material USE PLASTIC-BLUE-01 }
}
Shape { geometry IndexedFaceSet
{ creaseAngle 0.50 coordIndex [0,1,2,-1,3,4,5,-1,6,7,8,-1,9,10,11,-1,1,12,13,-1,12,14,13,-1,2,1,13,-1,14,15,16,-1,15,3,16,-1,13,14,16,-1,3,5,16,-1,17,2,18,-1,2,13,18,-1,5,19,20,-1,18,13,20,-1,16,5,20,-1,13,16,20,-1,7,17,21,-1,22,8,21,-1,23,22,21,-1,8,7,21,-1,17,18,21,-1,19,10,24,-1,25,23,24,-1,9,25,24,-1,21,18,24,-1,20,19,24,-1,23,21,24,-1,18,20,24,-1,10,9,24,-1]
coord Coordinate { point [1.609 0.462 0.500,1.583 0.452 0.538,1.678 0.234 0.500,1.583 0.452 0.721,1.609 0.462 0.760,1.678 0.234 0.760,1.609 -0.462 0.500,1.677 -0.237 0.500,1.583 -0.452 0.538,1.583 -0.452 0.721,1.677 -0.237 0.760,1.609 -0.462 0.760,1.567 0.445 0.583,1.633 0.225 0.583,1.561 0.443 0.630,1.567 0.445 0.677,1.633 0.225 0.677,1.701 -0.003 0.500,1.655 -0.003 0.583,1.701 -0.003 0.760,1.655 -0.003 0.677,1.633 -0.229 0.583,1.567 -0.445 0.583,1.561 -0.443 0.630,1.633 -0.229 0.677,1.567 -0.445 0.677]
}}
appearance Appearance{material USE IC-LABEL-01 }
}
Shape { geometry IndexedFaceSet
{ creaseAngle 0.50 coordIndex [0,1,2,-1,0,3,1,-1,4,5,6,-1,0,7,3,-1,0,8,9,-1,0,2,8,-1,10,11,12,-1,10,13,14,-1,10,12,13,-1,15,16,11,-1,17,18,5,-1,15,19,16,-1,15,14,19,-1,15,11,10,-1,15,10,14,-1,20,21,16,-1,20,14,22,-1,20,16,19,-1,20,19,14,-1,20,23,21,-1,20,22,23,-1,24,25,18,-1,26,27,28,-1,29,30,21,-1,29,22,31,-1,29,21,23,-1,29,23,22,-1,29,32,30,-1,29,31,32,-1,33,34,30,-1,33,31,35,-1,33,36,34,-1,37,38,39,-1,33,30,32,-1,40,41,25,-1,37,39,42,-1,33,35,36,-1,33,32,31,-1,43,44,45,-1,43,46,34,-1,43,35,44,-1,43,34,36,-1,43,36,35,-1,43,45,46,-1,47,45,44,-1,47,48,46,-1,49,50,41,-1,47,51,48,-1,49,41,40,-1,47,44,51,-1,47,46,45,-1,52,53,51,-1,52,48,53,-1,52,54,48,-1,52,55,54,-1,52,51,55,-1,56,54,57,-1,56,58,54,-1,59,60,50,-1,56,57,55,-1,59,50,49,-1,56,61,58,-1,56,55,61,-1,62,63,58,-1,62,64,63,-1,62,58,65,-1,62,65,61,-1,62,61,64,-1,66,67,63,-1,66,68,67,-1,69,70,60,-1,66,63,71,-1,69,60,59,-1,66,71,64,-1,66,64,68,-1,72,73,67,-1,72,74,73,-1,72,68,74,-1,72,67,75,-1,72,75,68,-1,76,77,73,-1,76,78,77,-1,79,80,70,-1,76,74,78,-1,76,73,81,-1,76,81,74,-1,79,70,69,-1,82,83,80,-1,82,80,79,-1,84,85,83,-1,84,83,82,-1,9,8,85,-1,9,85,84,-1,2,86,8,-1,87,28,38,-1,87,37,88,-1,87,26,28,-1,87,38,37,-1,89,90,26,-1,89,88,91,-1,89,26,87,-1,89,87,88,-1,92,89,91,-1,92,93,90,-1,92,91,13,-1,92,90,89,-1,12,11,93,-1,12,93,92,-1,12,92,13,-1,53,48,51,-1,57,54,55,-1,65,58,61,-1,71,63,64,-1,75,67,68,-1,81,73,74,-1,94,77,78,-1,94,95,77,-1,94,78,95,-1,96,6,95,-1,96,4,6,-1,96,95,4,-1,97,5,4,-1,97,17,5,-1,95,6,77,-1,97,4,17,-1,98,18,17,-1,98,17,24,-1,98,24,18,-1,99,24,40,-1,99,25,24,-1,99,40,25,-1,0,9,7,-1]
coord Coordinate { point [1.576 0.594 0.809,1.634 0.473 0.809,1.624 0.469 0.784,1.637 0.474 0.825,-0.451 0.806 0.841,-0.390 0.826 0.760,-0.535 0.636 0.760,1.638 0.475 0.841,1.552 0.581 0.760,1.559 0.632 0.841,0.917 -1.156 0.797,1.012 -1.091 0.760,1.024 -1.115 0.809,1.036 -1.114 0.841,0.810 -1.199 0.841,0.874 -1.165 0.784,0.788 -1.172 0.760,-0.276 0.973 0.841,-0.211 0.983 0.760,0.795 -1.198 0.809,0.683 -1.217 0.797,0.552 -1.207 0.760,0.572 -1.238 0.841,0.553 -1.234 0.809,-0.073 1.104 0.841,-0.004 1.102 0.760,1.509 -0.653 0.760,1.609 -0.462 0.760,1.624 -0.469 0.784,0.442 -1.231 0.797,0.314 -1.195 0.760,0.330 -1.230 0.841,0.310 -1.222 0.809,0.203 -1.197 0.797,0.083 -1.137 0.760,0.095 -1.175 0.841,0.073 -1.163 0.809,1.537 -0.668 0.841,1.634 -0.473 0.809,1.637 -0.474 0.825,0.152 1.193 0.841,0.222 1.178 0.760,1.638 -0.475 0.841,-0.025 -1.118 0.797,-0.126 -1.075 0.841,-0.147 -1.058 0.809,-0.133 -1.034 0.760,-0.234 -0.995 0.797,-0.324 -0.891 0.760,0.390 1.236 0.841,0.459 1.208 0.760,-0.322 -0.935 0.841,-0.414 -0.835 0.797,-0.342 -0.912 0.809,-0.483 -0.714 0.760,-0.488 -0.759 0.841,-0.559 -0.642 0.797,-0.505 -0.730 0.809,-0.604 -0.508 0.760,0.631 1.232 0.841,0.697 1.191 0.760,-0.617 -0.555 0.841,-0.665 -0.424 0.797,-0.683 -0.283 0.760,-0.704 -0.329 0.841,-0.629 -0.520 0.809,-0.725 -0.190 0.797,-0.715 -0.047 0.760,-0.745 -0.091 0.841,0.868 1.182 0.841,0.927 1.128 0.760,-0.709 -0.289 0.809,-0.739 0.051 0.797,-0.701 0.191 0.760,-0.739 0.150 0.841,-0.743 -0.048 0.809,-0.705 0.290 0.797,-0.640 0.422 0.760,-0.686 0.386 0.841,1.090 1.087 0.841,1.140 1.020 0.760,-0.728 0.196 0.809,1.289 0.950 0.841,1.327 0.873 0.760,1.458 0.778 0.841,1.483 0.692 0.760,1.609 0.462 0.760,1.532 -0.668 0.809,1.403 -0.841 0.841,1.396 -0.842 0.809,1.376 -0.824 0.760,1.242 -0.988 0.841,1.233 -0.989 0.809,1.216 -0.967 0.760,-0.666 0.431 0.809,-0.589 0.608 0.841,-0.559 0.651 0.809,-0.410 0.844 0.809,-0.227 1.005 0.809,-0.015 1.127 0.809]
}}
appearance Appearance{material USE PLASTIC-BLUE-01 }
}
Shape { geometry IndexedFaceSet
{ creaseAngle 0.50 coordIndex [0,1,2,-1,3,4,5,-1,3,5,6,-1,7,8,9,-1,10,7,9,-1,11,10,9,-1,12,11,9,-1,13,12,9,-1,14,2,4,-1,14,3,15,-1,14,0,2,-1,14,4,3,-1,16,17,0,-1,16,15,18,-1,16,0,14,-1,16,14,15,-1,19,8,17,-1,19,18,9,-1,19,17,16,-1,19,16,18,-1,19,9,8,-1]
coord Coordinate { point [1.678 0.234 0.760,1.609 0.462 0.760,1.624 0.469 0.784,1.708 0.243 0.841,1.634 0.473 0.809,1.637 0.474 0.825,1.638 0.475 0.841,1.609 -0.462 0.760,1.677 -0.237 0.760,1.680 -0.358 0.841,1.624 -0.469 0.784,1.634 -0.473 0.809,1.637 -0.474 0.825,1.638 -0.475 0.841,1.704 0.239 0.809,1.732 0.003 0.841,1.728 -0.003 0.809,1.701 -0.003 0.760,1.709 -0.238 0.841,1.704 -0.243 0.809]
}}
appearance Appearance{material USE IC-LABEL-01 }
}
Shape { geometry IndexedFaceSet
{ creaseAngle 0.50 coordIndex [0,1,2,-1,1,3,2,-1,4,5,6,-1,7,0,8,-1,0,2,8,-1,9,4,10,-1,4,6,10,-1,11,7,12,-1,7,8,12,-1,13,9,14,-1,9,10,14,-1,15,11,16,-1,11,12,16,-1,17,13,18,-1,13,14,18,-1,19,15,20,-1,15,16,20,-1,21,17,22,-1,23,19,24,-1,17,18,22,-1,19,20,24,-1,25,21,26,-1,21,22,26,-1,27,23,28,-1,23,24,28,-1,29,25,30,-1,25,26,30,-1,31,27,32,-1,27,28,32,-1,33,29,34,-1,35,31,36,-1,29,30,34,-1,31,32,36,-1,37,33,38,-1,33,34,38,-1,37,38,39,-1,40,37,39,-1,40,39,41,-1,40,41,42,-1,43,40,42,-1,44,43,45,-1,43,42,45,-1,46,44,47,-1,44,45,47,-1,48,46,49,-1,46,47,49,-1,50,48,51,-1,48,49,51,-1,52,50,53,-1,50,51,53,-1,54,52,55,-1,52,53,55,-1,56,54,57,-1,54,55,57,-1,58,56,59,-1,56,57,59,-1,1,58,3,-1,58,59,3,-1]
coord Coordinate { point [0.152 1.193 0.841,-0.073 1.104 0.841,0.080 1.170 2.402,-0.133 1.071 2.402,1.537 -0.668 0.841,1.638 -0.475 0.841,1.638 -0.475 2.402,0.390 1.236 0.841,0.308 1.226 2.402,1.403 -0.841 0.841,1.528 -0.682 2.402,0.631 1.232 0.841,0.542 1.239 2.402,1.242 -0.988 0.841,1.381 -0.865 2.402,0.868 1.182 0.841,0.775 1.207 2.402,1.036 -1.114 0.841,1.202 -1.017 2.402,1.090 1.087 0.841,0.998 1.132 2.402,0.810 -1.199 0.841,0.998 -1.132 2.402,1.289 0.950 0.841,1.202 1.017 2.402,0.572 -1.238 0.841,0.775 -1.207 2.402,1.458 0.778 0.841,1.381 0.865 2.402,0.330 -1.230 0.841,0.542 -1.239 2.402,1.559 0.632 0.841,1.528 0.682 2.402,0.095 -1.175 0.841,0.308 -1.226 2.402,1.638 0.475 0.841,1.638 0.475 2.402,-0.126 -1.075 0.841,0.080 -1.170 2.402,-0.133 -1.071 2.402,-0.322 -0.935 0.841,-0.323 -0.934 2.402,-0.485 -0.764 2.402,-0.488 -0.759 0.841,-0.617 -0.555 0.841,-0.611 -0.566 2.402,-0.704 -0.329 0.841,-0.698 -0.348 2.402,-0.745 -0.091 0.841,-0.742 -0.117 2.402,-0.739 0.150 0.841,-0.742 0.117 2.402,-0.686 0.386 0.841,-0.698 0.348 2.402,-0.589 0.608 0.841,-0.611 0.566 2.402,-0.451 0.806 0.841,-0.485 0.764 2.402,-0.276 0.973 0.841,-0.323 0.934 2.402]
}}
appearance Appearance{material USE PLASTIC-BLUE-01 }
}
Shape { geometry IndexedFaceSet
{ creaseAngle 0.50 coordIndex [0,1,2,-1,1,0,3,-1,1,3,4,-1,1,4,5,-1,1,5,6,-1,1,6,7,-1,7,8,9,-1,1,7,9,-1,9,8,10,-1,9,10,11,-1,9,11,12,-1,9,12,13,-1,9,13,14,-1,15,16,17,-1,1,15,17,-1,14,18,19,-1,18,20,19,-1,1,17,21,-1,20,22,19,-1,2,1,21,-1,22,23,19,-1,23,24,19,-1,24,25,19,-1,25,26,19,-1,9,14,19,-1,21,17,27,-1,28,29,30,-1,29,31,30,-1,32,27,30,-1,33,32,30,-1,34,33,30,-1,35,34,30,-1,36,35,30,-1,37,36,30,-1,31,37,30,-1,27,17,30,-1,19,26,38,-1,28,30,39,-1,40,41,39,-1,42,40,39,-1,43,42,39,-1,44,43,39,-1,45,44,39,-1,46,45,39,-1,47,46,39,-1,41,28,39,-1,48,19,49,-1,38,47,49,-1,19,38,49,-1,47,39,49,-1,50,48,51,-1,48,49,51,-1]
coord Coordinate { point [1.729 0.095 0.920,1.708 0.243 0.841,1.728 0.098 0.944,1.729 0.088 0.900,1.730 0.076 0.883,1.731 0.062 0.868,1.731 0.044 0.857,1.732 0.024 0.849,1.732 0.012 0.847,1.732 0.003 0.841,1.732 0.000 0.846,1.732 0.000 0.846,1.732 -0.000 0.846,1.732 -0.000 0.846,1.732 -0.023 0.849,1.638 0.475 0.841,1.638 0.475 2.402,1.698 0.290 2.402,1.732 -0.043 0.856,1.709 -0.238 0.841,1.731 -0.061 0.867,1.728 0.098 1.536,1.730 -0.076 0.882,1.729 -0.087 0.899,1.729 -0.095 0.917,1.728 -0.097 0.931,1.728 -0.098 0.944,1.729 0.095 1.560,1.732 -0.000 1.634,1.732 0.000 1.634,1.728 0.097 2.402,1.732 0.000 1.634,1.729 0.088 1.581,1.730 0.076 1.598,1.731 0.062 1.612,1.731 0.044 1.624,1.732 0.024 1.631,1.732 0.012 1.633,1.728 -0.098 1.536,1.728 -0.097 2.402,1.732 -0.023 1.631,1.732 -0.000 1.634,1.732 -0.043 1.624,1.731 -0.061 1.613,1.730 -0.076 1.599,1.729 -0.087 1.582,1.729 -0.095 1.563,1.728 -0.097 1.550,1.680 -0.358 0.841,1.698 -0.290 2.402,1.638 -0.475 0.841,1.638 -0.475 2.402]
}}
appearance Appearance{material USE IC-LABEL-01 }
}
Shape { geometry IndexedFaceSet
{ creaseAngle 0.50 coordIndex [0,1,2,-1,3,4,5,-1,6,7,2,-1,8,3,5,-1,9,0,2,-1,10,11,12,-1,11,13,12,-1,1,6,2,-1,14,15,16,-1,17,18,19,-1,20,14,16,-1,21,17,19,-1,13,22,16,-1,22,20,16,-1,7,23,24,-1,9,2,24,-1,25,8,26,-1,27,9,24,-1,28,10,29,-1,2,7,24,-1,18,30,31,-1,32,28,29,-1,19,18,31,-1,4,32,33,-1,30,34,31,-1,34,35,31,-1,5,4,33,-1,23,21,36,-1,37,27,36,-1,13,16,38,-1,12,13,38,-1,24,23,36,-1,27,24,36,-1,16,15,38,-1,8,5,39,-1,40,37,41,-1,21,19,41,-1,37,36,41,-1,26,8,39,-1,42,25,43,-1,36,21,41,-1,19,31,44,-1,45,40,44,-1,46,45,44,-1,25,26,43,-1,41,19,44,-1,31,35,44,-1,40,41,44,-1,29,10,47,-1,35,48,44,-1,48,46,44,-1,10,12,47,-1,32,29,49,-1,33,32,49,-1,39,5,50,-1,5,33,50,-1,26,39,51,-1,43,26,51,-1,12,38,52,-1,47,12,52,-1,38,15,52,-1,15,53,52,-1,42,43,54,-1,29,47,55,-1,49,29,55,-1,33,49,56,-1,50,33,56,-1,39,50,57,-1,51,39,57,-1,43,51,58,-1,54,43,58,-1,47,52,59,-1,55,47,59,-1,52,53,59,-1,60,42,61,-1,42,54,61,-1,49,55,62,-1,56,49,62,-1,50,56,63,-1,57,50,63,-1,51,57,64,-1,58,51,64,-1,54,58,65,-1,61,54,65,-1,55,59,66,-1,53,67,66,-1,62,55,66,-1,59,53,66,-1,60,61,68,-1,56,62,69,-1,63,56,69,-1,64,57,70,-1,57,63,70,-1,65,58,71,-1,58,64,71,-1,61,65,72,-1,68,61,72,-1,66,67,73,-1,62,66,73,-1,69,62,73,-1,74,60,75,-1,60,68,75,-1,63,69,76,-1,70,63,76,-1,64,70,77,-1,71,64,77,-1,65,71,78,-1,72,65,78,-1,68,72,79,-1,75,68,79,-1,69,73,80,-1,67,81,80,-1,73,67,80,-1,76,69,80,-1,74,75,82,-1,70,76,83,-1,77,70,83,-1,78,71,84,-1,71,77,84,-1,79,72,85,-1,72,78,85,-1,75,79,86,-1,82,75,86,-1,83,76,87,-1,76,80,87,-1,80,81,87,-1,88,74,89,-1,74,82,89,-1,77,83,90,-1,84,77,90,-1,85,78,91,-1,78,84,91,-1,79,85,92,-1,86,79,92,-1,82,86,93,-1,89,82,93,-1,94,95,0,-1,90,83,96,-1,87,81,96,-1,81,97,96,-1,83,87,96,-1,88,89,98,-1,84,90,99,-1,91,84,99,-1,92,85,100,-1,85,91,100,-1,93,86,101,-1,86,92,101,-1,89,93,102,-1,98,89,102,-1,90,96,103,-1,99,90,103,-1,96,97,103,-1,104,105,106,-1,105,107,106,-1,91,99,108,-1,100,91,108,-1,88,98,109,-1,110,88,109,-1,106,107,111,-1,107,112,111,-1,92,100,113,-1,101,92,113,-1,112,114,115,-1,111,112,115,-1,93,101,116,-1,102,93,116,-1,117,104,118,-1,99,103,119,-1,97,120,119,-1,103,97,119,-1,108,99,119,-1,104,106,118,-1,114,121,122,-1,110,109,123,-1,115,114,122,-1,98,102,124,-1,109,98,124,-1,106,111,125,-1,118,106,125,-1,113,100,126,-1,100,108,126,-1,121,127,128,-1,122,121,128,-1,101,113,129,-1,116,101,129,-1,125,111,130,-1,111,115,130,-1,127,131,132,-1,123,109,133,-1,131,134,132,-1,109,124,133,-1,134,135,132,-1,128,127,132,-1,136,117,137,-1,102,116,138,-1,124,102,138,-1,119,120,139,-1,117,118,137,-1,108,119,139,-1,115,122,140,-1,126,108,139,-1,113,126,141,-1,129,113,141,-1,130,115,140,-1,142,110,143,-1,118,125,144,-1,110,123,143,-1,137,118,144,-1,133,124,145,-1,122,128,146,-1,140,122,146,-1,124,138,145,-1,116,129,147,-1,144,125,148,-1,125,130,148,-1,138,116,147,-1,141,126,149,-1,128,132,150,-1,126,139,149,-1,132,135,150,-1,135,151,150,-1,120,152,149,-1,146,128,150,-1,139,120,149,-1,153,136,154,-1,142,143,155,-1,136,137,154,-1,143,123,156,-1,130,140,157,-1,123,133,156,-1,145,138,158,-1,138,147,158,-1,148,130,157,-1,154,137,159,-1,147,129,160,-1,129,141,160,-1,137,144,159,-1,143,156,161,-1,157,140,162,-1,140,146,162,-1,155,143,161,-1,159,144,163,-1,133,145,164,-1,156,133,164,-1,144,148,163,-1,146,150,165,-1,150,151,165,-1,147,160,166,-1,151,167,165,-1,162,146,165,-1,158,147,166,-1,168,153,169,-1,160,141,170,-1,149,152,170,-1,141,149,170,-1,171,142,172,-1,153,154,169,-1,142,155,172,-1,163,148,173,-1,161,156,174,-1,148,157,173,-1,156,164,174,-1,145,158,175,-1,164,145,175,-1,154,159,176,-1,169,154,176,-1,173,157,177,-1,157,162,177,-1,160,170,178,-1,170,152,178,-1,166,160,178,-1,176,159,179,-1,152,180,178,-1,171,172,181,-1,159,163,179,-1,177,162,182,-1,155,161,183,-1,167,184,182,-1,162,165,182,-1,165,167,182,-1,172,155,183,-1,185,168,186,-1,174,164,187,-1,164,175,187,-1,168,169,186,-1,175,158,188,-1,158,166,188,-1,179,163,189,-1,181,172,190,-1,163,173,189,-1,172,183,190,-1,186,169,191,-1,169,176,191,-1,161,174,192,-1,183,161,192,-1,189,173,193,-1,175,188,194,-1,173,177,193,-1,187,175,194,-1,191,176,195,-1,166,178,196,-1,188,166,196,-1,178,180,196,-1,176,179,195,-1,182,184,197,-1,198,171,199,-1,193,177,197,-1,184,200,197,-1,171,181,199,-1,177,182,197,-1,201,185,202,-1,185,186,202,-1,190,183,203,-1,183,192,203,-1,174,187,204,-1,195,179,205,-1,192,174,204,-1,188,196,206,-1,179,189,205,-1,180,207,206,-1,202,186,208,-1,194,188,206,-1,196,180,206,-1,198,199,209,-1,186,191,208,-1,189,193,210,-1,205,189,210,-1,181,190,211,-1,199,181,211,-1,191,195,212,-1,208,191,212,-1,203,192,213,-1,192,204,213,-1,193,197,214,-1,197,200,214,-1,204,187,215,-1,210,193,214,-1,187,194,215,-1,200,216,214,-1,217,201,218,-1,209,199,219,-1,201,202,218,-1,199,211,219,-1,195,205,220,-1,211,190,221,-1,212,195,220,-1,190,203,221,-1,204,215,222,-1,213,204,222,-1,223,217,224,-1,217,218,224,-1,215,194,225,-1,218,202,226,-1,206,207,225,-1,202,208,226,-1,194,206,225,-1,227,198,228,-1,205,210,229,-1,198,209,228,-1,220,205,229,-1,219,211,230,-1,211,221,230,-1,221,203,231,-1,218,226,232,-1,224,218,232,-1,203,213,231,-1,208,212,233,-1,225,207,234,-1,207,235,234,-1,226,208,233,-1,222,215,234,-1,215,225,234,-1,229,210,236,-1,228,209,237,-1,216,238,236,-1,210,214,236,-1,214,216,236,-1,209,219,237,-1,221,231,239,-1,223,224,240,-1,230,221,239,-1,232,226,241,-1,226,233,241,-1,231,213,242,-1,212,220,243,-1,213,222,242,-1,219,230,244,-1,237,219,244,-1,233,212,243,-1,245,223,246,-1,223,240,246,-1,231,242,247,-1,239,231,247,-1,242,222,248,-1,222,234,248,-1,224,232,249,-1,234,235,248,-1,240,224,249,-1,250,227,251,-1,241,233,252,-1,233,243,252,-1,227,228,251,-1,220,229,253,-1,243,220,253,-1,230,239,254,-1,244,230,254,-1,242,248,255,-1,247,242,255,-1,246,240,256,-1,248,235,255,-1,240,249,256,-1,235,257,255,-1,232,241,258,-1,251,228,259,-1,249,232,258,-1,228,237,259,-1,252,243,260,-1,239,247,261,-1,254,239,261,-1,243,253,260,-1,238,262,263,-1,253,229,263,-1,237,244,264,-1,229,236,263,-1,259,237,264,-1,236,238,263,-1,245,246,265,-1,247,255,266,-1,261,247,266,-1,256,249,267,-1,255,257,266,-1,268,250,269,-1,249,258,267,-1,250,251,269,-1,258,241,270,-1,241,252,270,-1,244,254,271,-1,264,244,271,-1,260,253,272,-1,253,263,272,-1,263,262,272,-1,273,245,274,-1,245,265,274,-1,269,251,275,-1,251,259,275,-1,265,246,276,-1,254,261,277,-1,271,254,277,-1,246,256,276,-1,258,270,278,-1,267,258,278,-1,259,264,279,-1,252,260,280,-1,275,259,279,-1,270,252,280,-1,257,281,282,-1,265,276,283,-1,261,266,282,-1,274,265,283,-1,266,257,282,-1,277,261,282,-1,284,268,285,-1,268,269,285,-1,256,267,286,-1,264,271,287,-1,276,256,286,-1,270,280,288,-1,278,270,288,-1,279,264,287,-1,280,260,289,-1,272,262,289,-1,269,275,290,-1,262,291,289,-1,285,269,290,-1,260,272,289,-1,273,274,292,-1,271,277,293,-1,287,271,293,-1,276,286,294,-1,283,276,294,-1,275,279,295,-1,290,275,295,-1,267,278,296,-1,286,267,296,-1,281,297,298,-1,282,281,298,-1,288,280,299,-1,280,289,299,-1,277,282,298,-1,289,291,299,-1,293,277,298,-1,300,273,301,-1,302,284,303,-1,273,292,301,-1,284,285,303,-1,274,283,304,-1,292,274,304,-1,295,279,305,-1,279,287,305,-1,294,286,306,-1,286,296,306,-1,303,285,307,-1,278,288,308,-1,296,278,308,-1,285,290,307,-1,305,287,309,-1,301,292,310,-1,287,293,309,-1,290,295,311,-1,292,304,310,-1,307,290,311,-1,283,294,312,-1,304,283,312,-1,309,293,313,-1,293,298,313,-1,296,308,22,-1,297,314,313,-1,306,296,22,-1,298,297,313,-1,288,299,315,-1,291,14,315,-1,316,302,6,-1,308,288,315,-1,299,291,315,-1,302,303,6,-1,295,305,17,-1,300,301,3,-1,311,295,17,-1,310,304,28,-1,304,312,28,-1,303,307,7,-1,294,306,11,-1,312,294,11,-1,6,303,7,-1,315,14,20,-1,22,308,20,-1,308,315,20,-1,17,305,18,-1,305,309,18,-1,301,310,4,-1,307,311,23,-1,3,301,4,-1,7,307,23,-1,25,300,8,-1,300,3,8,-1,313,314,30,-1,18,309,30,-1,28,312,10,-1,314,34,30,-1,312,11,10,-1,309,313,30,-1,316,6,1,-1,306,22,13,-1,95,316,1,-1,11,306,13,-1,0,95,1,-1,23,311,21,-1,4,310,32,-1,310,28,32,-1,311,17,21,-1]
coord Coordinate { point [1.636 0.474 2.419,1.522 0.688 2.419,1.517 0.685 2.436,-0.610 -0.565 2.419,-0.604 -0.562 2.436,-0.646 -0.472 2.436,1.368 0.876 2.419,1.364 0.871 2.436,-0.652 -0.474 2.419,1.631 0.472 2.436,-0.514 -0.673 2.463,-0.462 -0.746 2.463,-0.502 -0.664 2.473,-0.450 -0.736 2.473,-0.329 -0.821 2.480,-0.474 -0.645 2.480,-0.437 -0.726 2.478,1.165 1.007 2.463,1.156 0.994 2.473,1.338 0.845 2.473,-0.342 -0.834 2.478,1.348 0.856 2.463,-0.353 -0.845 2.473,1.357 0.865 2.451,1.509 0.679 2.451,-0.698 -0.348 2.402,-0.696 -0.347 2.419,1.622 0.468 2.451,-0.525 -0.679 2.451,-0.585 -0.552 2.463,1.147 0.980 2.478,1.326 0.834 2.478,-0.596 -0.558 2.451,-0.638 -0.468 2.451,1.137 0.966 2.480,1.313 0.821 2.480,1.499 0.673 2.463,1.610 0.463 2.463,-0.488 -0.655 2.478,-0.691 -0.346 2.436,1.597 0.458 2.473,1.486 0.664 2.473,-0.742 -0.117 2.402,-0.722 -0.242 2.419,1.472 0.655 2.478,1.581 0.451 2.478,1.565 0.444 2.480,-0.572 -0.546 2.473,1.458 0.645 2.480,-0.626 -0.463 2.463,-0.682 -0.343 2.451,-0.717 -0.240 2.436,-0.557 -0.538 2.478,-0.581 -0.444 2.480,-0.740 -0.117 2.419,-0.612 -0.458 2.473,-0.670 -0.340 2.463,-0.707 -0.239 2.451,-0.735 -0.117 2.436,-0.597 -0.451 2.478,-0.742 0.117 2.402,-0.746 0.000 2.419,-0.655 -0.335 2.473,-0.695 -0.236 2.463,-0.725 -0.116 2.451,-0.740 0.000 2.436,-0.639 -0.331 2.478,-0.647 -0.227 2.480,-0.740 0.117 2.419,-0.680 -0.233 2.473,-0.713 -0.115 2.463,-0.731 0.000 2.451,-0.735 0.117 2.436,-0.664 -0.230 2.478,-0.698 0.348 2.402,-0.722 0.242 2.419,-0.698 -0.113 2.473,-0.718 0.000 2.463,-0.725 0.116 2.451,-0.717 0.240 2.436,-0.682 -0.112 2.478,-0.669 0.000 2.480,-0.696 0.347 2.419,-0.703 0.000 2.473,-0.713 0.115 2.463,-0.707 0.239 2.451,-0.691 0.346 2.436,-0.687 0.000 2.478,-0.611 0.566 2.402,-0.652 0.474 2.419,-0.698 0.113 2.473,-0.695 0.236 2.463,-0.682 0.343 2.451,-0.646 0.472 2.436,1.638 0.475 2.402,1.528 0.682 2.402,-0.682 0.112 2.478,-0.647 0.227 2.480,-0.610 0.565 2.419,-0.680 0.233 2.473,-0.670 0.340 2.463,-0.638 0.468 2.451,-0.604 0.562 2.436,-0.664 0.230 2.478,1.528 -0.682 2.402,1.638 -0.475 2.402,1.526 -0.681 2.419,1.636 -0.474 2.419,-0.655 0.335 2.473,-0.537 0.688 2.419,-0.485 0.764 2.402,1.521 -0.678 2.436,1.631 -0.472 2.436,-0.626 0.463 2.463,1.622 -0.468 2.451,1.514 -0.673 2.451,-0.596 0.558 2.451,1.381 -0.865 2.402,1.379 -0.864 2.419,-0.639 0.331 2.478,-0.581 0.444 2.480,1.610 -0.463 2.463,1.503 -0.666 2.463,-0.483 0.763 2.419,-0.533 0.685 2.436,1.375 -0.860 2.436,-0.612 0.458 2.473,1.597 -0.458 2.473,1.491 -0.657 2.473,-0.585 0.552 2.463,1.369 -0.853 2.451,1.581 -0.451 2.478,1.477 -0.648 2.478,-0.479 0.759 2.436,1.565 -0.444 2.480,1.458 -0.645 2.480,1.202 -1.017 2.402,1.201 -1.015 2.419,-0.525 0.679 2.451,-0.597 0.451 2.478,1.360 -0.844 2.463,-0.572 0.546 2.473,-0.323 0.934 2.402,-0.383 0.876 2.419,1.197 -1.011 2.436,-0.471 0.753 2.451,1.349 -0.834 2.473,-0.514 0.673 2.463,1.192 -1.003 2.451,-0.557 0.538 2.478,1.337 -0.822 2.478,1.313 -0.821 2.480,-0.474 0.645 2.480,0.998 -1.132 2.402,0.997 -1.131 2.419,-0.322 0.933 2.419,-0.379 0.871 2.436,1.185 -0.993 2.463,-0.462 0.746 2.463,0.994 -1.125 2.436,-0.502 0.664 2.473,-0.318 0.928 2.436,1.176 -0.980 2.473,0.991 -1.117 2.451,-0.373 0.865 2.451,1.167 -0.967 2.478,-0.450 0.736 2.473,1.137 -0.966 2.480,0.775 -1.207 2.402,0.775 -1.206 2.419,-0.488 0.655 2.478,-0.133 1.071 2.402,-0.196 1.030 2.419,0.985 -1.105 2.463,-0.312 0.921 2.451,-0.364 0.856 2.463,0.773 -1.200 2.436,0.979 -1.092 2.473,-0.437 0.726 2.478,0.771 -1.191 2.451,-0.329 0.821 2.480,-0.132 1.069 2.419,0.973 -1.077 2.478,-0.193 1.025 2.436,0.937 -1.073 2.480,0.542 -1.239 2.402,0.542 -1.237 2.419,-0.304 0.912 2.463,-0.353 0.845 2.473,0.768 -1.179 2.463,-0.129 1.064 2.436,0.542 -1.231 2.436,-0.187 1.017 2.451,0.765 -1.164 2.473,-0.294 0.901 2.473,0.542 -1.222 2.451,-0.342 0.834 2.478,0.761 -1.148 2.478,0.080 1.170 2.402,0.018 1.144 2.419,0.719 -1.139 2.480,0.308 -1.226 2.402,0.308 -1.224 2.419,-0.124 1.056 2.451,-0.180 1.007 2.463,0.541 -1.210 2.463,-0.283 0.888 2.478,-0.153 0.966 2.480,0.309 -1.219 2.436,0.081 1.168 2.419,0.541 -1.195 2.473,0.021 1.139 2.436,0.311 -1.209 2.451,-0.118 1.046 2.463,0.540 -1.178 2.478,-0.172 0.994 2.473,0.492 -1.161 2.480,0.080 -1.170 2.402,0.081 -1.168 2.419,0.083 1.162 2.436,0.312 -1.197 2.463,0.024 1.130 2.451,-0.110 1.033 2.473,-0.133 -1.071 2.402,0.018 -1.144 2.419,-0.163 0.980 2.478,0.083 -1.162 2.436,0.308 1.226 2.402,0.251 1.214 2.419,0.315 -1.182 2.473,0.086 1.154 2.451,0.029 1.118 2.463,0.021 -1.139 2.436,0.086 -1.154 2.451,-0.102 1.018 2.478,0.048 1.073 2.480,0.317 -1.166 2.478,0.252 1.209 2.436,0.266 -1.139 2.480,0.090 1.142 2.463,-0.132 -1.069 2.419,0.024 -1.130 2.451,0.035 1.105 2.473,0.090 -1.142 2.463,0.254 1.199 2.451,-0.323 -0.934 2.402,-0.196 -1.030 2.419,0.095 1.128 2.473,0.041 1.089 2.478,-0.129 -1.064 2.436,0.542 1.239 2.402,0.492 1.238 2.419,0.029 -1.118 2.463,0.095 -1.128 2.473,0.256 1.187 2.463,0.101 1.112 2.478,-0.193 -1.025 2.436,0.266 1.139 2.480,-0.124 -1.056 2.451,0.492 1.232 2.436,0.035 -1.105 2.473,0.259 1.173 2.473,0.048 -1.073 2.480,0.101 -1.112 2.478,0.492 1.223 2.451,-0.322 -0.933 2.419,0.262 1.156 2.478,-0.187 -1.017 2.451,0.775 1.207 2.402,0.734 1.214 2.419,-0.118 -1.046 2.463,0.492 1.211 2.463,0.041 -1.089 2.478,-0.485 -0.764 2.402,-0.383 -0.876 2.419,0.733 1.209 2.436,-0.318 -0.928 2.436,0.492 1.196 2.473,-0.180 -1.007 2.463,0.731 1.199 2.451,-0.110 -1.033 2.473,0.492 1.161 2.480,0.492 1.179 2.478,-0.379 -0.871 2.436,0.998 1.132 2.402,0.966 1.144 2.419,-0.312 -0.921 2.451,0.728 1.187 2.463,-0.172 -0.994 2.473,-0.102 -1.018 2.478,0.964 1.139 2.436,-0.153 -0.966 2.480,-0.483 -0.763 2.419,0.725 1.173 2.473,-0.373 -0.865 2.451,0.960 1.130 2.451,-0.304 -0.912 2.463,0.719 1.139 2.480,0.722 1.156 2.478,-0.163 -0.980 2.478,-0.611 -0.566 2.402,-0.537 -0.688 2.419,1.202 1.017 2.402,1.180 1.030 2.419,-0.479 -0.759 2.436,0.955 1.118 2.463,-0.364 -0.856 2.463,1.177 1.025 2.436,-0.294 -0.901 2.473,0.950 1.105 2.473,-0.533 -0.685 2.436,1.172 1.017 2.451,-0.471 -0.753 2.451,0.943 1.089 2.478,0.937 1.073 2.480,-0.283 -0.888 2.478,1.381 0.865 2.402]
}}
appearance Appearance{material USE PLASTIC-BLUE-01 }
}
Shape { geometry IndexedFaceSet
{ creaseAngle 0.50 coordIndex [0,1,2,-1,3,4,5,-1,4,6,5,-1,6,7,5,-1,8,3,5,-1,9,10,11,-1,10,12,11,-1,13,9,14,-1,15,13,14,-1,1,15,16,-1,2,1,16,-1,17,0,18,-1,19,17,18,-1,0,2,18,-1,12,8,20,-1,11,12,20,-1,9,11,21,-1,14,9,21,-1,15,14,22,-1,16,15,22,-1,23,17,19,-1,24,19,25,-1,2,16,25,-1,19,18,25,-1,18,2,25,-1,7,26,27,-1,5,7,27,-1,8,5,27,-1,20,8,27,-1,21,11,28,-1,11,20,28,-1,22,14,29,-1,14,21,29,-1,30,24,31,-1,25,16,31,-1,24,25,31,-1,16,22,31,-1,28,20,32,-1,27,26,32,-1,33,34,35,-1,20,27,32,-1,34,36,35,-1,29,21,37,-1,21,28,37,-1,30,31,38,-1,31,22,38,-1,36,39,40,-1,41,30,38,-1,35,36,40,-1,22,29,38,-1,32,26,42,-1,37,28,42,-1,39,43,10,-1,26,44,42,-1,28,32,42,-1,40,39,10,-1,41,38,45,-1,46,41,45,-1,29,37,45,-1,47,33,48,-1,38,29,45,-1,33,35,48,-1,49,46,50,-1,51,49,50,-1,46,45,50,-1,44,51,50,-1,43,52,12,-1,37,42,50,-1,42,44,50,-1,45,37,50,-1,10,43,12,-1,48,35,13,-1,35,40,13,-1,0,47,1,-1,47,48,1,-1,52,3,8,-1,12,52,8,-1,13,40,9,-1,40,10,9,-1,1,48,15,-1,48,13,15,-1]
coord Coordinate { point [1.728 -0.097 2.402,1.730 -0.000 2.419,1.726 -0.097 2.419,1.597 0.458 2.473,1.581 0.451 2.478,1.638 0.275 2.478,1.565 0.444 2.480,1.631 0.227 2.480,1.655 0.279 2.473,1.711 0.096 2.451,1.681 0.285 2.451,1.699 0.095 2.463,1.669 0.283 2.463,1.721 0.097 2.436,1.715 -0.000 2.451,1.724 -0.000 2.436,1.721 -0.097 2.436,1.698 -0.290 2.402,1.707 -0.242 2.419,1.636 -0.474 2.419,1.684 0.094 2.473,1.703 -0.000 2.463,1.711 -0.096 2.451,1.638 -0.475 2.402,1.631 -0.472 2.436,1.701 -0.240 2.436,1.654 -0.000 2.480,1.667 0.092 2.478,1.688 -0.000 2.473,1.699 -0.095 2.463,1.622 -0.468 2.451,1.692 -0.239 2.451,1.671 -0.000 2.478,1.698 0.290 2.402,1.638 0.475 2.402,1.696 0.289 2.419,1.636 0.474 2.419,1.684 -0.094 2.473,1.679 -0.236 2.463,1.631 0.472 2.436,1.690 0.288 2.436,1.610 -0.463 2.463,1.667 -0.092 2.478,1.622 0.468 2.451,1.631 -0.227 2.480,1.665 -0.233 2.473,1.597 -0.458 2.473,1.728 0.097 2.402,1.726 0.097 2.419,1.581 -0.451 2.478,1.648 -0.230 2.478,1.565 -0.444 2.480,1.610 0.463 2.463]
}}
appearance Appearance{material USE IC-LABEL-01 }
}
Shape { geometry IndexedFaceSet
{ creaseAngle 0.50 coordIndex [0,1,2,-1,1,3,4,-1,2,1,4,-1,5,6,7,-1,8,5,7,-1,8,7,9,-1,9,7,10,-1,10,7,11,-1,11,7,12,-1,12,7,13,-1,13,7,14,-1,15,16,17,-1,16,14,17,-1,18,15,17,-1,19,18,17,-1,20,19,17,-1,21,20,17,-1,22,21,17,-1,23,22,17,-1,24,23,17,-1,14,7,17,-1,25,26,27,-1,25,27,28,-1,25,28,29,-1,25,29,30,-1,25,30,31,-1,25,31,32,-1,25,32,33,-1,25,33,34,-1,7,25,1,-1,35,36,1,-1,34,35,1,-1,36,37,1,-1,37,38,1,-1,38,39,1,-1,17,7,1,-1,25,34,1,-1,1,39,3,-1]
coord Coordinate { point [1.728 -0.097 1.550,1.728 -0.098 1.536,1.729 -0.095 1.563,1.730 -0.076 1.599,1.729 -0.087 1.582,1.729 0.088 0.900,1.729 0.095 0.920,1.728 0.098 0.944,1.730 0.076 0.883,1.731 0.062 0.868,1.731 0.044 0.857,1.732 0.024 0.849,1.732 0.012 0.847,1.732 0.000 0.846,1.732 0.000 0.846,1.732 -0.000 0.846,1.732 -0.000 0.846,1.728 -0.098 0.944,1.732 -0.023 0.849,1.732 -0.043 0.856,1.731 -0.061 0.867,1.730 -0.076 0.882,1.729 -0.087 0.899,1.729 -0.095 0.917,1.728 -0.097 0.931,1.728 0.098 1.536,1.729 0.095 1.560,1.729 0.088 1.581,1.730 0.076 1.598,1.731 0.062 1.612,1.731 0.044 1.624,1.732 0.024 1.631,1.732 0.012 1.633,1.732 0.000 1.634,1.732 0.000 1.634,1.732 -0.000 1.634,1.732 -0.000 1.634,1.732 -0.023 1.631,1.732 -0.043 1.624,1.731 -0.061 1.613]
}}
appearance Appearance{material USE IC-BODY-EPOXY-04 }
}
Shape { geometry IndexedFaceSet
{ creaseAngle 0.50 coordIndex [0,1,2,-1,0,2,3,-1,3,2,4,-1,5,3,4,-1,6,7,8,-1,5,4,9,-1,10,5,9,-1,11,6,12,-1,13,11,12,-1,6,8,12,-1,7,14,15,-1,8,7,15,-1,16,13,17,-1,10,9,18,-1,13,12,17,-1,19,10,18,-1,14,20,21,-1,15,14,21,-1,22,16,23,-1,16,17,23,-1,20,24,25,-1,21,20,25,-1,26,22,27,-1,22,23,27,-1,28,29,30,-1,29,31,30,-1,24,32,33,-1,25,24,33,-1,19,18,34,-1,31,35,36,-1,37,26,38,-1,30,31,36,-1,26,27,38,-1,32,39,40,-1,41,19,42,-1,19,34,42,-1,33,32,40,-1,35,43,44,-1,40,39,45,-1,36,35,44,-1,46,41,47,-1,41,42,47,-1,37,38,48,-1,43,46,49,-1,44,43,49,-1,46,47,49,-1,50,37,48,-1,40,45,51,-1,50,48,52,-1,53,50,52,-1,51,45,1,-1,51,1,0,-1]
coord Coordinate { point [-0.286 -0.384 2.480,-0.581 -0.444 2.480,-0.474 -0.645 2.480,-0.179 -0.551 2.480,-0.329 -0.821 2.480,-0.036 -0.689 2.480,0.048 1.073 2.480,-0.153 0.966 2.480,0.134 0.791 2.480,-0.153 -0.966 2.480,0.134 -0.791 2.480,0.266 1.139 2.480,0.323 0.851 2.480,0.492 1.161 2.480,-0.329 0.821 2.480,-0.036 0.689 2.480,0.719 1.139 2.480,0.521 0.868 2.480,0.048 -1.073 2.480,0.323 -0.851 2.480,-0.474 0.645 2.480,-0.179 0.551 2.480,0.937 1.073 2.480,0.717 0.839 2.480,-0.581 0.444 2.480,-0.286 0.384 2.480,1.137 0.966 2.480,0.901 0.766 2.480,1.565 -0.444 2.480,1.294 -0.332 2.480,1.458 -0.645 2.480,1.198 -0.506 2.480,-0.647 0.227 2.480,-0.353 0.197 2.480,0.266 -1.139 2.480,1.065 -0.653 2.480,1.313 -0.821 2.480,1.313 0.821 2.480,1.065 0.653 2.480,-0.669 0.000 2.480,-0.376 0.000 2.480,0.521 -0.868 2.480,0.492 -1.161 2.480,0.901 -0.766 2.480,1.137 -0.966 2.480,-0.647 -0.227 2.480,0.717 -0.839 2.480,0.719 -1.139 2.480,1.198 0.506 2.480,0.937 -1.073 2.480,1.458 0.645 2.480,-0.353 -0.197 2.480,1.294 0.332 2.480,1.565 0.444 2.480]
}}
appearance Appearance{material USE PLASTIC-BLUE-01 }
}
Shape { geometry IndexedFaceSet
{ creaseAngle 0.50 coordIndex [0,1,2,-1,2,1,3,-1,1,4,5,-1,3,1,5,-1,4,6,7,-1,5,4,7,-1,6,8,9,-1,7,6,9,-1]
coord Coordinate { point [1.294 0.332 2.480,1.344 0.169 2.480,1.565 0.444 2.480,1.631 0.227 2.480,1.360 -0.000 2.480,1.654 -0.000 2.480,1.344 -0.169 2.480,1.631 -0.227 2.480,1.294 -0.332 2.480,1.565 -0.444 2.480]
}}
appearance Appearance{material USE IC-LABEL-01 }
}
Shape { geometry IndexedFaceSet
{ creaseAngle 0.50 coordIndex [0,1,2,-1,3,4,5,-1,4,0,5,-1,0,2,6,-1,7,8,9,-1,0,6,10,-1,9,8,11,-1,12,3,13,-1,3,5,13,-1,9,11,14,-1,12,13,15,-1,14,11,16,-1,14,16,17,-1,18,12,19,-1,12,15,19,-1,17,16,20,-1,17,20,21,-1,22,18,23,-1,21,20,24,-1,18,19,23,-1,21,24,25,-1,22,23,26,-1,25,24,27,-1,25,27,28,-1,29,22,30,-1,25,28,31,-1,22,26,30,-1,32,29,33,-1,29,30,33,-1,32,33,34,-1,27,35,36,-1,28,27,37,-1,38,32,39,-1,27,36,37,-1,31,28,40,-1,32,34,39,-1,38,39,41,-1,28,37,42,-1,31,40,43,-1,44,31,43,-1,44,43,45,-1,39,46,47,-1,41,39,47,-1,44,45,48,-1,41,47,49,-1,48,45,50,-1,41,49,51,-1,52,38,53,-1,54,48,55,-1,38,41,53,-1,48,50,55,-1,54,55,56,-1,52,53,57,-1,58,52,57,-1,54,56,59,-1,59,56,60,-1,58,57,61,-1,62,58,61,-1,63,59,64,-1,59,60,64,-1,63,64,65,-1,62,61,66,-1,67,62,66,-1,63,65,4,-1,4,65,68,-1,67,66,69,-1,70,67,69,-1,4,68,0,-1,68,71,72,-1,68,72,73,-1,0,68,1,-1,68,73,1,-1]
coord Coordinate { point [-0.376 0.020 2.441,-0.376 0.000 2.402,-0.376 0.007 2.402,-0.353 0.197 2.480,-0.376 0.000 2.480,-0.363 0.151 2.441,-0.376 0.013 2.402,1.294 -0.332 2.480,1.294 -0.332 2.441,1.198 -0.506 2.480,-0.376 0.020 2.402,1.197 -0.507 2.441,-0.286 0.384 2.480,-0.330 0.279 2.441,1.065 -0.653 2.480,-0.278 0.401 2.441,1.062 -0.655 2.441,0.901 -0.766 2.480,-0.179 0.551 2.480,-0.208 0.513 2.441,0.897 -0.768 2.441,0.717 -0.839 2.480,-0.036 0.689 2.480,-0.122 0.614 2.441,0.710 -0.840 2.441,0.521 -0.868 2.480,-0.021 0.700 2.441,0.512 -0.868 2.441,0.472 -0.868 2.441,0.134 0.791 2.480,0.091 0.770 2.441,0.323 -0.851 2.480,0.323 0.851 2.480,0.213 0.822 2.441,0.341 0.855 2.441,0.512 -0.868 2.402,0.499 -0.868 2.402,0.486 -0.868 2.402,0.521 0.868 2.480,0.472 0.868 2.441,0.341 -0.855 2.441,0.512 0.868 2.441,0.472 -0.868 2.402,0.213 -0.822 2.441,0.134 -0.791 2.480,0.091 -0.770 2.441,0.472 0.868 2.402,0.486 0.868 2.402,-0.036 -0.689 2.480,0.499 0.868 2.402,-0.021 -0.700 2.441,0.512 0.868 2.402,0.717 0.839 2.480,0.710 0.840 2.441,-0.179 -0.551 2.480,-0.122 -0.614 2.441,-0.208 -0.513 2.441,0.897 0.768 2.441,0.901 0.766 2.480,-0.286 -0.384 2.480,-0.278 -0.401 2.441,1.062 0.655 2.441,1.065 0.653 2.480,-0.353 -0.197 2.480,-0.330 -0.279 2.441,-0.363 -0.151 2.441,1.197 0.507 2.441,1.198 0.506 2.480,-0.376 -0.020 2.441,1.294 0.332 2.441,1.294 0.332 2.480,-0.376 -0.020 2.402,-0.376 -0.013 2.402,-0.376 -0.007 2.402]
}}
appearance Appearance{material USE PLASTIC-BLUE-01 }
}
Shape { geometry IndexedFaceSet
{ creaseAngle 0.50 coordIndex [0,1,2,-1,3,0,2,-1,4,3,5,-1,3,2,5,-1,4,5,6,-1,4,6,7,-1,8,4,9,-1,4,7,9,-1,6,10,11,-1,7,6,11,-1,7,11,12,-1,7,12,13,-1,14,8,15,-1,8,9,15,-1,14,15,16,-1]
coord Coordinate { point [1.294 0.332 2.480,1.294 0.332 2.441,1.329 0.231 2.441,1.344 0.169 2.480,1.360 -0.000 2.480,1.351 0.126 2.441,1.360 0.020 2.441,1.360 -0.020 2.441,1.344 -0.169 2.480,1.351 -0.126 2.441,1.360 0.020 2.402,1.360 0.007 2.402,1.360 -0.007 2.402,1.360 -0.020 2.402,1.294 -0.332 2.480,1.329 -0.231 2.441,1.294 -0.332 2.441]
}}
appearance Appearance{material USE IC-LABEL-01 }
}
Shape { geometry IndexedFaceSet
{ creaseAngle 0.50 coordIndex [0,1,2,-1,3,2,4,-1,5,0,2,-1,6,5,2,-1,7,2,3,-1,8,6,2,-1,9,2,7,-1,9,8,2,-1]
coord Coordinate { point [1.351 -0.126 2.441,1.360 -0.020 2.441,0.512 -0.020 2.441,0.710 -0.840 2.441,0.512 -0.868 2.441,1.329 -0.231 2.441,1.294 -0.332 2.441,0.897 -0.768 2.441,1.197 -0.507 2.441,1.062 -0.655 2.441]
}}
appearance Appearance{material USE PIN-01 }
}
Shape { geometry IndexedFaceSet
{ creaseAngle 0.50 coordIndex [0,1,2,-1,3,0,2,-1]
coord Coordinate { point [0.512 -0.868 2.402,0.512 -0.868 2.441,0.512 -0.020 2.441,0.512 -0.020 2.402]
}}
appearance Appearance{material USE PIN-01 }
}
Shape { geometry IndexedFaceSet
{ creaseAngle 0.50 coordIndex [0,1,2,-1,0,2,3,-1,0,3,4,-1,5,1,0,-1,6,5,0,-1,7,6,0,-1,8,7,0,-1,9,8,0,-1]
coord Coordinate { point [0.512 0.020 2.441,1.062 0.655 2.441,0.897 0.768 2.441,0.710 0.840 2.441,0.512 0.868 2.441,1.197 0.507 2.441,1.294 0.332 2.441,1.329 0.231 2.441,1.351 0.126 2.441,1.360 0.020 2.441]
}}
appearance Appearance{material USE PIN-01 }
}
Shape { geometry IndexedFaceSet
{ creaseAngle 0.50 coordIndex [0,1,2,-1,0,3,1,-1,0,4,3,-1,0,5,6,-1,0,7,5,-1,8,9,7,-1,8,7,0,-1,10,11,12,-1,10,13,11,-1,10,2,13,-1,10,0,2,-1,14,8,0,-1,14,0,10,-1,15,16,8,-1,15,8,14,-1,17,10,18,-1,19,15,14,-1,20,14,10,-1,20,10,17,-1,21,19,14,-1,22,14,20,-1]
coord Coordinate { point [0.472 0.020 2.402,-0.376 0.007 2.402,-0.376 0.000 2.402,-0.376 0.013 2.402,-0.376 0.020 2.402,0.486 0.868 2.402,0.472 0.868 2.402,0.499 0.868 2.402,0.512 0.020 2.402,0.512 0.868 2.402,0.472 -0.020 2.402,-0.376 -0.013 2.402,-0.376 -0.020 2.402,-0.376 -0.007 2.402,0.512 -0.020 2.402,1.360 0.007 2.402,1.360 0.020 2.402,0.486 -0.868 2.402,0.472 -0.868 2.402,1.360 -0.007 2.402,0.499 -0.868 2.402,1.360 -0.020 2.402,0.512 -0.868 2.402]
}}
appearance Appearance{material USE PIN-01 }
}
Shape { geometry IndexedFaceSet
{ creaseAngle 0.50 coordIndex [0,1,2,-1,2,1,3,-1]
coord Coordinate { point [0.512 0.020 2.402,0.512 0.020 2.441,0.512 0.868 2.402,0.512 0.868 2.441]
}}
appearance Appearance{material USE PIN-01 }
}
Shape { geometry IndexedFaceSet
{ creaseAngle 0.50 coordIndex [0,1,2,-1,2,1,3,-1]
coord Coordinate { point [0.472 -0.020 2.402,0.472 -0.020 2.441,0.472 -0.868 2.402,0.472 -0.868 2.441]
}}
appearance Appearance{material USE PIN-01 }
}
Shape { geometry IndexedFaceSet
{ creaseAngle 0.50 coordIndex [0,1,2,-1,0,2,3,-1,0,3,4,-1,0,4,5,-1,6,0,5,-1,7,0,6,-1,8,0,7,-1,9,0,8,-1,10,0,9,-1,11,0,10,-1]
coord Coordinate { point [0.472 -0.020 2.441,-0.376 -0.020 2.441,-0.363 -0.151 2.441,-0.330 -0.279 2.441,-0.278 -0.401 2.441,-0.208 -0.513 2.441,-0.122 -0.614 2.441,-0.021 -0.700 2.441,0.091 -0.770 2.441,0.213 -0.822 2.441,0.341 -0.855 2.441,0.472 -0.868 2.441]
}}
appearance Appearance{material USE PIN-01 }
}
Shape { geometry IndexedFaceSet
{ creaseAngle 0.50 coordIndex [0,1,2,-1,3,0,2,-1]
coord Coordinate { point [0.472 0.868 2.402,0.472 0.868 2.441,0.472 0.020 2.441,0.472 0.020 2.402]
}}
appearance Appearance{material USE PIN-01 }
}
Shape { geometry IndexedFaceSet
{ creaseAngle 0.50 coordIndex [0,1,2,-1,2,1,3,-1]
coord Coordinate { point [-0.376 -0.020 2.402,-0.376 -0.020 2.441,0.472 -0.020 2.402,0.472 -0.020 2.441]
}}
appearance Appearance{material USE PIN-01 }
}
Shape { geometry IndexedFaceSet
{ creaseAngle 0.50 coordIndex [0,1,2,-1,0,2,3,-1,0,3,4,-1,0,4,5,-1,0,5,6,-1,0,6,7,-1,0,7,8,-1,0,8,9,-1,0,9,10,-1,0,10,11,-1]
coord Coordinate { point [0.472 0.020 2.441,0.472 0.868 2.441,0.341 0.855 2.441,0.213 0.822 2.441,0.091 0.770 2.441,-0.021 0.700 2.441,-0.122 0.614 2.441,-0.208 0.513 2.441,-0.278 0.401 2.441,-0.330 0.279 2.441,-0.363 0.151 2.441,-0.376 0.020 2.441]
}}
appearance Appearance{material USE PIN-01 }
}
Shape { geometry IndexedFaceSet
{ creaseAngle 0.50 coordIndex [0,1,2,-1,3,0,2,-1]
coord Coordinate { point [0.472 0.020 2.402,0.472 0.020 2.441,-0.376 0.020 2.441,-0.376 0.020 2.402]
}}
appearance Appearance{material USE PIN-01 }
}
Shape { geometry IndexedFaceSet
{ creaseAngle 0.50 coordIndex [0,1,2,-1,2,1,3,-1]
coord Coordinate { point [1.360 0.020 2.402,1.360 0.020 2.441,0.512 0.020 2.402,0.512 0.020 2.441]
}}
appearance Appearance{material USE PIN-01 }
}
Shape { geometry IndexedFaceSet
{ creaseAngle 0.50 coordIndex [0,1,2,-1,3,0,2,-1]
coord Coordinate { point [0.512 -0.020 2.402,0.512 -0.020 2.441,1.360 -0.020 2.441,1.360 -0.020 2.402]
}}
appearance Appearance{material USE PIN-01 }
}
Shape { geometry IndexedFaceSet
{ creaseAngle 0.50 coordIndex [0,1,2,-1,2,1,3,-1,3,1,4,-1,4,1,5,-1]
coord Coordinate { point [1.294 0.332 2.323,0.492 0.000 2.323,1.344 0.169 2.323,1.360 -0.000 2.323,1.344 -0.169 2.323,1.294 -0.332 2.323]
}}
appearance Appearance{material USE IC-LABEL-01 }
}
Shape { geometry IndexedFaceSet
{ creaseAngle 0.50 coordIndex [0,1,2,-1,3,0,4,-1,0,2,4,-1,3,4,5,-1,6,3,7,-1,3,5,7,-1,8,6,9,-1,6,7,9,-1]
coord Coordinate { point [1.344 0.169 2.362,1.294 0.332 2.362,1.294 0.332 2.323,1.360 -0.000 2.362,1.344 0.169 2.323,1.360 -0.000 2.323,1.344 -0.169 2.362,1.344 -0.169 2.323,1.294 -0.332 2.362,1.294 -0.332 2.323]
}}
appearance Appearance{material USE IC-LABEL-01 }
}
Shape { geometry IndexedFaceSet
{ creaseAngle 0.50 coordIndex [0,1,2,-1,3,0,2,-1,4,3,2,-1,5,4,2,-1,6,5,2,-1,7,6,2,-1,8,7,2,-1,9,8,2,-1,10,9,2,-1,11,10,2,-1,12,11,2,-1,13,12,2,-1,14,13,2,-1,2,1,15,-1,2,15,16,-1,2,16,17,-1,2,17,18,-1,2,18,19,-1,20,2,21,-1,2,19,22,-1,21,2,23,-1,2,22,24,-1,23,2,25,-1,2,24,25,-1]
coord Coordinate { point [-0.376 0.000 2.323,-0.353 -0.197 2.323,0.492 0.000 2.323,-0.353 0.197 2.323,-0.286 0.384 2.323,-0.179 0.551 2.323,-0.036 0.689 2.323,0.134 0.791 2.323,0.323 0.851 2.323,0.521 0.868 2.323,0.717 0.839 2.323,0.901 0.766 2.323,1.065 0.653 2.323,1.198 0.506 2.323,1.294 0.332 2.323,-0.286 -0.384 2.323,-0.179 -0.551 2.323,-0.036 -0.689 2.323,0.134 -0.791 2.323,0.323 -0.851 2.323,1.294 -0.332 2.323,1.198 -0.506 2.323,0.521 -0.868 2.323,1.065 -0.653 2.323,0.717 -0.839 2.323,0.901 -0.766 2.323]
}}
appearance Appearance{material USE PLASTIC-BLUE-01 }
}
Shape { geometry IndexedFaceSet
{ creaseAngle 0.50 coordIndex [0,1,2,-1,3,0,2,-1,3,2,4,-1,5,3,4,-1,6,5,7,-1,8,9,10,-1,5,4,7,-1,11,8,10,-1,12,6,13,-1,6,7,13,-1,14,11,15,-1,11,10,15,-1,12,13,16,-1,17,14,18,-1,14,15,18,-1,19,17,20,-1,17,18,20,-1,21,19,22,-1,19,20,22,-1,23,21,24,-1,21,22,24,-1,25,23,26,-1,23,24,26,-1,27,25,28,-1,25,26,28,-1,29,27,30,-1,27,28,30,-1,31,29,32,-1,29,30,32,-1,33,31,34,-1,31,32,34,-1,35,33,36,-1,33,34,36,-1,35,36,37,-1,38,39,37,-1,39,35,37,-1,38,37,40,-1,41,38,40,-1,41,40,42,-1,43,41,42,-1,43,42,44,-1,45,43,44,-1,45,44,46,-1,47,45,46,-1,47,46,48,-1,49,47,48,-1,49,48,1,-1,0,49,1,-1]
coord Coordinate { point [0.717 0.839 2.362,0.521 0.868 2.323,0.717 0.839 2.323,0.901 0.766 2.362,0.901 0.766 2.323,1.065 0.653 2.362,1.198 0.506 2.362,1.065 0.653 2.323,1.294 -0.332 2.362,1.294 -0.332 2.323,1.198 -0.506 2.323,1.198 -0.506 2.362,1.294 0.332 2.362,1.198 0.506 2.323,1.065 -0.653 2.362,1.065 -0.653 2.323,1.294 0.332 2.323,0.901 -0.766 2.362,0.901 -0.766 2.323,0.717 -0.839 2.362,0.717 -0.839 2.323,0.521 -0.868 2.362,0.521 -0.868 2.323,0.323 -0.851 2.362,0.323 -0.851 2.323,0.134 -0.791 2.362,0.134 -0.791 2.323,-0.036 -0.689 2.362,-0.036 -0.689 2.323,-0.179 -0.551 2.362,-0.179 -0.551 2.323,-0.286 -0.384 2.362,-0.286 -0.384 2.323,-0.353 -0.197 2.362,-0.353 -0.197 2.323,-0.376 0.000 2.362,-0.376 0.000 2.323,-0.353 0.197 2.323,-0.286 0.384 2.362,-0.353 0.197 2.362,-0.286 0.384 2.323,-0.179 0.551 2.362,-0.179 0.551 2.323,-0.036 0.689 2.362,-0.036 0.689 2.323,0.134 0.791 2.362,0.134 0.791 2.323,0.323 0.851 2.362,0.323 0.851 2.323,0.521 0.868 2.362]
}}
appearance Appearance{material USE PLASTIC-BLUE-01 }
}
Shape { geometry IndexedFaceSet
{ creaseAngle 0.50 coordIndex [0,1,2,-1,3,4,5,-1,6,7,8,-1,2,6,8,-1,9,0,8,-1,0,2,8,-1,10,5,11,-1,12,13,14,-1,15,12,14,-1,8,15,14,-1,16,11,17,-1,18,16,17,-1,11,5,17,-1,14,19,20,-1,21,17,22,-1,4,9,23,-1,24,25,23,-1,20,24,23,-1,9,8,23,-1,5,4,23,-1,14,20,23,-1,8,14,23,-1,26,22,27,-1,17,5,27,-1,22,17,27,-1,5,23,27,-1]
coord Coordinate { point [-0.179 0.551 2.362,-0.036 0.689 2.362,0.134 0.791 2.362,-0.376 0.000 2.362,-0.353 0.197 2.362,-0.353 -0.197 2.362,0.323 0.851 2.362,0.521 0.868 2.362,0.717 0.839 2.362,-0.286 0.384 2.362,-0.286 -0.384 2.362,-0.179 -0.551 2.362,1.065 0.653 2.362,1.198 0.506 2.362,1.294 0.332 2.362,0.901 0.766 2.362,-0.036 -0.689 2.362,0.323 -0.851 2.362,0.134 -0.791 2.362,1.344 0.169 2.362,1.360 -0.000 2.362,0.521 -0.868 2.362,0.717 -0.839 2.362,1.198 -0.506 2.362,1.344 -0.169 2.362,1.294 -0.332 2.362,0.901 -0.766 2.362,1.065 -0.653 2.362]
}}
appearance Appearance{material USE PIN-01 }
}
