#VRML V2.0 utf8
#kicad StepUp wrl exported

# Copyright (C) 2017, your name
#
# This program is free software: you can redistribute it and/or modify
# it under the terms of the GNU General Public License as published by
# the Free Software Foundation, either version 3 of the License, or
# any later version.
#
# This program is distributed in the hope that it will be useful,
# but WITHOUT ANY WARRANTY; without even the implied warranty of
# MERCHANTABILITY or FITNESS FOR A PARTICULAR PURPOSE.  See the
# GNU General Public License for more details.
#
# You should have received a copy of the GNU General Public License
# along with this program.  If not, see http://www.gnu.org/licenses/.
#
# As a special exception, if you create a design which uses this symbol,
# and embed this symbol or unaltered portions of this symbol into the design,
# this symbol does not by itself cause the resulting design to be covered by
# the GNU General Public License.
# This exception does not however invalidate any other reasons why the design
# itself might be covered by the GNU General Public License.
# If you modify this symbol, you may extend this exception to your version of the symbol,
# but you are not obligated to do so.
# If you do not wish to do so, delete this exception statement from your version
# Risk disclaimer
# *USE 3D CAD DATA AT YOUR OWN RISK*
# *DO NOT RELY UPON ANY INFORMATION FOUND HERE WITHOUT INDEPENDENT VERIFICATION.*
#
Shape {
	appearance Appearance {material DEF PIN-01 Material {
		ambientIntensity 0.271
		diffuseColor 0.824 0.82 0.781
		specularColor 0.328 0.258 0.172
		emissiveColor 0.0 0.0 0.0
		transparency 0.0
		shininess 0.7
		}
	}
}
Shape {
	appearance Appearance {material DEF IC-BODY-EPOXY-04 Material {
		ambientIntensity 0.293
		diffuseColor 0.148 0.145 0.145
		specularColor 0.18 0.168 0.16
		emissiveColor 0.0 0.0 0.0
		transparency 0.0
		shininess 0.35
		}
	}
}
Shape { geometry IndexedFaceSet
{ creaseAngle 0.50 coordIndex [0,1,2,-1,0,3,1,-1]
coord Coordinate { point [2.623 0.197 0.150,0.377 -3.197 0.150,0.377 0.197 0.150,2.623 -3.197 0.150]
}}
appearance Appearance{material USE IC-BODY-EPOXY-04 }
}
Shape { geometry IndexedFaceSet
{ creaseAngle 0.50 coordIndex [0,1,2,-1,3,0,2,-1,4,3,2,-1,5,4,2,-1,6,5,2,-1,7,8,6,-1,7,6,2,-1,9,8,7,-1,10,9,7,-1,11,10,7,-1]
coord Coordinate { point [2.750 -3.090 0.749,2.750 -3.325 0.749,2.623 -3.197 0.150,2.750 -2.700 0.749,2.750 -2.300 0.749,2.750 -1.700 0.749,2.750 -1.300 0.749,2.623 0.197 0.150,2.750 -0.700 0.749,2.750 -0.300 0.749,2.750 0.090 0.749,2.750 0.325 0.749]
}}
appearance Appearance{material USE IC-BODY-EPOXY-04 }
}
Shape { geometry IndexedFaceSet
{ creaseAngle 0.50 coordIndex [0,1,2,-1,3,4,1,-1,3,1,0,-1,5,4,3,-1,6,2,1,-1,7,2,6,-1,7,0,2,-1,8,3,0,-1,8,0,7,-1,9,4,5,-1,9,5,3,-1,9,3,8,-1,10,1,11,-1,10,6,1,-1,10,7,6,-1,12,8,7,-1,12,7,10,-1,13,9,8,-1,13,8,12,-1,14,15,4,-1,14,4,9,-1,14,9,13,-1,16,10,11,-1,17,11,15,-1,17,16,11,-1,17,12,10,-1,17,10,16,-1,18,13,12,-1,18,17,15,-1,18,12,17,-1,19,15,14,-1,19,14,13,-1,19,18,15,-1,19,13,18,-1]
coord Coordinate { point [2.204 0.248 0.389,2.623 0.197 0.150,2.189 0.223 0.270,2.219 0.274 0.509,2.750 0.325 0.749,2.235 0.299 0.629,1.730 0.223 0.270,1.735 0.248 0.389,1.740 0.274 0.509,1.745 0.299 0.629,1.270 0.223 0.270,0.377 0.197 0.150,1.265 0.248 0.389,1.260 0.274 0.509,1.255 0.299 0.629,0.250 0.325 0.749,0.811 0.223 0.270,0.796 0.248 0.389,0.781 0.274 0.509,0.765 0.299 0.629]
}}
appearance Appearance{material USE IC-BODY-EPOXY-04 }
}
Shape { geometry IndexedFaceSet
{ creaseAngle 0.50 coordIndex [0,1,2,-1,3,0,2,-1,4,3,2,-1,5,4,2,-1,6,5,2,-1,7,8,6,-1,7,6,2,-1,9,8,7,-1,10,9,7,-1,11,10,7,-1]
coord Coordinate { point [0.250 0.090 0.749,0.250 0.325 0.749,0.377 0.197 0.150,0.250 -0.300 0.749,0.250 -0.700 0.749,0.250 -1.300 0.749,0.250 -1.700 0.749,0.377 -3.197 0.150,0.250 -2.300 0.749,0.250 -2.700 0.749,0.250 -3.090 0.749,0.250 -3.325 0.749]
}}
appearance Appearance{material USE IC-BODY-EPOXY-04 }
}
Shape { geometry IndexedFaceSet
{ creaseAngle 0.50 coordIndex [0,1,2,-1,0,2,3,-1,4,1,0,-1,5,1,4,-1,6,3,2,-1,6,0,3,-1,7,4,0,-1,7,0,6,-1,8,5,4,-1,8,4,7,-1,9,1,5,-1,9,5,8,-1,10,2,11,-1,10,6,2,-1,12,7,6,-1,12,6,10,-1,13,8,7,-1,13,7,12,-1,14,15,1,-1,14,1,9,-1,14,9,8,-1,14,8,13,-1,16,10,11,-1,17,11,15,-1,17,10,16,-1,17,12,10,-1,17,16,11,-1,18,13,12,-1,18,17,15,-1,18,12,17,-1,19,15,14,-1,19,14,13,-1,19,18,15,-1,19,13,18,-1]
coord Coordinate { point [0.796 -3.248 0.389,0.250 -3.325 0.749,0.377 -3.197 0.150,0.811 -3.223 0.270,0.781 -3.274 0.509,0.765 -3.299 0.629,1.270 -3.223 0.270,1.265 -3.248 0.389,1.260 -3.274 0.509,1.255 -3.299 0.629,1.730 -3.223 0.270,2.623 -3.197 0.150,1.735 -3.248 0.389,1.740 -3.274 0.509,1.745 -3.299 0.629,2.750 -3.325 0.749,2.189 -3.223 0.270,2.204 -3.248 0.389,2.219 -3.274 0.509,2.235 -3.299 0.629]
}}
appearance Appearance{material USE IC-BODY-EPOXY-04 }
}
Shape { geometry IndexedFaceSet
{ creaseAngle 0.50 coordIndex [0,1,2,-1,0,2,3,-1]
coord Coordinate { point [2.750 -3.090 0.849,2.750 -3.325 0.849,2.750 -3.325 0.749,2.750 -3.090 0.749]
}}
appearance Appearance{material USE IC-BODY-EPOXY-04 }
}
Shape { geometry IndexedFaceSet
{ creaseAngle 0.50 coordIndex [0,1,2,-1,3,1,0,-1]
coord Coordinate { point [2.750 0.325 0.749,2.750 0.090 0.849,2.750 0.090 0.749,2.750 0.325 0.849]
}}
appearance Appearance{material USE IC-BODY-EPOXY-04 }
}
Shape { geometry IndexedFaceSet
{ creaseAngle 0.50 coordIndex [0,1,2,-1,2,1,3,-1]
coord Coordinate { point [2.900 -3.090 0.749,2.750 -3.090 0.749,2.900 -2.700 0.749,2.750 -2.700 0.749]
}}
appearance Appearance{material USE PIN-01 }
}
Shape { geometry IndexedFaceSet
{ creaseAngle 0.50 coordIndex [0,1,2,-1,1,3,2,-1]
coord Coordinate { point [2.900 0.090 0.749,2.900 -0.300 0.749,2.750 0.090 0.749,2.750 -0.300 0.749]
}}
appearance Appearance{material USE PIN-01 }
}
Shape { geometry IndexedFaceSet
{ creaseAngle 0.50 coordIndex [0,1,2,-1,0,2,3,-1]
coord Coordinate { point [2.750 -2.300 0.849,2.750 -2.700 0.849,2.750 -2.700 0.749,2.750 -2.300 0.749]
}}
appearance Appearance{material USE IC-BODY-EPOXY-04 }
}
Shape { geometry IndexedFaceSet
{ creaseAngle 0.50 coordIndex [0,1,2,-1,0,2,3,-1]
coord Coordinate { point [2.750 -0.300 0.849,2.750 -0.700 0.849,2.750 -0.700 0.749,2.750 -0.300 0.749]
}}
appearance Appearance{material USE IC-BODY-EPOXY-04 }
}
Shape { geometry IndexedFaceSet
{ creaseAngle 0.50 coordIndex [0,1,2,-1,2,1,3,-1]
coord Coordinate { point [2.900 -2.300 0.749,2.750 -2.300 0.749,2.900 -1.700 0.749,2.750 -1.700 0.749]
}}
appearance Appearance{material USE PIN-01 }
}
Shape { geometry IndexedFaceSet
{ creaseAngle 0.50 coordIndex [0,1,2,-1,2,1,3,-1]
coord Coordinate { point [2.900 -1.300 0.749,2.750 -1.300 0.749,2.900 -0.700 0.749,2.750 -0.700 0.749]
}}
appearance Appearance{material USE PIN-01 }
}
Shape { geometry IndexedFaceSet
{ creaseAngle 0.50 coordIndex [0,1,2,-1,3,1,0,-1]
coord Coordinate { point [2.750 -1.300 0.749,2.750 -1.700 0.849,2.750 -1.700 0.749,2.750 -1.300 0.849]
}}
appearance Appearance{material USE IC-BODY-EPOXY-04 }
}
Shape { geometry IndexedFaceSet
{ creaseAngle 0.50 coordIndex [0,1,2,-1,0,3,1,-1]
coord Coordinate { point [0.250 0.325 0.849,2.750 0.325 0.749,0.250 0.325 0.749,2.750 0.325 0.849]
}}
appearance Appearance{material USE IC-BODY-EPOXY-04 }
}
Shape { geometry IndexedFaceSet
{ creaseAngle 0.50 coordIndex [0,1,2,-1,0,2,3,-1]
coord Coordinate { point [0.250 0.090 0.849,0.250 0.325 0.849,0.250 0.325 0.749,0.250 0.090 0.749]
}}
appearance Appearance{material USE IC-BODY-EPOXY-04 }
}
Shape { geometry IndexedFaceSet
{ creaseAngle 0.50 coordIndex [0,1,2,-1,3,1,0,-1]
coord Coordinate { point [0.250 -3.325 0.749,0.250 -3.090 0.849,0.250 -3.090 0.749,0.250 -3.325 0.849]
}}
appearance Appearance{material USE IC-BODY-EPOXY-04 }
}
Shape { geometry IndexedFaceSet
{ creaseAngle 0.50 coordIndex [0,1,2,-1,1,3,2,-1]
coord Coordinate { point [0.250 0.090 0.749,0.250 -0.300 0.749,0.100 0.090 0.749,0.100 -0.300 0.749]
}}
appearance Appearance{material USE PIN-01 }
}
Shape { geometry IndexedFaceSet
{ creaseAngle 0.50 coordIndex [0,1,2,-1,2,1,3,-1]
coord Coordinate { point [0.250 -3.090 0.749,0.100 -3.090 0.749,0.250 -2.700 0.749,0.100 -2.700 0.749]
}}
appearance Appearance{material USE PIN-01 }
}
Shape { geometry IndexedFaceSet
{ creaseAngle 0.50 coordIndex [0,1,2,-1,3,1,0,-1]
coord Coordinate { point [0.250 -0.700 0.749,0.250 -0.300 0.849,0.250 -0.300 0.749,0.250 -0.700 0.849]
}}
appearance Appearance{material USE IC-BODY-EPOXY-04 }
}
Shape { geometry IndexedFaceSet
{ creaseAngle 0.50 coordIndex [0,1,2,-1,3,1,0,-1]
coord Coordinate { point [0.250 -2.700 0.749,0.250 -2.300 0.849,0.250 -2.300 0.749,0.250 -2.700 0.849]
}}
appearance Appearance{material USE IC-BODY-EPOXY-04 }
}
Shape { geometry IndexedFaceSet
{ creaseAngle 0.50 coordIndex [0,1,2,-1,2,1,3,-1]
coord Coordinate { point [0.250 -1.300 0.749,0.100 -1.300 0.749,0.250 -0.700 0.749,0.100 -0.700 0.749]
}}
appearance Appearance{material USE PIN-01 }
}
Shape { geometry IndexedFaceSet
{ creaseAngle 0.50 coordIndex [0,1,2,-1,1,3,2,-1]
coord Coordinate { point [0.250 -1.700 0.749,0.250 -2.300 0.749,0.100 -1.700 0.749,0.100 -2.300 0.749]
}}
appearance Appearance{material USE PIN-01 }
}
Shape { geometry IndexedFaceSet
{ creaseAngle 0.50 coordIndex [0,1,2,-1,3,1,0,-1]
coord Coordinate { point [0.250 -1.700 0.749,0.250 -1.300 0.849,0.250 -1.300 0.749,0.250 -1.700 0.849]
}}
appearance Appearance{material USE IC-BODY-EPOXY-04 }
}
Shape { geometry IndexedFaceSet
{ creaseAngle 0.50 coordIndex [0,1,2,-1,0,3,1,-1]
coord Coordinate { point [2.750 -3.325 0.849,0.250 -3.325 0.749,2.750 -3.325 0.749,0.250 -3.325 0.849]
}}
appearance Appearance{material USE IC-BODY-EPOXY-04 }
}
Shape { geometry IndexedFaceSet
{ creaseAngle 0.50 coordIndex [0,1,2,-1,0,2,3,-1]
coord Coordinate { point [2.720 -3.090 0.849,2.720 -3.295 0.849,2.750 -3.325 0.849,2.750 -3.090 0.849]
}}
appearance Appearance{material USE IC-BODY-EPOXY-04 }
}
Shape { geometry IndexedFaceSet
{ creaseAngle 0.50 coordIndex [0,1,2,-1,2,1,3,-1,4,5,6,-1,7,4,6,-1,5,8,9,-1,6,5,9,-1,10,2,11,-1,2,3,11,-1,9,8,12,-1,10,11,13,-1,12,8,14,-1,10,13,15,-1,8,16,17,-1,14,8,17,-1,18,10,19,-1,10,15,19,-1,17,16,20,-1,18,19,21,-1,20,16,22,-1,18,21,23,-1,24,18,25,-1,18,23,25,-1,16,24,26,-1,22,16,26,-1,24,25,27,-1,26,24,27,-1]
coord Coordinate { point [2.950 -3.090 -1.119,3.050 -3.090 -1.119,2.950 -3.090 0.699,3.050 -3.090 0.699,2.750 -3.090 0.749,2.900 -3.090 0.749,2.900 -3.090 0.849,2.750 -3.090 0.849,2.913 -3.090 0.748,2.915 -3.090 0.848,2.948 -3.090 0.712,3.049 -3.090 0.714,2.929 -3.090 0.846,3.047 -3.090 0.728,2.944 -3.090 0.843,3.044 -3.090 0.743,2.925 -3.090 0.743,2.957 -3.090 0.838,2.943 -3.090 0.724,3.039 -3.090 0.757,2.971 -3.090 0.832,3.032 -3.090 0.770,2.983 -3.090 0.824,3.025 -3.090 0.783,2.935 -3.090 0.735,3.016 -3.090 0.794,2.995 -3.090 0.815,3.006 -3.090 0.805]
}}
appearance Appearance{material USE PIN-01 }
}
Shape { geometry IndexedFaceSet
{ creaseAngle 0.50 coordIndex [0,1,2,-1,1,3,2,-1,3,4,2,-1,5,6,7,-1,8,5,7,-1,4,8,7,-1,2,4,7,-1,9,10,11,-1,12,9,11,-1,6,12,11,-1,7,6,11,-1,10,13,14,-1,11,10,14,-1,15,14,16,-1,14,13,16,-1,15,16,17,-1,15,17,18,-1,19,15,20,-1,15,18,20,-1,19,20,21,-1,19,21,22,-1,23,19,24,-1,19,22,24,-1,23,24,25,-1,26,23,27,-1,23,25,27,-1]
coord Coordinate { point [2.750 0.090 0.749,2.750 0.090 0.849,2.900 0.090 0.749,2.900 0.090 0.849,2.915 0.090 0.848,2.944 0.090 0.843,2.957 0.090 0.838,2.913 0.090 0.748,2.929 0.090 0.846,2.983 0.090 0.824,2.995 0.090 0.815,2.925 0.090 0.743,2.971 0.090 0.832,3.006 0.090 0.805,2.935 0.090 0.735,2.943 0.090 0.724,3.016 0.090 0.794,3.025 0.090 0.783,3.032 0.090 0.770,2.948 0.090 0.712,3.039 0.090 0.757,3.044 0.090 0.743,3.047 0.090 0.728,2.950 0.090 0.699,3.049 0.090 0.714,3.050 0.090 0.699,2.950 0.090 -1.119,3.050 0.090 -1.119]
}}
appearance Appearance{material USE PIN-01 }
}
Shape { geometry IndexedFaceSet
{ creaseAngle 0.50 coordIndex [0,1,2,-1,3,1,0,-1]
coord Coordinate { point [2.750 0.325 0.849,2.720 0.090 0.849,2.750 0.090 0.849,2.720 0.295 0.849]
}}
appearance Appearance{material USE IC-BODY-EPOXY-04 }
}
Shape { geometry IndexedFaceSet
{ creaseAngle 0.50 coordIndex [0,1,2,-1,1,3,2,-1,3,4,2,-1,4,5,6,-1,5,7,6,-1,7,8,6,-1,2,4,6,-1,8,9,10,-1,9,11,10,-1,11,12,10,-1,6,8,10,-1,12,13,14,-1,10,12,14,-1,15,14,16,-1,14,13,16,-1,15,16,17,-1,15,17,18,-1,19,15,20,-1,15,18,20,-1,19,20,21,-1,19,21,22,-1,23,19,24,-1,19,22,24,-1,23,24,25,-1,26,23,27,-1,23,25,27,-1]
coord Coordinate { point [2.750 -2.700 0.749,2.750 -2.700 0.849,2.900 -2.700 0.749,2.900 -2.700 0.849,2.915 -2.700 0.848,2.929 -2.700 0.846,2.913 -2.700 0.748,2.944 -2.700 0.843,2.957 -2.700 0.838,2.971 -2.700 0.832,2.925 -2.700 0.743,2.983 -2.700 0.824,2.995 -2.700 0.815,3.006 -2.700 0.805,2.935 -2.700 0.735,2.943 -2.700 0.724,3.016 -2.700 0.794,3.025 -2.700 0.783,3.032 -2.700 0.770,2.948 -2.700 0.712,3.039 -2.700 0.757,3.044 -2.700 0.743,3.047 -2.700 0.728,2.950 -2.700 0.699,3.049 -2.700 0.714,3.050 -2.700 0.699,2.950 -2.700 0.000,3.050 -2.700 0.000]
}}
appearance Appearance{material USE PIN-01 }
}
Shape { geometry IndexedFaceSet
{ creaseAngle 0.50 coordIndex [0,1,2,-1,0,3,1,-1,4,2,5,-1,4,5,6,-1,4,0,2,-1,7,4,6,-1,8,6,9,-1,8,7,6,-1,10,9,11,-1,10,8,9,-1,12,11,13,-1,12,10,11,-1]
coord Coordinate { point [2.948 -2.700 0.712,2.950 -3.090 0.699,2.948 -3.090 0.712,2.950 -2.700 0.699,2.943 -2.700 0.724,2.943 -3.090 0.724,2.935 -3.090 0.735,2.935 -2.700 0.735,2.925 -2.700 0.743,2.925 -3.090 0.743,2.913 -2.700 0.748,2.913 -3.090 0.748,2.900 -2.700 0.749,2.900 -3.090 0.749]
}}
appearance Appearance{material USE PIN-01 }
}
Shape { geometry IndexedFaceSet
{ creaseAngle 0.50 coordIndex [0,1,2,-1,3,0,4,-1,0,2,4,-1,3,4,5,-1,6,3,7,-1,3,5,7,-1,8,6,9,-1,6,7,9,-1,10,8,11,-1,12,10,11,-1,8,9,11,-1,12,11,13,-1]
coord Coordinate { point [2.948 0.090 0.712,2.950 0.090 0.699,2.950 -0.300 0.699,2.943 0.090 0.724,2.948 -0.300 0.712,2.943 -0.300 0.724,2.935 0.090 0.735,2.935 -0.300 0.735,2.925 0.090 0.743,2.925 -0.300 0.743,2.913 0.090 0.748,2.913 -0.300 0.748,2.900 0.090 0.749,2.900 -0.300 0.749]
}}
appearance Appearance{material USE PIN-01 }
}
Shape { geometry IndexedFaceSet
{ creaseAngle 0.50 coordIndex [0,1,2,-1,0,3,1,-1,0,4,3,-1,5,6,7,-1,5,7,8,-1,5,8,4,-1,5,4,0,-1,9,10,11,-1,9,11,12,-1,9,12,6,-1,9,6,5,-1,13,14,10,-1,13,10,9,-1,15,13,16,-1,15,14,13,-1,17,15,16,-1,18,17,16,-1,19,16,20,-1,19,18,16,-1,21,19,20,-1,22,21,20,-1,23,20,24,-1,23,22,20,-1,25,23,24,-1,26,24,27,-1,26,25,24,-1]
coord Coordinate { point [2.900 -0.300 0.749,2.750 -0.300 0.849,2.750 -0.300 0.749,2.900 -0.300 0.849,2.915 -0.300 0.848,2.913 -0.300 0.748,2.957 -0.300 0.838,2.944 -0.300 0.843,2.929 -0.300 0.846,2.925 -0.300 0.743,2.995 -0.300 0.815,2.983 -0.300 0.824,2.971 -0.300 0.832,2.935 -0.300 0.735,3.006 -0.300 0.805,3.016 -0.300 0.794,2.943 -0.300 0.724,3.025 -0.300 0.783,3.032 -0.300 0.770,3.039 -0.300 0.757,2.948 -0.300 0.712,3.044 -0.300 0.743,3.047 -0.300 0.728,3.049 -0.300 0.714,2.950 -0.300 0.699,3.050 -0.300 0.699,3.050 -0.300 0.000,2.950 -0.300 0.000]
}}
appearance Appearance{material USE PIN-01 }
}
Shape { geometry IndexedFaceSet
{ creaseAngle 0.50 coordIndex [0,1,2,-1,0,2,3,-1]
coord Coordinate { point [2.720 -2.300 0.849,2.720 -2.700 0.849,2.750 -2.700 0.849,2.750 -2.300 0.849]
}}
appearance Appearance{material USE IC-BODY-EPOXY-04 }
}
Shape { geometry IndexedFaceSet
{ creaseAngle 0.50 coordIndex [0,1,2,-1,3,4,5,-1,5,4,6,-1,0,2,7,-1,2,8,9,-1,7,2,9,-1,10,5,11,-1,5,6,11,-1,9,8,12,-1,10,11,13,-1,12,8,14,-1,10,13,15,-1,8,16,17,-1,14,8,17,-1,18,10,19,-1,10,15,19,-1,17,16,20,-1,18,19,21,-1,20,16,22,-1,18,21,23,-1,16,24,25,-1,22,16,25,-1,24,18,26,-1,18,23,26,-1,24,26,27,-1,25,24,27,-1]
coord Coordinate { point [2.750 -2.300 0.849,2.750 -2.300 0.749,2.900 -2.300 0.749,2.950 -2.300 0.000,3.050 -2.300 0.000,2.950 -2.300 0.699,3.050 -2.300 0.699,2.900 -2.300 0.849,2.913 -2.300 0.748,2.915 -2.300 0.848,2.948 -2.300 0.712,3.049 -2.300 0.714,2.929 -2.300 0.846,3.047 -2.300 0.728,2.944 -2.300 0.843,3.044 -2.300 0.743,2.925 -2.300 0.743,2.957 -2.300 0.838,2.943 -2.300 0.724,3.039 -2.300 0.757,2.971 -2.300 0.832,3.032 -2.300 0.770,2.983 -2.300 0.824,3.025 -2.300 0.783,2.935 -2.300 0.735,2.995 -2.300 0.815,3.016 -2.300 0.794,3.006 -2.300 0.805]
}}
appearance Appearance{material USE PIN-01 }
}
Shape { geometry IndexedFaceSet
{ creaseAngle 0.50 coordIndex [0,1,2,-1,3,4,5,-1,6,3,5,-1,7,1,0,-1,8,9,3,-1,8,3,6,-1,10,0,11,-1,10,7,0,-1,12,9,8,-1,13,10,11,-1,14,13,11,-1,15,9,12,-1,16,17,9,-1,16,9,15,-1,18,11,19,-1,18,14,11,-1,20,17,16,-1,21,18,19,-1,22,17,20,-1,23,21,19,-1,24,25,17,-1,24,17,22,-1,26,19,25,-1,26,23,19,-1,27,26,25,-1,27,25,24,-1]
coord Coordinate { point [2.950 -0.700 0.699,3.050 -0.700 0.000,2.950 -0.700 0.000,2.900 -0.700 0.749,2.750 -0.700 0.749,2.750 -0.700 0.849,2.900 -0.700 0.849,3.050 -0.700 0.699,2.915 -0.700 0.848,2.913 -0.700 0.748,3.049 -0.700 0.714,2.948 -0.700 0.712,2.929 -0.700 0.846,3.047 -0.700 0.728,3.044 -0.700 0.743,2.944 -0.700 0.843,2.957 -0.700 0.838,2.925 -0.700 0.743,3.039 -0.700 0.757,2.943 -0.700 0.724,2.971 -0.700 0.832,3.032 -0.700 0.770,2.983 -0.700 0.824,3.025 -0.700 0.783,2.995 -0.700 0.815,2.935 -0.700 0.735,3.016 -0.700 0.794,3.006 -0.700 0.805]
}}
appearance Appearance{material USE PIN-01 }
}
Shape { geometry IndexedFaceSet
{ creaseAngle 0.50 coordIndex [0,1,2,-1,3,1,0,-1]
coord Coordinate { point [2.750 -0.300 0.849,2.720 -0.700 0.849,2.750 -0.700 0.849,2.720 -0.300 0.849]
}}
appearance Appearance{material USE IC-BODY-EPOXY-04 }
}
Shape { geometry IndexedFaceSet
{ creaseAngle 0.50 coordIndex [0,1,2,-1,3,4,5,-1,6,3,5,-1,7,1,0,-1,8,9,3,-1,8,3,6,-1,10,0,11,-1,10,7,0,-1,12,9,8,-1,13,10,11,-1,14,13,11,-1,15,9,12,-1,16,17,9,-1,16,9,15,-1,18,11,19,-1,18,14,11,-1,20,17,16,-1,21,18,19,-1,22,17,20,-1,23,21,19,-1,24,25,17,-1,24,17,22,-1,26,19,25,-1,26,23,19,-1,27,26,25,-1,27,25,24,-1]
coord Coordinate { point [2.950 -1.700 0.699,3.050 -1.700 0.000,2.950 -1.700 0.000,2.900 -1.700 0.749,2.750 -1.700 0.749,2.750 -1.700 0.849,2.900 -1.700 0.849,3.050 -1.700 0.699,2.915 -1.700 0.848,2.913 -1.700 0.748,3.049 -1.700 0.714,2.948 -1.700 0.712,2.929 -1.700 0.846,3.047 -1.700 0.728,3.044 -1.700 0.743,2.944 -1.700 0.843,2.957 -1.700 0.838,2.925 -1.700 0.743,3.039 -1.700 0.757,2.943 -1.700 0.724,2.971 -1.700 0.832,3.032 -1.700 0.770,2.983 -1.700 0.824,3.025 -1.700 0.783,2.995 -1.700 0.815,2.935 -1.700 0.735,3.016 -1.700 0.794,3.006 -1.700 0.805]
}}
appearance Appearance{material USE PIN-01 }
}
Shape { geometry IndexedFaceSet
{ creaseAngle 0.50 coordIndex [0,1,2,-1,0,3,1,-1,4,2,5,-1,4,0,2,-1,6,5,7,-1,6,4,5,-1,8,7,9,-1,8,9,10,-1,8,6,7,-1,11,8,10,-1,12,10,13,-1,12,11,10,-1]
coord Coordinate { point [2.948 -1.700 0.712,2.950 -2.300 0.699,2.948 -2.300 0.712,2.950 -1.700 0.699,2.943 -1.700 0.724,2.943 -2.300 0.724,2.935 -1.700 0.735,2.935 -2.300 0.735,2.925 -1.700 0.743,2.925 -2.300 0.743,2.913 -2.300 0.748,2.913 -1.700 0.748,2.900 -1.700 0.749,2.900 -2.300 0.749]
}}
appearance Appearance{material USE PIN-01 }
}
Shape { geometry IndexedFaceSet
{ creaseAngle 0.50 coordIndex [0,1,2,-1,0,3,1,-1,4,2,5,-1,4,0,2,-1,6,5,7,-1,6,4,5,-1,8,7,9,-1,8,9,10,-1,8,6,7,-1,11,10,12,-1,11,8,10,-1,13,11,12,-1]
coord Coordinate { point [2.948 -0.700 0.712,2.950 -1.300 0.699,2.948 -1.300 0.712,2.950 -0.700 0.699,2.943 -0.700 0.724,2.943 -1.300 0.724,2.935 -0.700 0.735,2.935 -1.300 0.735,2.925 -0.700 0.743,2.925 -1.300 0.743,2.913 -1.300 0.748,2.913 -0.700 0.748,2.900 -1.300 0.749,2.900 -0.700 0.749]
}}
appearance Appearance{material USE PIN-01 }
}
Shape { geometry IndexedFaceSet
{ creaseAngle 0.50 coordIndex [0,1,2,-1,3,4,5,-1,0,2,6,-1,5,4,7,-1,2,8,9,-1,6,2,9,-1,10,5,11,-1,5,7,11,-1,9,8,12,-1,10,11,13,-1,10,13,14,-1,12,8,15,-1,8,16,17,-1,15,8,17,-1,18,10,19,-1,10,14,19,-1,17,16,20,-1,18,19,21,-1,20,16,22,-1,18,21,23,-1,16,24,25,-1,22,16,25,-1,24,18,26,-1,18,23,26,-1,24,26,27,-1,25,24,27,-1]
coord Coordinate { point [2.750 -1.300 0.849,2.750 -1.300 0.749,2.900 -1.300 0.749,2.950 -1.300 0.000,3.050 -1.300 0.000,2.950 -1.300 0.699,2.900 -1.300 0.849,3.050 -1.300 0.699,2.913 -1.300 0.748,2.915 -1.300 0.848,2.948 -1.300 0.712,3.049 -1.300 0.714,2.929 -1.300 0.846,3.047 -1.300 0.728,3.044 -1.300 0.743,2.944 -1.300 0.843,2.925 -1.300 0.743,2.957 -1.300 0.838,2.943 -1.300 0.724,3.039 -1.300 0.757,2.971 -1.300 0.832,3.032 -1.300 0.770,2.983 -1.300 0.824,3.025 -1.300 0.783,2.935 -1.300 0.735,2.995 -1.300 0.815,3.016 -1.300 0.794,3.006 -1.300 0.805]
}}
appearance Appearance{material USE PIN-01 }
}
Shape { geometry IndexedFaceSet
{ creaseAngle 0.50 coordIndex [0,1,2,-1,0,2,3,-1]
coord Coordinate { point [2.720 -1.300 0.849,2.720 -1.700 0.849,2.750 -1.700 0.849,2.750 -1.300 0.849]
}}
appearance Appearance{material USE IC-BODY-EPOXY-04 }
}
Shape { geometry IndexedFaceSet
{ creaseAngle 0.50 coordIndex [0,1,2,-1,0,3,1,-1]
coord Coordinate { point [0.280 0.295 0.849,2.750 0.325 0.849,0.250 0.325 0.849,2.720 0.295 0.849]
}}
appearance Appearance{material USE IC-BODY-EPOXY-04 }
}
Shape { geometry IndexedFaceSet
{ creaseAngle 0.50 coordIndex [0,1,2,-1,0,2,3,-1]
coord Coordinate { point [0.280 0.090 0.849,0.280 0.295 0.849,0.250 0.325 0.849,0.250 0.090 0.849]
}}
appearance Appearance{material USE IC-BODY-EPOXY-04 }
}
Shape { geometry IndexedFaceSet
{ creaseAngle 0.50 coordIndex [0,1,2,-1,3,0,2,-1,4,5,6,-1,7,4,6,-1,1,7,6,-1,2,1,6,-1,8,3,9,-1,10,8,9,-1,11,10,9,-1,3,2,9,-1,12,13,14,-1,15,12,14,-1,5,15,14,-1,6,5,14,-1,16,11,17,-1,18,16,17,-1,19,18,17,-1,11,9,17,-1,13,20,21,-1,14,13,21,-1,22,19,23,-1,19,17,23,-1,20,24,25,-1,21,20,25,-1,22,23,26,-1,26,23,27,-1]
coord Coordinate { point [-0.006 0.090 0.805,0.005 0.090 0.815,0.065 0.090 0.735,-0.016 0.090 0.794,0.029 0.090 0.832,0.043 0.090 0.838,0.075 0.090 0.743,0.017 0.090 0.824,-0.025 0.090 0.783,0.057 0.090 0.724,-0.032 0.090 0.770,-0.039 0.090 0.757,0.071 0.090 0.846,0.085 0.090 0.848,0.087 0.090 0.748,0.056 0.090 0.843,-0.044 0.090 0.743,0.052 0.090 0.712,-0.047 0.090 0.728,-0.049 0.090 0.714,0.100 0.090 0.849,0.100 0.090 0.749,-0.050 0.090 0.699,0.050 0.090 0.699,0.250 0.090 0.849,0.250 0.090 0.749,-0.050 0.090 -1.119,0.050 0.090 -1.119]
}}
appearance Appearance{material USE PIN-01 }
}
Shape { geometry IndexedFaceSet
{ creaseAngle 0.50 coordIndex [0,1,2,-1,3,2,4,-1,2,1,4,-1,5,3,6,-1,7,5,6,-1,8,7,6,-1,3,4,6,-1,9,8,10,-1,11,9,10,-1,12,11,10,-1,8,6,10,-1,12,10,13,-1,12,13,14,-1,13,15,16,-1,14,13,16,-1,16,15,17,-1,17,15,18,-1,15,19,20,-1,18,15,20,-1,20,19,21,-1,21,19,22,-1,19,23,24,-1,22,19,24,-1,24,23,25,-1,23,26,27,-1,25,23,27,-1]
coord Coordinate { point [-0.050 -3.090 -1.119,0.050 -3.090 -1.119,-0.050 -3.090 0.699,-0.049 -3.090 0.714,0.050 -3.090 0.699,-0.047 -3.090 0.728,0.052 -3.090 0.712,-0.044 -3.090 0.743,-0.039 -3.090 0.757,-0.032 -3.090 0.770,0.057 -3.090 0.724,-0.025 -3.090 0.783,-0.016 -3.090 0.794,0.065 -3.090 0.735,-0.006 -3.090 0.805,0.075 -3.090 0.743,0.005 -3.090 0.815,0.017 -3.090 0.824,0.029 -3.090 0.832,0.087 -3.090 0.748,0.043 -3.090 0.838,0.056 -3.090 0.843,0.071 -3.090 0.846,0.100 -3.090 0.749,0.085 -3.090 0.848,0.100 -3.090 0.849,0.250 -3.090 0.749,0.250 -3.090 0.849]
}}
appearance Appearance{material USE PIN-01 }
}
Shape { geometry IndexedFaceSet
{ creaseAngle 0.50 coordIndex [0,1,2,-1,3,1,0,-1]
coord Coordinate { point [0.250 -3.325 0.849,0.280 -3.090 0.849,0.250 -3.090 0.849,0.280 -3.295 0.849]
}}
appearance Appearance{material USE IC-BODY-EPOXY-04 }
}
Shape { geometry IndexedFaceSet
{ creaseAngle 0.50 coordIndex [0,1,2,-1,0,2,3,-1,4,5,6,-1,4,6,7,-1,4,7,1,-1,4,1,0,-1,8,3,9,-1,8,9,10,-1,8,10,11,-1,8,0,3,-1,12,11,13,-1,12,13,14,-1,12,14,15,-1,12,8,11,-1,16,17,18,-1,16,18,19,-1,16,19,5,-1,16,5,4,-1,20,21,17,-1,20,17,16,-1,22,15,23,-1,22,12,15,-1,24,25,21,-1,24,21,20,-1,26,22,23,-1,27,22,26,-1]
coord Coordinate { point [0.065 -0.300 0.735,0.005 -0.300 0.815,-0.006 -0.300 0.805,-0.016 -0.300 0.794,0.075 -0.300 0.743,0.043 -0.300 0.838,0.029 -0.300 0.832,0.017 -0.300 0.824,0.057 -0.300 0.724,-0.025 -0.300 0.783,-0.032 -0.300 0.770,-0.039 -0.300 0.757,0.052 -0.300 0.712,-0.044 -0.300 0.743,-0.047 -0.300 0.728,-0.049 -0.300 0.714,0.087 -0.300 0.748,0.085 -0.300 0.848,0.071 -0.300 0.846,0.056 -0.300 0.843,0.100 -0.300 0.749,0.100 -0.300 0.849,0.050 -0.300 0.699,-0.050 -0.300 0.699,0.250 -0.300 0.749,0.250 -0.300 0.849,-0.050 -0.300 0.000,0.050 -0.300 0.000]
}}
appearance Appearance{material USE PIN-01 }
}
Shape { geometry IndexedFaceSet
{ creaseAngle 0.50 coordIndex [0,1,2,-1,0,3,1,-1,4,2,5,-1,4,5,6,-1,4,0,2,-1,7,4,6,-1,8,6,9,-1,8,7,6,-1,10,9,11,-1,10,8,9,-1,12,11,13,-1,12,10,11,-1]
coord Coordinate { point [0.052 -0.300 0.712,0.050 0.090 0.699,0.052 0.090 0.712,0.050 -0.300 0.699,0.057 -0.300 0.724,0.057 0.090 0.724,0.065 0.090 0.735,0.065 -0.300 0.735,0.075 -0.300 0.743,0.075 0.090 0.743,0.087 -0.300 0.748,0.087 0.090 0.748,0.100 -0.300 0.749,0.100 0.090 0.749]
}}
appearance Appearance{material USE PIN-01 }
}
Shape { geometry IndexedFaceSet
{ creaseAngle 0.50 coordIndex [0,1,2,-1,1,3,2,-1,3,4,5,-1,4,6,5,-1,6,7,5,-1,2,3,5,-1,8,9,10,-1,9,11,10,-1,11,0,10,-1,0,2,10,-1,7,12,13,-1,12,14,13,-1,14,15,13,-1,5,7,13,-1,16,17,18,-1,17,19,18,-1,19,8,18,-1,8,10,18,-1,15,20,21,-1,13,15,21,-1,22,16,23,-1,16,18,23,-1,20,24,25,-1,21,20,25,-1,22,23,26,-1,26,23,27,-1]
coord Coordinate { point [-0.016 -2.700 0.794,-0.006 -2.700 0.805,0.065 -2.700 0.735,0.005 -2.700 0.815,0.017 -2.700 0.824,0.075 -2.700 0.743,0.029 -2.700 0.832,0.043 -2.700 0.838,-0.039 -2.700 0.757,-0.032 -2.700 0.770,0.057 -2.700 0.724,-0.025 -2.700 0.783,0.056 -2.700 0.843,0.087 -2.700 0.748,0.071 -2.700 0.846,0.085 -2.700 0.848,-0.049 -2.700 0.714,-0.047 -2.700 0.728,0.052 -2.700 0.712,-0.044 -2.700 0.743,0.100 -2.700 0.849,0.100 -2.700 0.749,-0.050 -2.700 0.699,0.050 -2.700 0.699,0.250 -2.700 0.849,0.250 -2.700 0.749,-0.050 -2.700 0.000,0.050 -2.700 0.000]
}}
appearance Appearance{material USE PIN-01 }
}
Shape { geometry IndexedFaceSet
{ creaseAngle 0.50 coordIndex [0,1,2,-1,0,2,3,-1,4,0,5,-1,6,4,5,-1,0,3,5,-1,6,5,7,-1,8,6,9,-1,6,7,9,-1,10,8,11,-1,8,9,11,-1,12,10,13,-1,10,11,13,-1]
coord Coordinate { point [0.052 -3.090 0.712,0.050 -3.090 0.699,0.050 -2.700 0.699,0.052 -2.700 0.712,0.057 -3.090 0.724,0.057 -2.700 0.724,0.065 -3.090 0.735,0.065 -2.700 0.735,0.075 -3.090 0.743,0.075 -2.700 0.743,0.087 -3.090 0.748,0.087 -2.700 0.748,0.100 -3.090 0.749,0.100 -2.700 0.749]
}}
appearance Appearance{material USE PIN-01 }
}
Shape { geometry IndexedFaceSet
{ creaseAngle 0.50 coordIndex [0,1,2,-1,0,2,3,-1]
coord Coordinate { point [0.280 -0.700 0.849,0.280 -0.300 0.849,0.250 -0.300 0.849,0.250 -0.700 0.849]
}}
appearance Appearance{material USE IC-BODY-EPOXY-04 }
}
Shape { geometry IndexedFaceSet
{ creaseAngle 0.50 coordIndex [0,1,2,-1,0,3,1,-1,0,4,3,-1,5,6,7,-1,5,8,6,-1,5,2,8,-1,5,0,2,-1,9,10,11,-1,9,12,10,-1,9,7,12,-1,9,5,7,-1,13,11,14,-1,13,9,11,-1,15,16,13,-1,15,13,14,-1,17,16,15,-1,18,16,17,-1,19,20,16,-1,19,16,18,-1,21,20,19,-1,22,20,21,-1,23,24,20,-1,23,20,22,-1,25,24,23,-1,26,24,25,-1,27,26,25,-1]
coord Coordinate { point [0.050 -0.700 0.699,-0.050 -0.700 0.699,-0.049 -0.700 0.714,-0.050 -0.700 0.000,0.050 -0.700 0.000,0.052 -0.700 0.712,-0.044 -0.700 0.743,-0.039 -0.700 0.757,-0.047 -0.700 0.728,0.057 -0.700 0.724,-0.025 -0.700 0.783,-0.016 -0.700 0.794,-0.032 -0.700 0.770,0.065 -0.700 0.735,-0.006 -0.700 0.805,0.005 -0.700 0.815,0.075 -0.700 0.743,0.017 -0.700 0.824,0.029 -0.700 0.832,0.043 -0.700 0.838,0.087 -0.700 0.748,0.056 -0.700 0.843,0.071 -0.700 0.846,0.085 -0.700 0.848,0.100 -0.700 0.749,0.100 -0.700 0.849,0.250 -0.700 0.749,0.250 -0.700 0.849]
}}
appearance Appearance{material USE PIN-01 }
}
Shape { geometry IndexedFaceSet
{ creaseAngle 0.50 coordIndex [0,1,2,-1,1,3,2,-1,3,4,2,-1,5,6,7,-1,6,8,7,-1,8,0,7,-1,0,2,7,-1,9,10,11,-1,10,12,11,-1,12,5,11,-1,5,7,11,-1,13,9,14,-1,9,11,14,-1,14,15,16,-1,13,14,16,-1,16,15,17,-1,17,15,18,-1,15,19,20,-1,18,15,20,-1,20,19,21,-1,21,19,22,-1,19,23,24,-1,22,19,24,-1,24,23,25,-1,25,23,26,-1,25,26,27,-1]
coord Coordinate { point [-0.049 -2.300 0.714,-0.050 -2.300 0.699,0.050 -2.300 0.699,-0.050 -2.300 0.000,0.050 -2.300 0.000,-0.039 -2.300 0.757,-0.044 -2.300 0.743,0.052 -2.300 0.712,-0.047 -2.300 0.728,-0.016 -2.300 0.794,-0.025 -2.300 0.783,0.057 -2.300 0.724,-0.032 -2.300 0.770,-0.006 -2.300 0.805,0.065 -2.300 0.735,0.075 -2.300 0.743,0.005 -2.300 0.815,0.017 -2.300 0.824,0.029 -2.300 0.832,0.087 -2.300 0.748,0.043 -2.300 0.838,0.056 -2.300 0.843,0.071 -2.300 0.846,0.100 -2.300 0.749,0.085 -2.300 0.848,0.100 -2.300 0.849,0.250 -2.300 0.749,0.250 -2.300 0.849]
}}
appearance Appearance{material USE PIN-01 }
}
Shape { geometry IndexedFaceSet
{ creaseAngle 0.50 coordIndex [0,1,2,-1,3,1,0,-1]
coord Coordinate { point [0.250 -2.700 0.849,0.280 -2.300 0.849,0.250 -2.300 0.849,0.280 -2.700 0.849]
}}
appearance Appearance{material USE IC-BODY-EPOXY-04 }
}
Shape { geometry IndexedFaceSet
{ creaseAngle 0.50 coordIndex [0,1,2,-1,1,3,2,-1,3,4,2,-1,5,6,7,-1,6,8,7,-1,8,0,7,-1,0,2,7,-1,9,10,11,-1,10,12,11,-1,12,5,11,-1,5,7,11,-1,13,9,14,-1,9,11,14,-1,14,15,16,-1,13,14,16,-1,16,15,17,-1,17,15,18,-1,15,19,20,-1,18,15,20,-1,20,19,21,-1,21,19,22,-1,19,23,24,-1,22,19,24,-1,24,23,25,-1,25,23,26,-1,25,26,27,-1]
coord Coordinate { point [-0.049 -1.300 0.714,-0.050 -1.300 0.699,0.050 -1.300 0.699,-0.050 -1.300 0.000,0.050 -1.300 0.000,-0.039 -1.300 0.757,-0.044 -1.300 0.743,0.052 -1.300 0.712,-0.047 -1.300 0.728,-0.016 -1.300 0.794,-0.025 -1.300 0.783,0.057 -1.300 0.724,-0.032 -1.300 0.770,-0.006 -1.300 0.805,0.065 -1.300 0.735,0.075 -1.300 0.743,0.005 -1.300 0.815,0.017 -1.300 0.824,0.029 -1.300 0.832,0.087 -1.300 0.748,0.043 -1.300 0.838,0.056 -1.300 0.843,0.071 -1.300 0.846,0.100 -1.300 0.749,0.085 -1.300 0.848,0.100 -1.300 0.849,0.250 -1.300 0.749,0.250 -1.300 0.849]
}}
appearance Appearance{material USE PIN-01 }
}
Shape { geometry IndexedFaceSet
{ creaseAngle 0.50 coordIndex [0,1,2,-1,0,3,1,-1,4,2,5,-1,4,0,2,-1,6,5,7,-1,6,4,5,-1,8,7,9,-1,8,6,7,-1,10,9,11,-1,10,11,12,-1,10,8,9,-1,13,10,12,-1]
coord Coordinate { point [0.052 -1.300 0.712,0.050 -0.700 0.699,0.052 -0.700 0.712,0.050 -1.300 0.699,0.057 -1.300 0.724,0.057 -0.700 0.724,0.065 -1.300 0.735,0.065 -0.700 0.735,0.075 -1.300 0.743,0.075 -0.700 0.743,0.087 -1.300 0.748,0.087 -0.700 0.748,0.100 -0.700 0.749,0.100 -1.300 0.749]
}}
appearance Appearance{material USE PIN-01 }
}
Shape { geometry IndexedFaceSet
{ creaseAngle 0.50 coordIndex [0,1,2,-1,0,3,1,-1,0,4,3,-1,5,6,7,-1,5,8,6,-1,5,2,8,-1,5,0,2,-1,9,10,11,-1,9,12,10,-1,9,7,12,-1,9,5,7,-1,13,11,14,-1,13,9,11,-1,15,16,13,-1,15,13,14,-1,17,16,15,-1,18,16,17,-1,19,20,16,-1,19,16,18,-1,21,20,19,-1,22,20,21,-1,23,24,20,-1,23,20,22,-1,25,24,23,-1,26,24,25,-1,27,26,25,-1]
coord Coordinate { point [0.050 -1.700 0.699,-0.050 -1.700 0.699,-0.049 -1.700 0.714,-0.050 -1.700 0.000,0.050 -1.700 0.000,0.052 -1.700 0.712,-0.044 -1.700 0.743,-0.039 -1.700 0.757,-0.047 -1.700 0.728,0.057 -1.700 0.724,-0.025 -1.700 0.783,-0.016 -1.700 0.794,-0.032 -1.700 0.770,0.065 -1.700 0.735,-0.006 -1.700 0.805,0.005 -1.700 0.815,0.075 -1.700 0.743,0.017 -1.700 0.824,0.029 -1.700 0.832,0.043 -1.700 0.838,0.087 -1.700 0.748,0.056 -1.700 0.843,0.071 -1.700 0.846,0.085 -1.700 0.848,0.100 -1.700 0.749,0.100 -1.700 0.849,0.250 -1.700 0.749,0.250 -1.700 0.849]
}}
appearance Appearance{material USE PIN-01 }
}
Shape { geometry IndexedFaceSet
{ creaseAngle 0.50 coordIndex [0,1,2,-1,0,3,1,-1,4,2,5,-1,4,0,2,-1,6,5,7,-1,6,4,5,-1,8,7,9,-1,8,6,7,-1,10,9,11,-1,10,11,12,-1,10,8,9,-1,13,10,12,-1]
coord Coordinate { point [0.052 -2.300 0.712,0.050 -1.700 0.699,0.052 -1.700 0.712,0.050 -2.300 0.699,0.057 -2.300 0.724,0.057 -1.700 0.724,0.065 -2.300 0.735,0.065 -1.700 0.735,0.075 -2.300 0.743,0.075 -1.700 0.743,0.087 -2.300 0.748,0.087 -1.700 0.748,0.100 -1.700 0.749,0.100 -2.300 0.749]
}}
appearance Appearance{material USE PIN-01 }
}
Shape { geometry IndexedFaceSet
{ creaseAngle 0.50 coordIndex [0,1,2,-1,0,2,3,-1]
coord Coordinate { point [0.280 -1.700 0.849,0.280 -1.300 0.849,0.250 -1.300 0.849,0.250 -1.700 0.849]
}}
appearance Appearance{material USE IC-BODY-EPOXY-04 }
}
Shape { geometry IndexedFaceSet
{ creaseAngle 0.50 coordIndex [0,1,2,-1,0,3,1,-1]
coord Coordinate { point [2.720 -3.295 0.849,0.250 -3.325 0.849,2.750 -3.325 0.849,0.280 -3.295 0.849]
}}
appearance Appearance{material USE IC-BODY-EPOXY-04 }
}
Shape { geometry IndexedFaceSet
{ creaseAngle 0.50 coordIndex [0,1,2,-1,0,2,3,-1,4,0,3,-1,5,0,4,-1,6,7,8,-1,6,9,7,-1,6,10,11,-1,6,11,9,-1,6,0,5,-1,6,5,10,-1]
coord Coordinate { point [2.593 -3.168 1.449,2.720 -3.295 0.849,2.720 -3.090 0.849,2.720 -2.700 0.849,2.720 -2.300 0.849,2.720 -1.700 0.849,2.593 0.168 1.449,2.720 0.090 0.849,2.720 0.295 0.849,2.720 -0.300 0.849,2.720 -1.300 0.849,2.720 -0.700 0.849]
}}
appearance Appearance{material USE IC-BODY-EPOXY-04 }
}
Shape { geometry IndexedFaceSet
{ creaseAngle 0.50 coordIndex [0,1,2,-1,3,1,0,-1,4,5,1,-1,4,1,3,-1]
coord Coordinate { point [2.900 -2.700 0.849,2.750 -3.090 0.849,2.900 -3.090 0.849,2.750 -2.700 0.849,2.720 -2.700 0.849,2.720 -3.090 0.849]
}}
appearance Appearance{material USE PIN-01 }
}
Shape { geometry IndexedFaceSet
{ creaseAngle 0.50 coordIndex [0,1,2,-1,0,2,3,-1,4,0,5,-1,6,5,7,-1,6,4,5,-1,4,1,0,-1]
coord Coordinate { point [2.950 -2.910 0.000,2.950 -3.090 0.699,2.950 -2.700 0.699,2.950 -2.700 0.000,2.950 -3.090 -1.119,2.950 -2.910 -1.119,2.950 -3.045 -1.299,2.950 -2.955 -1.299]
}}
appearance Appearance{material USE PIN-01 }
}
Shape { geometry IndexedFaceSet
{ creaseAngle 0.50 coordIndex [0,1,2,-1,0,2,3,-1]
coord Coordinate { point [3.050 -3.045 -1.299,3.050 -3.090 -1.119,2.950 -3.090 -1.119,2.950 -3.045 -1.299]
}}
appearance Appearance{material USE PIN-01 }
}
Shape { geometry IndexedFaceSet
{ creaseAngle 0.50 coordIndex [0,1,2,-1,3,0,2,-1,4,2,5,-1,4,5,6,-1,6,5,7,-1,2,1,5,-1]
coord Coordinate { point [3.050 -2.700 0.699,3.050 -3.090 0.699,3.050 -2.910 0.000,3.050 -2.700 0.000,3.050 -2.910 -1.119,3.050 -3.090 -1.119,3.050 -2.955 -1.299,3.050 -3.045 -1.299]
}}
appearance Appearance{material USE PIN-01 }
}
Shape { geometry IndexedFaceSet
{ creaseAngle 0.50 coordIndex [0,1,2,-1,3,4,5,-1,6,3,5,-1,4,2,5,-1,6,5,7,-1,8,9,10,-1,9,11,10,-1,12,8,13,-1,8,10,13,-1,14,12,15,-1,12,13,15,-1,16,14,17,-1,14,15,17,-1,18,16,19,-1,16,17,19,-1,20,18,21,-1,18,19,21,-1,22,20,23,-1,20,21,23,-1,24,22,25,-1,22,23,25,-1,26,24,27,-1,24,25,27,-1,28,26,29,-1,26,27,29,-1,30,28,31,-1,32,30,31,-1,28,29,31,-1,32,31,33,-1,0,32,1,-1,32,33,1,-1,4,0,2,-1]
coord Coordinate { point [3.044 -2.700 0.743,3.044 -3.090 0.743,3.047 -3.090 0.728,3.049 -2.700 0.714,3.047 -2.700 0.728,3.049 -3.090 0.714,3.050 -2.700 0.699,3.050 -3.090 0.699,2.915 -2.700 0.848,2.900 -2.700 0.849,2.915 -3.090 0.848,2.900 -3.090 0.849,2.929 -2.700 0.846,2.929 -3.090 0.846,2.944 -2.700 0.843,2.944 -3.090 0.843,2.957 -2.700 0.838,2.957 -3.090 0.838,2.971 -2.700 0.832,2.971 -3.090 0.832,2.983 -2.700 0.824,2.983 -3.090 0.824,2.995 -2.700 0.815,2.995 -3.090 0.815,3.006 -2.700 0.805,3.006 -3.090 0.805,3.016 -2.700 0.794,3.016 -3.090 0.794,3.025 -2.700 0.783,3.025 -3.090 0.783,3.032 -2.700 0.770,3.032 -3.090 0.770,3.039 -2.700 0.757,3.039 -3.090 0.757]
}}
appearance Appearance{material USE PIN-01 }
}
Shape { geometry IndexedFaceSet
{ creaseAngle 0.50 coordIndex [0,1,2,-1,0,3,1,-1,0,4,3,-1,5,4,0,-1]
coord Coordinate { point [2.750 0.090 0.849,2.900 -0.300 0.849,2.900 0.090 0.849,2.750 -0.300 0.849,2.720 -0.300 0.849,2.720 0.090 0.849]
}}
appearance Appearance{material USE PIN-01 }
}
Shape { geometry IndexedFaceSet
{ creaseAngle 0.50 coordIndex [0,1,2,-1,3,4,5,-1,3,5,6,-1,3,0,4,-1,7,3,6,-1,8,9,10,-1,8,11,9,-1,12,10,13,-1,12,8,10,-1,14,13,15,-1,14,15,16,-1,14,12,13,-1,17,14,16,-1,18,16,19,-1,18,17,16,-1,20,19,21,-1,20,18,19,-1,22,21,23,-1,22,20,21,-1,24,23,25,-1,24,25,26,-1,24,22,23,-1,27,24,26,-1,28,26,29,-1,28,27,26,-1,30,29,31,-1,30,28,29,-1,32,31,33,-1,32,33,2,-1,32,30,31,-1,1,32,2,-1,0,2,4,-1]
coord Coordinate { point [2.929 -0.300 0.846,2.944 -0.300 0.843,2.944 0.090 0.843,2.915 -0.300 0.848,2.929 0.090 0.846,2.915 0.090 0.848,2.900 0.090 0.849,2.900 -0.300 0.849,3.049 -0.300 0.714,3.050 0.090 0.699,3.049 0.090 0.714,3.050 -0.300 0.699,3.047 -0.300 0.728,3.047 0.090 0.728,3.044 -0.300 0.743,3.044 0.090 0.743,3.039 0.090 0.757,3.039 -0.300 0.757,3.032 -0.300 0.770,3.032 0.090 0.770,3.025 -0.300 0.783,3.025 0.090 0.783,3.016 -0.300 0.794,3.016 0.090 0.794,3.006 -0.300 0.805,3.006 0.090 0.805,2.995 0.090 0.815,2.995 -0.300 0.815,2.983 -0.300 0.824,2.983 0.090 0.824,2.971 -0.300 0.832,2.971 0.090 0.832,2.957 -0.300 0.838,2.957 0.090 0.838]
}}
appearance Appearance{material USE PIN-01 }
}
Shape { geometry IndexedFaceSet
{ creaseAngle 0.50 coordIndex [0,1,2,-1,3,1,0,-1,4,3,0,-1,5,4,0,-1,6,7,4,-1,6,4,5,-1]
coord Coordinate { point [3.050 0.090 -1.119,3.050 -0.045 -1.299,3.050 0.045 -1.299,3.050 -0.090 -1.119,3.050 -0.090 0.000,3.050 0.090 0.699,3.050 -0.300 0.699,3.050 -0.300 0.000]
}}
appearance Appearance{material USE PIN-01 }
}
Shape { geometry IndexedFaceSet
{ creaseAngle 0.50 coordIndex [0,1,2,-1,3,0,2,-1]
coord Coordinate { point [2.950 0.090 -1.119,3.050 0.090 -1.119,3.050 0.045 -1.299,2.950 0.045 -1.299]
}}
appearance Appearance{material USE PIN-01 }
}
Shape { geometry IndexedFaceSet
{ creaseAngle 0.50 coordIndex [0,1,2,-1,1,3,2,-1,0,2,4,-1,0,4,5,-1,4,6,7,-1,5,4,7,-1]
coord Coordinate { point [2.950 0.090 -1.119,2.950 0.045 -1.299,2.950 -0.090 -1.119,2.950 -0.045 -1.299,2.950 -0.090 0.000,2.950 0.090 0.699,2.950 -0.300 0.000,2.950 -0.300 0.699]
}}
appearance Appearance{material USE PIN-01 }
}
Shape { geometry IndexedFaceSet
{ creaseAngle 0.50 coordIndex [0,1,2,-1,0,2,3,-1]
coord Coordinate { point [3.050 -2.700 0.000,3.050 -2.910 0.000,2.950 -2.910 0.000,2.950 -2.700 0.000]
}}
appearance Appearance{material USE PIN-01 }
}
Shape { geometry IndexedFaceSet
{ creaseAngle 0.50 coordIndex [0,1,2,-1,3,0,2,-1]
coord Coordinate { point [2.950 -0.090 0.000,3.050 -0.090 0.000,3.050 -0.300 0.000,2.950 -0.300 0.000]
}}
appearance Appearance{material USE PIN-01 }
}
Shape { geometry IndexedFaceSet
{ creaseAngle 0.50 coordIndex [0,1,2,-1,3,4,1,-1,3,1,0,-1,5,4,3,-1]
coord Coordinate { point [2.900 -1.700 0.849,2.750 -2.300 0.849,2.900 -2.300 0.849,2.750 -1.700 0.849,2.720 -2.300 0.849,2.720 -1.700 0.849]
}}
appearance Appearance{material USE PIN-01 }
}
Shape { geometry IndexedFaceSet
{ creaseAngle 0.50 coordIndex [0,1,2,-1,3,4,1,-1,3,1,0,-1,5,4,3,-1,6,0,7,-1,6,3,0,-1,8,7,9,-1,8,6,7,-1]
coord Coordinate { point [2.950 -1.910 0.000,2.950 -1.700 0.699,2.950 -1.700 0.000,2.950 -2.090 0.000,2.950 -2.300 0.699,2.950 -2.300 0.000,2.950 -2.090 -1.119,2.950 -1.910 -1.119,2.950 -2.045 -1.299,2.950 -1.955 -1.299]
}}
appearance Appearance{material USE PIN-01 }
}
Shape { geometry IndexedFaceSet
{ creaseAngle 0.50 coordIndex [0,1,2,-1,0,2,3,-1]
coord Coordinate { point [3.050 -2.090 0.000,3.050 -2.300 0.000,2.950 -2.300 0.000,2.950 -2.090 0.000]
}}
appearance Appearance{material USE PIN-01 }
}
Shape { geometry IndexedFaceSet
{ creaseAngle 0.50 coordIndex [0,1,2,-1,1,3,4,-1,2,1,4,-1,4,3,5,-1,2,4,6,-1,6,4,7,-1,6,7,8,-1,8,7,9,-1]
coord Coordinate { point [3.050 -1.700 0.000,3.050 -1.700 0.699,3.050 -1.910 0.000,3.050 -2.300 0.699,3.050 -2.090 0.000,3.050 -2.300 0.000,3.050 -1.910 -1.119,3.050 -2.090 -1.119,3.050 -1.955 -1.299,3.050 -2.045 -1.299]
}}
appearance Appearance{material USE PIN-01 }
}
Shape { geometry IndexedFaceSet
{ creaseAngle 0.50 coordIndex [0,1,2,-1,3,0,2,-1,1,4,2,-1,3,2,5,-1,6,7,8,-1,7,9,8,-1,10,6,11,-1,6,8,11,-1,12,10,13,-1,10,11,13,-1,14,12,15,-1,12,13,15,-1,16,14,17,-1,14,15,17,-1,18,16,19,-1,16,17,19,-1,20,18,21,-1,18,19,21,-1,22,20,23,-1,24,22,23,-1,20,21,23,-1,24,23,25,-1,26,24,27,-1,28,26,27,-1,24,25,27,-1,28,27,29,-1,30,28,31,-1,28,29,31,-1,32,30,33,-1,30,31,33,-1,1,32,4,-1,32,33,4,-1]
coord Coordinate { point [3.049 -1.700 0.714,3.047 -1.700 0.728,3.049 -2.300 0.714,3.050 -1.700 0.699,3.047 -2.300 0.728,3.050 -2.300 0.699,2.915 -1.700 0.848,2.900 -1.700 0.849,2.915 -2.300 0.848,2.900 -2.300 0.849,2.929 -1.700 0.846,2.929 -2.300 0.846,2.944 -1.700 0.843,2.944 -2.300 0.843,2.957 -1.700 0.838,2.957 -2.300 0.838,2.971 -1.700 0.832,2.971 -2.300 0.832,2.983 -1.700 0.824,2.983 -2.300 0.824,2.995 -1.700 0.815,2.995 -2.300 0.815,3.006 -1.700 0.805,3.006 -2.300 0.805,3.016 -1.700 0.794,3.016 -2.300 0.794,3.025 -1.700 0.783,3.025 -2.300 0.783,3.032 -1.700 0.770,3.032 -2.300 0.770,3.039 -1.700 0.757,3.039 -2.300 0.757,3.044 -1.700 0.743,3.044 -2.300 0.743]
}}
appearance Appearance{material USE PIN-01 }
}
Shape { geometry IndexedFaceSet
{ creaseAngle 0.50 coordIndex [0,1,2,-1,3,4,1,-1,3,1,0,-1,5,4,3,-1,6,0,7,-1,6,3,0,-1,8,7,9,-1,8,6,7,-1]
coord Coordinate { point [2.950 -0.910 0.000,2.950 -0.700 0.699,2.950 -0.700 0.000,2.950 -1.090 0.000,2.950 -1.300 0.699,2.950 -1.300 0.000,2.950 -1.090 -1.119,2.950 -0.910 -1.119,2.950 -1.045 -1.299,2.950 -0.955 -1.299]
}}
appearance Appearance{material USE PIN-01 }
}
Shape { geometry IndexedFaceSet
{ creaseAngle 0.50 coordIndex [0,1,2,-1,0,2,3,-1]
coord Coordinate { point [3.050 -0.700 0.000,3.050 -0.910 0.000,2.950 -0.910 0.000,2.950 -0.700 0.000]
}}
appearance Appearance{material USE PIN-01 }
}
Shape { geometry IndexedFaceSet
{ creaseAngle 0.50 coordIndex [0,1,2,-1,1,3,4,-1,2,1,4,-1,4,3,5,-1,2,4,6,-1,6,4,7,-1,6,7,8,-1,8,7,9,-1]
coord Coordinate { point [3.050 -0.700 0.000,3.050 -0.700 0.699,3.050 -0.910 0.000,3.050 -1.300 0.699,3.050 -1.090 0.000,3.050 -1.300 0.000,3.050 -0.910 -1.119,3.050 -1.090 -1.119,3.050 -0.955 -1.299,3.050 -1.045 -1.299]
}}
appearance Appearance{material USE PIN-01 }
}
Shape { geometry IndexedFaceSet
{ creaseAngle 0.50 coordIndex [0,1,2,-1,3,4,5,-1,6,3,5,-1,4,2,5,-1,6,5,7,-1,8,9,10,-1,9,11,10,-1,12,8,13,-1,8,10,13,-1,14,12,15,-1,12,13,15,-1,16,14,17,-1,14,15,17,-1,18,16,19,-1,16,17,19,-1,20,18,21,-1,18,19,21,-1,22,20,23,-1,20,21,23,-1,24,22,25,-1,26,24,25,-1,22,23,25,-1,26,25,27,-1,28,26,29,-1,26,27,29,-1,30,28,31,-1,28,29,31,-1,32,30,33,-1,30,31,33,-1,0,32,1,-1,32,33,1,-1,4,0,2,-1]
coord Coordinate { point [3.044 -0.700 0.743,3.044 -1.300 0.743,3.047 -1.300 0.728,3.049 -0.700 0.714,3.047 -0.700 0.728,3.049 -1.300 0.714,3.050 -0.700 0.699,3.050 -1.300 0.699,2.915 -0.700 0.848,2.900 -0.700 0.849,2.915 -1.300 0.848,2.900 -1.300 0.849,2.929 -0.700 0.846,2.929 -1.300 0.846,2.944 -0.700 0.843,2.944 -1.300 0.843,2.957 -0.700 0.838,2.957 -1.300 0.838,2.971 -0.700 0.832,2.971 -1.300 0.832,2.983 -0.700 0.824,2.983 -1.300 0.824,2.995 -0.700 0.815,2.995 -1.300 0.815,3.006 -0.700 0.805,3.006 -1.300 0.805,3.016 -0.700 0.794,3.016 -1.300 0.794,3.025 -0.700 0.783,3.025 -1.300 0.783,3.032 -0.700 0.770,3.032 -1.300 0.770,3.039 -0.700 0.757,3.039 -1.300 0.757]
}}
appearance Appearance{material USE PIN-01 }
}
Shape { geometry IndexedFaceSet
{ creaseAngle 0.50 coordIndex [0,1,2,-1,3,4,1,-1,3,1,0,-1,5,4,3,-1]
coord Coordinate { point [2.900 -0.700 0.849,2.750 -1.300 0.849,2.900 -1.300 0.849,2.750 -0.700 0.849,2.720 -1.300 0.849,2.720 -0.700 0.849]
}}
appearance Appearance{material USE PIN-01 }
}
Shape { geometry IndexedFaceSet
{ creaseAngle 0.50 coordIndex [0,1,2,-1,0,2,3,-1]
coord Coordinate { point [3.050 -1.700 0.000,3.050 -1.910 0.000,2.950 -1.910 0.000,2.950 -1.700 0.000]
}}
appearance Appearance{material USE PIN-01 }
}
Shape { geometry IndexedFaceSet
{ creaseAngle 0.50 coordIndex [0,1,2,-1,0,2,3,-1]
coord Coordinate { point [3.050 -1.090 0.000,3.050 -1.300 0.000,2.950 -1.300 0.000,2.950 -1.090 0.000]
}}
appearance Appearance{material USE PIN-01 }
}
Shape { geometry IndexedFaceSet
{ creaseAngle 0.50 coordIndex [0,1,2,-1,3,1,0,-1,4,1,3,-1,5,0,2,-1,6,5,2,-1,7,8,5,-1,7,9,8,-1,7,5,6,-1]
coord Coordinate { point [1.795 0.210 1.252,2.593 0.168 1.449,2.720 0.295 0.849,1.795 0.189 1.351,1.794 0.168 1.449,1.205 0.210 1.252,0.280 0.295 0.849,0.407 0.168 1.449,1.205 0.189 1.351,1.206 0.168 1.449]
}}
appearance Appearance{material USE IC-BODY-EPOXY-04 }
}
Shape { geometry IndexedFaceSet
{ creaseAngle 0.50 coordIndex [0,1,2,-1,0,2,3,-1,4,0,3,-1,5,0,4,-1,6,7,8,-1,6,9,7,-1,6,10,11,-1,6,11,9,-1,6,0,5,-1,6,5,10,-1]
coord Coordinate { point [0.407 0.168 1.449,0.280 0.295 0.849,0.280 0.090 0.849,0.280 -0.300 0.849,0.280 -0.700 0.849,0.280 -1.300 0.849,0.407 -3.168 1.449,0.280 -3.090 0.849,0.280 -3.295 0.849,0.280 -2.700 0.849,0.280 -1.700 0.849,0.280 -2.300 0.849]
}}
appearance Appearance{material USE IC-BODY-EPOXY-04 }
}
Shape { geometry IndexedFaceSet
{ creaseAngle 0.50 coordIndex [0,1,2,-1,3,4,1,-1,3,1,0,-1,5,4,3,-1]
coord Coordinate { point [0.280 0.090 0.849,0.250 -0.300 0.849,0.280 -0.300 0.849,0.250 0.090 0.849,0.100 -0.300 0.849,0.100 0.090 0.849]
}}
appearance Appearance{material USE PIN-01 }
}
Shape { geometry IndexedFaceSet
{ creaseAngle 0.50 coordIndex [0,1,2,-1,0,2,3,-1,4,0,5,-1,6,5,7,-1,6,4,5,-1,4,1,0,-1]
coord Coordinate { point [0.050 -0.090 0.000,0.050 0.090 0.699,0.050 -0.300 0.699,0.050 -0.300 0.000,0.050 0.090 -1.119,0.050 -0.090 -1.119,0.050 0.045 -1.299,0.050 -0.045 -1.299]
}}
appearance Appearance{material USE PIN-01 }
}
Shape { geometry IndexedFaceSet
{ creaseAngle 0.50 coordIndex [0,1,2,-1,0,2,3,-1]
coord Coordinate { point [-0.050 0.045 -1.299,-0.050 0.090 -1.119,0.050 0.090 -1.119,0.050 0.045 -1.299]
}}
appearance Appearance{material USE PIN-01 }
}
Shape { geometry IndexedFaceSet
{ creaseAngle 0.50 coordIndex [0,1,2,-1,3,0,2,-1,4,2,5,-1,4,5,6,-1,6,5,7,-1,2,1,5,-1]
coord Coordinate { point [-0.050 -0.300 0.699,-0.050 0.090 0.699,-0.050 -0.090 0.000,-0.050 -0.300 0.000,-0.050 -0.090 -1.119,-0.050 0.090 -1.119,-0.050 -0.045 -1.299,-0.050 0.045 -1.299]
}}
appearance Appearance{material USE PIN-01 }
}
Shape { geometry IndexedFaceSet
{ creaseAngle 0.50 coordIndex [0,1,2,-1,3,2,4,-1,5,3,6,-1,3,4,6,-1,7,8,9,-1,8,10,9,-1,11,7,12,-1,7,9,12,-1,13,11,14,-1,11,12,14,-1,15,13,16,-1,13,14,16,-1,17,15,18,-1,15,16,18,-1,19,17,20,-1,17,18,20,-1,21,19,22,-1,19,20,22,-1,23,21,24,-1,21,22,24,-1,25,23,26,-1,23,24,26,-1,27,25,28,-1,25,26,28,-1,29,27,30,-1,31,29,30,-1,27,28,30,-1,31,30,32,-1,0,31,1,-1,31,32,1,-1,33,0,2,-1,3,33,2,-1]
coord Coordinate { point [-0.044 -0.300 0.743,-0.044 0.090 0.743,-0.047 0.090 0.728,-0.049 -0.300 0.714,-0.049 0.090 0.714,-0.050 -0.300 0.699,-0.050 0.090 0.699,0.085 -0.300 0.848,0.100 -0.300 0.849,0.085 0.090 0.848,0.100 0.090 0.849,0.071 -0.300 0.846,0.071 0.090 0.846,0.056 -0.300 0.843,0.056 0.090 0.843,0.043 -0.300 0.838,0.043 0.090 0.838,0.029 -0.300 0.832,0.029 0.090 0.832,0.017 -0.300 0.824,0.017 0.090 0.824,0.005 -0.300 0.815,0.005 0.090 0.815,-0.006 -0.300 0.805,-0.006 0.090 0.805,-0.016 -0.300 0.794,-0.016 0.090 0.794,-0.025 -0.300 0.783,-0.025 0.090 0.783,-0.032 -0.300 0.770,-0.032 0.090 0.770,-0.039 -0.300 0.757,-0.039 0.090 0.757,-0.047 -0.300 0.728]
}}
appearance Appearance{material USE PIN-01 }
}
Shape { geometry IndexedFaceSet
{ creaseAngle 0.50 coordIndex [0,1,2,-1,3,1,0,-1,4,3,0,-1,5,4,0,-1,6,7,4,-1,6,4,5,-1]
coord Coordinate { point [-0.050 -3.090 -1.119,-0.050 -2.955 -1.299,-0.050 -3.045 -1.299,-0.050 -2.910 -1.119,-0.050 -2.910 0.000,-0.050 -3.090 0.699,-0.050 -2.700 0.699,-0.050 -2.700 0.000]
}}
appearance Appearance{material USE PIN-01 }
}
Shape { geometry IndexedFaceSet
{ creaseAngle 0.50 coordIndex [0,1,2,-1,3,0,2,-1]
coord Coordinate { point [0.050 -3.090 -1.119,-0.050 -3.090 -1.119,-0.050 -3.045 -1.299,0.050 -3.045 -1.299]
}}
appearance Appearance{material USE PIN-01 }
}
Shape { geometry IndexedFaceSet
{ creaseAngle 0.50 coordIndex [0,1,2,-1,2,1,3,-1,2,3,4,-1,2,4,5,-1,4,6,7,-1,5,4,7,-1]
coord Coordinate { point [0.050 -3.045 -1.299,0.050 -2.955 -1.299,0.050 -3.090 -1.119,0.050 -2.910 -1.119,0.050 -2.910 0.000,0.050 -3.090 0.699,0.050 -2.700 0.000,0.050 -2.700 0.699]
}}
appearance Appearance{material USE PIN-01 }
}
Shape { geometry IndexedFaceSet
{ creaseAngle 0.50 coordIndex [0,1,2,-1,3,4,1,-1,3,1,0,-1,5,4,3,-1]
coord Coordinate { point [0.280 -2.700 0.849,0.250 -3.090 0.849,0.280 -3.090 0.849,0.250 -2.700 0.849,0.100 -3.090 0.849,0.100 -2.700 0.849]
}}
appearance Appearance{material USE PIN-01 }
}
Shape { geometry IndexedFaceSet
{ creaseAngle 0.50 coordIndex [0,1,2,-1,3,4,5,-1,3,0,4,-1,6,5,7,-1,6,3,5,-1,8,9,10,-1,8,11,9,-1,12,10,13,-1,12,8,10,-1,14,13,15,-1,14,12,13,-1,16,15,17,-1,16,14,15,-1,18,17,19,-1,18,16,17,-1,20,19,21,-1,20,18,19,-1,22,21,23,-1,22,23,24,-1,22,20,21,-1,25,22,24,-1,26,24,27,-1,26,25,24,-1,28,27,29,-1,28,26,27,-1,30,29,31,-1,30,28,29,-1,32,31,33,-1,32,30,31,-1,1,33,2,-1,1,32,33,-1,0,2,4,-1]
coord Coordinate { point [0.071 -2.700 0.846,0.056 -2.700 0.843,0.056 -3.090 0.843,0.085 -2.700 0.848,0.071 -3.090 0.846,0.085 -3.090 0.848,0.100 -2.700 0.849,0.100 -3.090 0.849,-0.049 -2.700 0.714,-0.050 -3.090 0.699,-0.049 -3.090 0.714,-0.050 -2.700 0.699,-0.047 -2.700 0.728,-0.047 -3.090 0.728,-0.044 -2.700 0.743,-0.044 -3.090 0.743,-0.039 -2.700 0.757,-0.039 -3.090 0.757,-0.032 -2.700 0.770,-0.032 -3.090 0.770,-0.025 -2.700 0.783,-0.025 -3.090 0.783,-0.016 -2.700 0.794,-0.016 -3.090 0.794,-0.006 -3.090 0.805,-0.006 -2.700 0.805,0.005 -2.700 0.815,0.005 -3.090 0.815,0.017 -2.700 0.824,0.017 -3.090 0.824,0.029 -2.700 0.832,0.029 -3.090 0.832,0.043 -2.700 0.838,0.043 -3.090 0.838]
}}
appearance Appearance{material USE PIN-01 }
}
Shape { geometry IndexedFaceSet
{ creaseAngle 0.50 coordIndex [0,1,2,-1,3,1,0,-1]
coord Coordinate { point [0.050 -0.300 0.000,-0.050 -0.090 0.000,0.050 -0.090 0.000,-0.050 -0.300 0.000]
}}
appearance Appearance{material USE PIN-01 }
}
Shape { geometry IndexedFaceSet
{ creaseAngle 0.50 coordIndex [0,1,2,-1,2,1,3,-1]
coord Coordinate { point [0.050 -2.910 0.000,-0.050 -2.910 0.000,0.050 -2.700 0.000,-0.050 -2.700 0.000]
}}
appearance Appearance{material USE PIN-01 }
}
Shape { geometry IndexedFaceSet
{ creaseAngle 0.50 coordIndex [0,1,2,-1,3,4,1,-1,3,1,0,-1,5,4,3,-1]
coord Coordinate { point [0.280 -0.700 0.849,0.250 -1.300 0.849,0.280 -1.300 0.849,0.250 -0.700 0.849,0.100 -1.300 0.849,0.100 -0.700 0.849]
}}
appearance Appearance{material USE PIN-01 }
}
Shape { geometry IndexedFaceSet
{ creaseAngle 0.50 coordIndex [0,1,2,-1,3,0,2,-1,1,4,2,-1,3,2,5,-1,6,7,8,-1,7,9,8,-1,10,6,11,-1,6,8,11,-1,12,10,13,-1,10,11,13,-1,14,12,15,-1,12,13,15,-1,16,14,17,-1,14,15,17,-1,18,16,19,-1,16,17,19,-1,20,18,21,-1,18,19,21,-1,22,20,23,-1,24,22,23,-1,20,21,23,-1,24,23,25,-1,26,24,27,-1,28,26,27,-1,24,25,27,-1,28,27,29,-1,30,28,31,-1,28,29,31,-1,32,30,33,-1,30,31,33,-1,1,32,4,-1,32,33,4,-1]
coord Coordinate { point [-0.049 -1.300 0.714,-0.047 -1.300 0.728,-0.049 -0.700 0.714,-0.050 -1.300 0.699,-0.047 -0.700 0.728,-0.050 -0.700 0.699,0.085 -1.300 0.848,0.100 -1.300 0.849,0.085 -0.700 0.848,0.100 -0.700 0.849,0.071 -1.300 0.846,0.071 -0.700 0.846,0.056 -1.300 0.843,0.056 -0.700 0.843,0.043 -1.300 0.838,0.043 -0.700 0.838,0.029 -1.300 0.832,0.029 -0.700 0.832,0.017 -1.300 0.824,0.017 -0.700 0.824,0.005 -1.300 0.815,0.005 -0.700 0.815,-0.006 -1.300 0.805,-0.006 -0.700 0.805,-0.016 -1.300 0.794,-0.016 -0.700 0.794,-0.025 -1.300 0.783,-0.025 -0.700 0.783,-0.032 -1.300 0.770,-0.032 -0.700 0.770,-0.039 -1.300 0.757,-0.039 -0.700 0.757,-0.044 -1.300 0.743,-0.044 -0.700 0.743]
}}
appearance Appearance{material USE PIN-01 }
}
Shape { geometry IndexedFaceSet
{ creaseAngle 0.50 coordIndex [0,1,2,-1,1,3,4,-1,2,1,4,-1,4,3,5,-1,2,4,6,-1,6,4,7,-1,6,7,8,-1,8,7,9,-1]
coord Coordinate { point [-0.050 -1.300 0.000,-0.050 -1.300 0.699,-0.050 -1.090 0.000,-0.050 -0.700 0.699,-0.050 -0.910 0.000,-0.050 -0.700 0.000,-0.050 -1.090 -1.119,-0.050 -0.910 -1.119,-0.050 -1.045 -1.299,-0.050 -0.955 -1.299]
}}
appearance Appearance{material USE PIN-01 }
}
Shape { geometry IndexedFaceSet
{ creaseAngle 0.50 coordIndex [0,1,2,-1,3,1,0,-1]
coord Coordinate { point [0.050 -0.910 0.000,-0.050 -0.700 0.000,0.050 -0.700 0.000,-0.050 -0.910 0.000]
}}
appearance Appearance{material USE PIN-01 }
}
Shape { geometry IndexedFaceSet
{ creaseAngle 0.50 coordIndex [0,1,2,-1,3,4,1,-1,3,1,0,-1,5,4,3,-1,6,0,7,-1,6,3,0,-1,8,7,9,-1,8,6,7,-1]
coord Coordinate { point [0.050 -1.090 0.000,0.050 -1.300 0.699,0.050 -1.300 0.000,0.050 -0.910 0.000,0.050 -0.700 0.699,0.050 -0.700 0.000,0.050 -0.910 -1.119,0.050 -1.090 -1.119,0.050 -0.955 -1.299,0.050 -1.045 -1.299]
}}
appearance Appearance{material USE PIN-01 }
}
Shape { geometry IndexedFaceSet
{ creaseAngle 0.50 coordIndex [0,1,2,-1,3,2,4,-1,5,3,6,-1,3,4,6,-1,7,8,9,-1,8,10,9,-1,11,7,12,-1,7,9,12,-1,13,11,14,-1,11,12,14,-1,15,13,16,-1,13,14,16,-1,17,15,18,-1,15,16,18,-1,19,17,20,-1,17,18,20,-1,21,19,22,-1,19,20,22,-1,23,21,24,-1,21,22,24,-1,25,23,26,-1,27,25,26,-1,23,24,26,-1,27,26,28,-1,29,27,30,-1,27,28,30,-1,31,29,32,-1,29,30,32,-1,0,31,1,-1,31,32,1,-1,33,0,2,-1,3,33,2,-1]
coord Coordinate { point [-0.044 -2.300 0.743,-0.044 -1.700 0.743,-0.047 -1.700 0.728,-0.049 -2.300 0.714,-0.049 -1.700 0.714,-0.050 -2.300 0.699,-0.050 -1.700 0.699,0.085 -2.300 0.848,0.100 -2.300 0.849,0.085 -1.700 0.848,0.100 -1.700 0.849,0.071 -2.300 0.846,0.071 -1.700 0.846,0.056 -2.300 0.843,0.056 -1.700 0.843,0.043 -2.300 0.838,0.043 -1.700 0.838,0.029 -2.300 0.832,0.029 -1.700 0.832,0.017 -2.300 0.824,0.017 -1.700 0.824,0.005 -2.300 0.815,0.005 -1.700 0.815,-0.006 -2.300 0.805,-0.006 -1.700 0.805,-0.016 -2.300 0.794,-0.016 -1.700 0.794,-0.025 -2.300 0.783,-0.025 -1.700 0.783,-0.032 -2.300 0.770,-0.032 -1.700 0.770,-0.039 -2.300 0.757,-0.039 -1.700 0.757,-0.047 -2.300 0.728]
}}
appearance Appearance{material USE PIN-01 }
}
Shape { geometry IndexedFaceSet
{ creaseAngle 0.50 coordIndex [0,1,2,-1,1,3,4,-1,2,1,4,-1,4,3,5,-1,2,4,6,-1,6,4,7,-1,6,7,8,-1,8,7,9,-1]
coord Coordinate { point [-0.050 -2.300 0.000,-0.050 -2.300 0.699,-0.050 -2.090 0.000,-0.050 -1.700 0.699,-0.050 -1.910 0.000,-0.050 -1.700 0.000,-0.050 -2.090 -1.119,-0.050 -1.910 -1.119,-0.050 -2.045 -1.299,-0.050 -1.955 -1.299]
}}
appearance Appearance{material USE PIN-01 }
}
Shape { geometry IndexedFaceSet
{ creaseAngle 0.50 coordIndex [0,1,2,-1,3,1,0,-1]
coord Coordinate { point [0.050 -2.300 0.000,-0.050 -2.090 0.000,0.050 -2.090 0.000,-0.050 -2.300 0.000]
}}
appearance Appearance{material USE PIN-01 }
}
Shape { geometry IndexedFaceSet
{ creaseAngle 0.50 coordIndex [0,1,2,-1,3,4,1,-1,3,1,0,-1,5,4,3,-1,6,0,7,-1,6,3,0,-1,8,7,9,-1,8,6,7,-1]
coord Coordinate { point [0.050 -2.090 0.000,0.050 -2.300 0.699,0.050 -2.300 0.000,0.050 -1.910 0.000,0.050 -1.700 0.699,0.050 -1.700 0.000,0.050 -1.910 -1.119,0.050 -2.090 -1.119,0.050 -1.955 -1.299,0.050 -2.045 -1.299]
}}
appearance Appearance{material USE PIN-01 }
}
Shape { geometry IndexedFaceSet
{ creaseAngle 0.50 coordIndex [0,1,2,-1,0,2,3,-1,4,5,1,-1,4,1,0,-1]
coord Coordinate { point [0.250 -1.700 0.849,0.250 -2.300 0.849,0.280 -2.300 0.849,0.280 -1.700 0.849,0.100 -1.700 0.849,0.100 -2.300 0.849]
}}
appearance Appearance{material USE PIN-01 }
}
Shape { geometry IndexedFaceSet
{ creaseAngle 0.50 coordIndex [0,1,2,-1,3,1,0,-1]
coord Coordinate { point [0.050 -1.300 0.000,-0.050 -1.090 0.000,0.050 -1.090 0.000,-0.050 -1.300 0.000]
}}
appearance Appearance{material USE PIN-01 }
}
Shape { geometry IndexedFaceSet
{ creaseAngle 0.50 coordIndex [0,1,2,-1,0,2,3,-1]
coord Coordinate { point [-0.050 -1.910 0.000,-0.050 -1.700 0.000,0.050 -1.700 0.000,0.050 -1.910 0.000]
}}
appearance Appearance{material USE PIN-01 }
}
Shape { geometry IndexedFaceSet
{ creaseAngle 0.50 coordIndex [0,1,2,-1,3,1,0,-1,4,1,3,-1,5,2,6,-1,5,0,2,-1,7,0,5,-1,8,3,0,-1,8,0,7,-1,9,4,3,-1,9,1,4,-1,9,3,8,-1,10,5,6,-1,10,7,5,-1,11,8,7,-1,11,7,10,-1,12,9,8,-1,12,8,11,-1,13,14,1,-1,13,1,9,-1,13,9,12,-1,15,10,6,-1,16,6,14,-1,16,11,10,-1,16,15,6,-1,16,10,15,-1,17,12,11,-1,17,11,16,-1,17,16,14,-1,18,14,13,-1,18,13,12,-1,18,17,14,-1,18,12,17,-1]
coord Coordinate { point [0.798 -3.244 1.089,0.407 -3.168 1.449,0.280 -3.295 0.849,0.814 -3.219 1.209,0.829 -3.193 1.329,1.261 -3.270 0.969,2.720 -3.295 0.849,1.266 -3.244 1.089,1.271 -3.219 1.209,1.276 -3.193 1.329,1.739 -3.270 0.969,1.734 -3.244 1.089,1.729 -3.219 1.209,1.724 -3.193 1.329,2.593 -3.168 1.449,2.217 -3.270 0.969,2.202 -3.244 1.089,2.186 -3.219 1.209,2.171 -3.193 1.329]
}}
appearance Appearance{material USE IC-BODY-EPOXY-04 }
}
Shape { geometry IndexedFaceSet
{ creaseAngle 0.50 coordIndex [0,1,2,-1,3,4,5,-1,4,3,6,-1,3,5,7,-1,6,3,8,-1,3,7,9,-1,3,10,11,-1,12,10,13,-1,14,15,13,-1,8,3,11,-1,15,16,13,-1,16,17,13,-1,17,18,13,-1,18,19,13,-1,3,9,20,-1,19,21,13,-1,21,22,13,-1,22,23,13,-1,23,24,13,-1,24,25,13,-1,25,26,13,-1,26,27,13,-1,11,10,28,-1,27,29,13,-1,29,12,13,-1,3,20,30,-1,28,10,31,-1,31,10,32,-1,32,10,33,-1,33,10,34,-1,30,35,0,-1,35,36,0,-1,36,37,0,-1,3,30,0,-1,0,37,38,-1,34,10,39,-1,0,38,40,-1,39,10,41,-1,0,40,42,-1,41,10,12,-1,0,42,43,-1,0,43,44,-1,0,44,45,-1,0,45,46,-1,0,46,47,-1,0,47,48,-1,0,48,1,-1]
coord Coordinate { point [0.407 0.168 1.449,1.209 0.148 1.449,1.206 0.168 1.449,0.407 -3.168 1.449,1.441 -0.092 1.449,1.422 -0.087 1.449,1.461 -0.095 1.449,1.403 -0.082 1.449,1.480 -0.097 1.449,1.385 -0.074 1.449,2.593 -3.168 1.449,1.500 -0.098 1.449,1.650 -0.057 1.449,2.593 0.168 1.449,1.794 0.168 1.449,1.791 0.148 1.449,1.787 0.129 1.449,1.782 0.110 1.449,1.776 0.091 1.449,1.768 0.073 1.449,1.367 -0.066 1.449,1.759 0.055 1.449,1.749 0.038 1.449,1.738 0.022 1.449,1.725 0.007 1.449,1.712 -0.008 1.449,1.698 -0.022 1.449,1.683 -0.034 1.449,1.520 -0.097 1.449,1.667 -0.046 1.449,1.350 -0.057 1.449,1.539 -0.095 1.449,1.559 -0.092 1.449,1.578 -0.087 1.449,1.597 -0.082 1.449,1.333 -0.046 1.449,1.317 -0.034 1.449,1.302 -0.022 1.449,1.288 -0.008 1.449,1.615 -0.074 1.449,1.275 0.007 1.449,1.633 -0.066 1.449,1.262 0.022 1.449,1.251 0.038 1.449,1.241 0.055 1.449,1.232 0.073 1.449,1.224 0.091 1.449,1.218 0.110 1.449,1.213 0.129 1.449]
}}
appearance Appearance{material USE IC-BODY-EPOXY-04 }
}
Shape { geometry IndexedFaceSet
{ creaseAngle 0.50 coordIndex [0,1,2,-1,3,0,2,-1]
coord Coordinate { point [3.050 -3.045 -1.299,2.950 -3.045 -1.299,2.950 -2.955 -1.299,3.050 -2.955 -1.299]
}}
appearance Appearance{material USE PIN-01 }
}
Shape { geometry IndexedFaceSet
{ creaseAngle 0.50 coordIndex [0,1,2,-1,0,2,3,-1]
coord Coordinate { point [3.050 -2.910 -1.119,3.050 -2.955 -1.299,2.950 -2.955 -1.299,2.950 -2.910 -1.119]
}}
appearance Appearance{material USE PIN-01 }
}
Shape { geometry IndexedFaceSet
{ creaseAngle 0.50 coordIndex [0,1,2,-1,0,2,3,-1]
coord Coordinate { point [3.050 -2.910 0.000,3.050 -2.910 -1.119,2.950 -2.910 -1.119,2.950 -2.910 0.000]
}}
appearance Appearance{material USE PIN-01 }
}
Shape { geometry IndexedFaceSet
{ creaseAngle 0.50 coordIndex [0,1,2,-1,3,0,2,-1]
coord Coordinate { point [2.950 0.045 -1.299,3.050 0.045 -1.299,3.050 -0.045 -1.299,2.950 -0.045 -1.299]
}}
appearance Appearance{material USE PIN-01 }
}
Shape { geometry IndexedFaceSet
{ creaseAngle 0.50 coordIndex [0,1,2,-1,3,0,2,-1]
coord Coordinate { point [2.950 -0.045 -1.299,3.050 -0.045 -1.299,3.050 -0.090 -1.119,2.950 -0.090 -1.119]
}}
appearance Appearance{material USE PIN-01 }
}
Shape { geometry IndexedFaceSet
{ creaseAngle 0.50 coordIndex [0,1,2,-1,3,0,2,-1]
coord Coordinate { point [2.950 -0.090 -1.119,3.050 -0.090 -1.119,3.050 -0.090 0.000,2.950 -0.090 0.000]
}}
appearance Appearance{material USE PIN-01 }
}
Shape { geometry IndexedFaceSet
{ creaseAngle 0.50 coordIndex [0,1,2,-1,0,2,3,-1]
coord Coordinate { point [3.050 -2.090 -1.119,3.050 -2.090 0.000,2.950 -2.090 0.000,2.950 -2.090 -1.119]
}}
appearance Appearance{material USE PIN-01 }
}
Shape { geometry IndexedFaceSet
{ creaseAngle 0.50 coordIndex [0,1,2,-1,0,2,3,-1]
coord Coordinate { point [3.050 -2.045 -1.299,3.050 -2.090 -1.119,2.950 -2.090 -1.119,2.950 -2.045 -1.299]
}}
appearance Appearance{material USE PIN-01 }
}
Shape { geometry IndexedFaceSet
{ creaseAngle 0.50 coordIndex [0,1,2,-1,0,2,3,-1]
coord Coordinate { point [3.050 -1.910 0.000,3.050 -1.910 -1.119,2.950 -1.910 -1.119,2.950 -1.910 0.000]
}}
appearance Appearance{material USE PIN-01 }
}
Shape { geometry IndexedFaceSet
{ creaseAngle 0.50 coordIndex [0,1,2,-1,0,2,3,-1]
coord Coordinate { point [3.050 -1.955 -1.299,3.050 -2.045 -1.299,2.950 -2.045 -1.299,2.950 -1.955 -1.299]
}}
appearance Appearance{material USE PIN-01 }
}
Shape { geometry IndexedFaceSet
{ creaseAngle 0.50 coordIndex [0,1,2,-1,0,2,3,-1]
coord Coordinate { point [3.050 -1.910 -1.119,3.050 -1.955 -1.299,2.950 -1.955 -1.299,2.950 -1.910 -1.119]
}}
appearance Appearance{material USE PIN-01 }
}
Shape { geometry IndexedFaceSet
{ creaseAngle 0.50 coordIndex [0,1,2,-1,0,2,3,-1]
coord Coordinate { point [3.050 -1.090 -1.119,3.050 -1.090 0.000,2.950 -1.090 0.000,2.950 -1.090 -1.119]
}}
appearance Appearance{material USE PIN-01 }
}
Shape { geometry IndexedFaceSet
{ creaseAngle 0.50 coordIndex [0,1,2,-1,0,2,3,-1]
coord Coordinate { point [3.050 -1.045 -1.299,3.050 -1.090 -1.119,2.950 -1.090 -1.119,2.950 -1.045 -1.299]
}}
appearance Appearance{material USE PIN-01 }
}
Shape { geometry IndexedFaceSet
{ creaseAngle 0.50 coordIndex [0,1,2,-1,0,2,3,-1]
coord Coordinate { point [3.050 -0.910 0.000,3.050 -0.910 -1.119,2.950 -0.910 -1.119,2.950 -0.910 0.000]
}}
appearance Appearance{material USE PIN-01 }
}
Shape { geometry IndexedFaceSet
{ creaseAngle 0.50 coordIndex [0,1,2,-1,3,0,2,-1]
coord Coordinate { point [3.050 -1.045 -1.299,2.950 -1.045 -1.299,2.950 -0.955 -1.299,3.050 -0.955 -1.299]
}}
appearance Appearance{material USE PIN-01 }
}
Shape { geometry IndexedFaceSet
{ creaseAngle 0.50 coordIndex [0,1,2,-1,0,2,3,-1]
coord Coordinate { point [3.050 -0.910 -1.119,3.050 -0.955 -1.299,2.950 -0.955 -1.299,2.950 -0.910 -1.119]
}}
appearance Appearance{material USE PIN-01 }
}
Shape { geometry IndexedFaceSet
{ creaseAngle 0.50 coordIndex [0,1,2,-1,3,4,5,-1,6,7,8,-1,9,3,5,-1,10,0,2,-1,11,6,8,-1,12,13,14,-1,15,12,14,-1,9,5,16,-1,15,14,17,-1,18,9,16,-1,10,2,19,-1,20,10,19,-1,11,8,21,-1,22,11,21,-1,18,16,23,-1,24,18,23,-1,20,19,25,-1,26,20,25,-1,24,23,27,-1,28,24,27,-1,22,21,29,-1,30,22,29,-1,14,31,32,-1,28,27,33,-1,26,25,34,-1,35,26,34,-1,28,33,36,-1,37,28,36,-1,14,32,38,-1,39,37,36,-1,40,30,41,-1,42,39,36,-1,30,29,41,-1,36,33,43,-1,36,43,44,-1,35,34,45,-1,46,35,45,-1,36,44,47,-1,14,38,48,-1,36,47,49,-1,50,40,51,-1,36,49,52,-1,46,45,53,-1,40,41,51,-1,54,46,53,-1,14,48,55,-1,56,50,57,-1,54,53,58,-1,59,54,58,-1,17,14,60,-1,50,51,57,-1,14,55,60,-1,56,57,61,-1,62,56,61,-1,59,58,63,-1,64,59,63,-1,17,60,65,-1,66,17,65,-1,67,62,68,-1,64,63,69,-1,70,64,69,-1,62,61,68,-1,66,65,71,-1,72,66,71,-1,73,67,74,-1,70,69,75,-1,76,70,75,-1,67,68,74,-1,72,71,77,-1,78,72,77,-1,79,73,80,-1,76,75,81,-1,82,76,81,-1,73,74,80,-1,78,77,83,-1,84,78,83,-1,82,81,85,-1,86,79,87,-1,88,82,85,-1,79,80,87,-1,84,83,89,-1,86,87,90,-1,91,84,89,-1,88,85,92,-1,93,86,90,-1,94,88,92,-1,93,90,1,-1,94,92,4,-1,91,89,7,-1,95,93,1,-1,6,91,7,-1,0,95,1,-1,3,94,4,-1]
coord Coordinate { point [1.480 -0.097 1.449,1.500 -0.098 1.252,1.480 -0.097 1.252,1.251 0.038 1.449,1.261 0.023 1.252,1.250 0.040 1.252,1.725 0.007 1.449,1.726 0.008 1.252,1.713 -0.007 1.252,1.241 0.055 1.449,1.461 -0.095 1.449,1.712 -0.008 1.449,1.791 0.148 1.449,1.794 0.168 1.449,1.795 0.189 1.351,1.787 0.129 1.449,1.240 0.057 1.252,1.782 0.110 1.449,1.232 0.073 1.449,1.460 -0.095 1.252,1.441 -0.092 1.449,1.699 -0.021 1.252,1.698 -0.022 1.449,1.231 0.075 1.252,1.224 0.091 1.449,1.441 -0.092 1.252,1.422 -0.087 1.449,1.224 0.093 1.252,1.218 0.110 1.449,1.684 -0.034 1.252,1.683 -0.034 1.449,1.795 0.210 1.252,1.795 0.190 1.252,1.217 0.112 1.252,1.422 -0.087 1.252,1.403 -0.082 1.449,1.205 0.189 1.351,1.213 0.129 1.449,1.794 0.170 1.252,1.209 0.148 1.449,1.667 -0.046 1.449,1.668 -0.046 1.252,1.206 0.168 1.449,1.212 0.131 1.252,1.208 0.150 1.252,1.403 -0.081 1.252,1.385 -0.074 1.449,1.206 0.170 1.252,1.792 0.150 1.252,1.205 0.190 1.252,1.650 -0.057 1.449,1.651 -0.056 1.252,1.205 0.210 1.252,1.384 -0.074 1.252,1.367 -0.066 1.449,1.788 0.131 1.252,1.633 -0.066 1.449,1.634 -0.066 1.252,1.366 -0.066 1.252,1.350 -0.057 1.449,1.783 0.112 1.252,1.616 -0.074 1.252,1.615 -0.074 1.449,1.349 -0.056 1.252,1.333 -0.046 1.449,1.776 0.093 1.252,1.776 0.091 1.449,1.597 -0.082 1.449,1.597 -0.081 1.252,1.332 -0.046 1.252,1.317 -0.034 1.449,1.769 0.075 1.252,1.768 0.073 1.449,1.578 -0.087 1.449,1.578 -0.087 1.252,1.316 -0.034 1.252,1.302 -0.022 1.449,1.760 0.057 1.252,1.759 0.055 1.449,1.559 -0.092 1.449,1.559 -0.092 1.252,1.301 -0.021 1.252,1.288 -0.008 1.449,1.750 0.040 1.252,1.749 0.038 1.449,1.287 -0.007 1.252,1.539 -0.095 1.449,1.540 -0.095 1.252,1.275 0.007 1.449,1.739 0.023 1.252,1.520 -0.097 1.252,1.738 0.022 1.449,1.274 0.008 1.252,1.520 -0.097 1.449,1.262 0.022 1.449,1.500 -0.098 1.449]
}}
appearance Appearance{material USE IC-BODY-EPOXY-04 }
}
Shape { geometry IndexedFaceSet
{ creaseAngle 0.50 coordIndex [0,1,2,-1,3,4,5,-1,4,0,6,-1,0,2,6,-1,7,8,9,-1,2,10,6,-1,11,7,9,-1,12,11,9,-1,13,5,14,-1,14,5,15,-1,16,9,17,-1,18,19,20,-1,6,18,20,-1,5,4,21,-1,4,6,21,-1,15,5,21,-1,22,15,21,-1,6,20,21,-1,23,17,24,-1,25,23,24,-1,26,25,24,-1,27,21,28,-1,20,29,28,-1,21,20,28,-1,30,24,31,-1,32,30,31,-1,17,9,31,-1,24,17,31,-1,33,31,34,-1,31,9,34,-1,35,34,36,-1,37,36,38,-1,39,38,40,-1,9,8,40,-1,36,34,40,-1,34,9,40,-1,38,36,40,-1,40,8,41,-1,42,43,44,-1,45,41,4,-1,46,45,4,-1,41,8,4,-1,8,47,0,-1,42,44,0,-1,4,8,0,-1,47,42,0,-1,48,4,3,-1]
coord Coordinate { point [1.208 0.150 1.252,1.212 0.131 1.252,1.217 0.112 1.252,1.422 -0.087 1.252,1.460 -0.095 1.252,1.403 -0.081 1.252,1.231 0.075 1.252,1.794 0.170 1.252,1.795 0.190 1.252,1.783 0.112 1.252,1.224 0.093 1.252,1.792 0.150 1.252,1.788 0.131 1.252,1.384 -0.074 1.252,1.366 -0.066 1.252,1.349 -0.056 1.252,1.776 0.093 1.252,1.769 0.075 1.252,1.240 0.057 1.252,1.250 0.040 1.252,1.261 0.023 1.252,1.316 -0.034 1.252,1.332 -0.046 1.252,1.760 0.057 1.252,1.726 0.008 1.252,1.750 0.040 1.252,1.739 0.023 1.252,1.301 -0.021 1.252,1.287 -0.007 1.252,1.274 0.008 1.252,1.713 -0.007 1.252,1.684 -0.034 1.252,1.699 -0.021 1.252,1.668 -0.046 1.252,1.651 -0.056 1.252,1.634 -0.066 1.252,1.616 -0.074 1.252,1.597 -0.081 1.252,1.578 -0.087 1.252,1.559 -0.092 1.252,1.540 -0.095 1.252,1.520 -0.097 1.252,1.205 0.210 1.252,1.205 0.190 1.252,1.206 0.170 1.252,1.500 -0.098 1.252,1.480 -0.097 1.252,1.795 0.210 1.252,1.441 -0.092 1.252]
}}
appearance Appearance{material USE IC-BODY-EPOXY-04 }
}
Shape { geometry IndexedFaceSet
{ creaseAngle 0.50 coordIndex [0,1,2,-1,0,2,3,-1]
coord Coordinate { point [-0.050 -0.045 -1.299,-0.050 0.045 -1.299,0.050 0.045 -1.299,0.050 -0.045 -1.299]
}}
appearance Appearance{material USE PIN-01 }
}
Shape { geometry IndexedFaceSet
{ creaseAngle 0.50 coordIndex [0,1,2,-1,0,2,3,-1]
coord Coordinate { point [-0.050 -0.090 -1.119,-0.050 -0.045 -1.299,0.050 -0.045 -1.299,0.050 -0.090 -1.119]
}}
appearance Appearance{material USE PIN-01 }
}
Shape { geometry IndexedFaceSet
{ creaseAngle 0.50 coordIndex [0,1,2,-1,0,2,3,-1]
coord Coordinate { point [-0.050 -0.090 0.000,-0.050 -0.090 -1.119,0.050 -0.090 -1.119,0.050 -0.090 0.000]
}}
appearance Appearance{material USE PIN-01 }
}
Shape { geometry IndexedFaceSet
{ creaseAngle 0.50 coordIndex [0,1,2,-1,0,2,3,-1]
coord Coordinate { point [0.050 -2.955 -1.299,0.050 -3.045 -1.299,-0.050 -3.045 -1.299,-0.050 -2.955 -1.299]
}}
appearance Appearance{material USE PIN-01 }
}
Shape { geometry IndexedFaceSet
{ creaseAngle 0.50 coordIndex [0,1,2,-1,3,0,2,-1]
coord Coordinate { point [0.050 -2.955 -1.299,-0.050 -2.955 -1.299,-0.050 -2.910 -1.119,0.050 -2.910 -1.119]
}}
appearance Appearance{material USE PIN-01 }
}
Shape { geometry IndexedFaceSet
{ creaseAngle 0.50 coordIndex [0,1,2,-1,3,0,2,-1]
coord Coordinate { point [0.050 -2.910 -1.119,-0.050 -2.910 -1.119,-0.050 -2.910 0.000,0.050 -2.910 0.000]
}}
appearance Appearance{material USE PIN-01 }
}
Shape { geometry IndexedFaceSet
{ creaseAngle 0.50 coordIndex [0,1,2,-1,0,2,3,-1]
coord Coordinate { point [-0.050 -0.910 -1.119,-0.050 -0.910 0.000,0.050 -0.910 0.000,0.050 -0.910 -1.119]
}}
appearance Appearance{material USE PIN-01 }
}
Shape { geometry IndexedFaceSet
{ creaseAngle 0.50 coordIndex [0,1,2,-1,0,2,3,-1]
coord Coordinate { point [-0.050 -0.955 -1.299,-0.050 -0.910 -1.119,0.050 -0.910 -1.119,0.050 -0.955 -1.299]
}}
appearance Appearance{material USE PIN-01 }
}
Shape { geometry IndexedFaceSet
{ creaseAngle 0.50 coordIndex [0,1,2,-1,0,2,3,-1]
coord Coordinate { point [-0.050 -1.090 0.000,-0.050 -1.090 -1.119,0.050 -1.090 -1.119,0.050 -1.090 0.000]
}}
appearance Appearance{material USE PIN-01 }
}
Shape { geometry IndexedFaceSet
{ creaseAngle 0.50 coordIndex [0,1,2,-1,3,0,2,-1]
coord Coordinate { point [-0.050 -0.955 -1.299,0.050 -0.955 -1.299,0.050 -1.045 -1.299,-0.050 -1.045 -1.299]
}}
appearance Appearance{material USE PIN-01 }
}
Shape { geometry IndexedFaceSet
{ creaseAngle 0.50 coordIndex [0,1,2,-1,0,2,3,-1]
coord Coordinate { point [-0.050 -1.090 -1.119,-0.050 -1.045 -1.299,0.050 -1.045 -1.299,0.050 -1.090 -1.119]
}}
appearance Appearance{material USE PIN-01 }
}
Shape { geometry IndexedFaceSet
{ creaseAngle 0.50 coordIndex [0,1,2,-1,0,2,3,-1]
coord Coordinate { point [-0.050 -1.910 -1.119,-0.050 -1.910 0.000,0.050 -1.910 0.000,0.050 -1.910 -1.119]
}}
appearance Appearance{material USE PIN-01 }
}
Shape { geometry IndexedFaceSet
{ creaseAngle 0.50 coordIndex [0,1,2,-1,0,2,3,-1]
coord Coordinate { point [-0.050 -1.955 -1.299,-0.050 -1.910 -1.119,0.050 -1.910 -1.119,0.050 -1.955 -1.299]
}}
appearance Appearance{material USE PIN-01 }
}
Shape { geometry IndexedFaceSet
{ creaseAngle 0.50 coordIndex [0,1,2,-1,0,2,3,-1]
coord Coordinate { point [-0.050 -2.090 0.000,-0.050 -2.090 -1.119,0.050 -2.090 -1.119,0.050 -2.090 0.000]
}}
appearance Appearance{material USE PIN-01 }
}
Shape { geometry IndexedFaceSet
{ creaseAngle 0.50 coordIndex [0,1,2,-1,3,0,2,-1]
coord Coordinate { point [-0.050 -1.955 -1.299,0.050 -1.955 -1.299,0.050 -2.045 -1.299,-0.050 -2.045 -1.299]
}}
appearance Appearance{material USE PIN-01 }
}
Shape { geometry IndexedFaceSet
{ creaseAngle 0.50 coordIndex [0,1,2,-1,0,2,3,-1]
coord Coordinate { point [-0.050 -2.090 -1.119,-0.050 -2.045 -1.299,0.050 -2.045 -1.299,0.050 -2.090 -1.119]
}}
appearance Appearance{material USE PIN-01 }
}
